%!PS-Adobe-3.0 EPSF-3.0
%%Title: glps_renderer figure
%%Creator: GL2PS 1.3.8, (C) 1999-2012 C. Geuzaine
%%For: Octave
%%CreationDate: Sun Sep 10 21:53:45 2017
%%LanguageLevel: 3
%%DocumentData: Clean7Bit
%%Pages: 1
%%BoundingBox: 0 0 576 433
%%EndComments
%%BeginProlog
/gl2psdict 64 dict def gl2psdict begin
0 setlinecap 0 setlinejoin
/tryPS3shading false def % set to false to force subdivision
/rThreshold 0.064 def % red component subdivision threshold
/gThreshold 0.034 def % green component subdivision threshold
/bThreshold 0.1 def % blue component subdivision threshold
/BD { bind def } bind def
/C  { setrgbcolor } BD
/G  { 0.082 mul exch 0.6094 mul add exch 0.3086 mul add neg 1.0 add setgray } BD
/W  { setlinewidth } BD
/FC { findfont exch /SH exch def SH scalefont setfont } BD
/SW { dup stringwidth pop } BD
/S  { FC moveto show } BD
/SBC{ FC moveto SW -2 div 0 rmoveto show } BD
/SBR{ FC moveto SW neg 0 rmoveto show } BD
/SCL{ FC moveto 0 SH -2 div rmoveto show } BD
/SCC{ FC moveto SW -2 div SH -2 div rmoveto show } BD
/SCR{ FC moveto SW neg SH -2 div rmoveto show } BD
/STL{ FC moveto 0 SH neg rmoveto show } BD
/STC{ FC moveto SW -2 div SH neg rmoveto show } BD
/STR{ FC moveto SW neg SH neg rmoveto show } BD
/FCT { FC translate 0 0 } BD
/SR  { gsave FCT moveto rotate show grestore } BD
/SBCR{ gsave FCT moveto rotate SW -2 div 0 rmoveto show grestore } BD
/SBRR{ gsave FCT moveto rotate SW neg 0 rmoveto show grestore } BD
/SCLR{ gsave FCT moveto rotate 0 SH -2 div rmoveto show grestore} BD
/SCCR{ gsave FCT moveto rotate SW -2 div SH -2 div rmoveto show grestore} BD
/SCRR{ gsave FCT moveto rotate SW neg SH -2 div rmoveto show grestore} BD
/STLR{ gsave FCT moveto rotate 0 SH neg rmoveto show grestore } BD
/STCR{ gsave FCT moveto rotate SW -2 div SH neg rmoveto show grestore } BD
/STRR{ gsave FCT moveto rotate SW neg SH neg rmoveto show grestore } BD
/P  { newpath 0.0 360.0 arc closepath fill } BD
/LS { newpath moveto } BD
/L  { lineto } BD
/LE { lineto stroke } BD
/T  { newpath moveto lineto lineto closepath fill } BD
/STshfill {
      /b1 exch def /g1 exch def /r1 exch def /y1 exch def /x1 exch def
      /b2 exch def /g2 exch def /r2 exch def /y2 exch def /x2 exch def
      /b3 exch def /g3 exch def /r3 exch def /y3 exch def /x3 exch def
      gsave << /ShadingType 4 /ColorSpace [/DeviceRGB]
      /DataSource [ 0 x1 y1 r1 g1 b1 0 x2 y2 r2 g2 b2 0 x3 y3 r3 g3 b3 ] >>
      shfill grestore } BD
/Tm { 3 -1 roll 8 -1 roll 13 -1 roll add add 3 div
      3 -1 roll 7 -1 roll 11 -1 roll add add 3 div
      3 -1 roll 6 -1 roll 9 -1 roll add add 3 div C T } BD
/STsplit {
      4 index 15 index add 0.5 mul
      4 index 15 index add 0.5 mul
      4 index 15 index add 0.5 mul
      4 index 15 index add 0.5 mul
      4 index 15 index add 0.5 mul
      5 copy 5 copy 25 15 roll
      9 index 30 index add 0.5 mul
      9 index 30 index add 0.5 mul
      9 index 30 index add 0.5 mul
      9 index 30 index add 0.5 mul
      9 index 30 index add 0.5 mul
      5 copy 5 copy 35 5 roll 25 5 roll 15 5 roll
      4 index 10 index add 0.5 mul
      4 index 10 index add 0.5 mul
      4 index 10 index add 0.5 mul
      4 index 10 index add 0.5 mul
      4 index 10 index add 0.5 mul
      5 copy 5 copy 40 5 roll 25 5 roll 15 5 roll 25 5 roll
      STnoshfill STnoshfill STnoshfill STnoshfill } BD
/STnoshfill {
      2 index 8 index sub abs rThreshold gt
      { STsplit }
      { 1 index 7 index sub abs gThreshold gt
        { STsplit }
        { dup 6 index sub abs bThreshold gt
          { STsplit }
          { 2 index 13 index sub abs rThreshold gt
            { STsplit }
            { 1 index 12 index sub abs gThreshold gt
              { STsplit }
              { dup 11 index sub abs bThreshold gt
                { STsplit }
                { 7 index 13 index sub abs rThreshold gt
                  { STsplit }
                  { 6 index 12 index sub abs gThreshold gt
                    { STsplit }
                    { 5 index 11 index sub abs bThreshold gt
                      { STsplit }
                      { Tm }
                      ifelse }
                    ifelse }
                  ifelse }
                ifelse }
              ifelse }
            ifelse }
          ifelse }
        ifelse }
      ifelse } BD
tryPS3shading
{ /shfill where
  { /ST { STshfill } BD }
  { /ST { STnoshfill } BD }
  ifelse }
{ /ST { STnoshfill } BD }
ifelse
end
%%EndProlog
%%BeginSetup
/DeviceRGB setcolorspace
gl2psdict begin
%%EndSetup
%%Page: 1 1
%%BeginPageSetup
%%EndPageSetup
mark
gsave
1.0 1.0 scale
1 1 1 C
74.88 400.525 521.28 47.63 74.88 47.63 T
74.88 400.525 521.28 400.525 521.28 47.63 T
0.5 W
[16 0] 0 setdash
0 0 0 C
74.88 47.63 LS
521.28 47.63 LE
74.88 400.525 LS
521.28 400.525 LE
74.88 47.63 LS
74.88 400.525 LE
521.28 47.63 LS
521.28 400.525 LE
74.88 47.63 LS
74.88 52.0927 LE
74.88 400.525 LS
74.88 396.062 LE
186.48 47.63 LS
186.48 52.0927 LE
186.48 400.525 LS
186.48 396.062 LE
298.08 47.63 LS
298.08 52.0927 LE
298.08 400.525 LS
298.08 396.062 LE
409.68 47.63 LS
409.68 52.0927 LE
409.68 400.525 LS
409.68 396.062 LE
521.28 47.63 LS
521.28 52.0927 LE
521.28 400.525 LS
521.28 396.062 LE
(0) 74.88 42.6315 10 /Helvetica STC
(5) 186.48 42.6315 10 /Helvetica STC
(10) 298.08 42.6315 10 /Helvetica STC
(15) 409.68 42.6315 10 /Helvetica STC
(20) 521.28 42.6315 10 /Helvetica STC
74.88 47.63 LS
79.348 47.63 LE
521.28 47.63 LS
516.812 47.63 LE
74.88 135.854 LS
79.348 135.854 LE
521.28 135.854 LS
516.812 135.854 LE
74.88 224.078 LS
79.348 224.078 LE
521.28 224.078 LS
516.812 224.078 LE
74.88 312.301 LS
79.348 312.301 LE
521.28 312.301 LS
516.812 312.301 LE
74.88 400.525 LS
79.348 400.525 LE
521.28 400.525 LS
516.812 400.525 LE
(0.6) 69.8755 47.63 10 /Helvetica SCR
(0.7) 69.8755 135.854 10 /Helvetica SCR
(0.8) 69.8755 224.077 10 /Helvetica SCR
(0.9) 69.8755 312.301 10 /Helvetica SCR
(1) 69.8755 400.525 10 /Helvetica SCR
(structuring element sizes) 298.08 31.6315 14 /Helvetica STC
(Granulometry ) 90 50.8755 224.077 14 /Helvetica SBCR
2 W
[0 3 1 3 1 3 1 3 1 0] 0 setdash
1 0 0 C
97.2 400.525 LS
119.52 338.416 L
141.84 249.673 L
164.16 222.29 L
186.48 202.684 L
208.8 180.901 L
231.12 166.497 L
253.44 147.985 L
275.76 133.742 L
298.08 123.56 L
320.4 110.121 L
342.72 99.8019 L
365.04 89.4993 L
387.36 80.2509 L
409.68 81.781 LE
[] 0 setdash
94.2 400.525 LS
100.2 400.525 LE
97.2 403.525 LS
97.2 397.525 LE
116.52 338.416 LS
122.52 338.416 LE
119.52 341.416 LS
119.52 335.416 LE
138.84 249.673 LS
144.84 249.673 LE
141.84 252.673 LS
141.84 246.673 LE
161.16 222.29 LS
167.16 222.29 LE
164.16 225.29 LS
164.16 219.29 LE
183.48 202.684 LS
189.48 202.684 LE
186.48 205.684 LS
186.48 199.684 LE
205.8 180.901 LS
211.8 180.901 LE
208.8 183.901 LS
208.8 177.901 LE
228.12 166.497 LS
234.12 166.497 LE
231.12 169.497 LS
231.12 163.497 LE
250.44 147.985 LS
256.44 147.985 LE
253.44 150.985 LS
253.44 144.985 LE
272.76 133.742 LS
278.76 133.742 LE
275.76 136.742 LS
275.76 130.742 LE
295.08 123.56 LS
301.08 123.56 LE
298.08 126.56 LS
298.08 120.56 LE
317.4 110.121 LS
323.4 110.121 LE
320.4 113.121 LS
320.4 107.121 LE
339.72 99.8019 LS
345.72 99.8019 LE
342.72 102.802 LS
342.72 96.8019 LE
362.04 89.4993 LS
368.04 89.4993 LE
365.04 92.4993 LS
365.04 86.4993 LE
384.36 80.2509 LS
390.36 80.2509 LE
387.36 83.2509 LS
387.36 77.2509 LE
406.68 81.7811 LS
412.68 81.7811 LE
409.68 84.7811 LS
409.68 78.7811 LE
[0 3 1 3 1 3 1 3 1 0] 0 setdash
0 1 0 C
97.2 400.525 LS
119.52 355.979 L
141.84 271.82 L
164.16 247.27 L
186.48 248.237 L
208.8 226.083 L
231.12 211.799 L
253.44 205.026 L
275.76 194.54 L
298.08 198.803 L
320.4 191.028 L
342.72 191.14 L
365.04 201.062 L
387.36 193.393 L
409.68 184.124 LE
[] 0 setdash
100.2 400.525 LS
99.627 398.762 L
98.127 397.672 L
96.2729 397.672 L
94.7729 398.762 L
94.2 400.525 L
94.7729 402.288 L
96.2729 403.378 L
98.127 403.378 L
99.627 402.288 L
100.2 400.525 LE
122.52 355.979 LS
121.947 354.216 L
120.447 353.126 L
118.593 353.126 L
117.093 354.216 L
116.52 355.979 L
117.093 357.742 L
118.593 358.832 LE
120.447 358.832 LS
121.947 357.742 L
122.52 355.979 LE
144.84 271.82 LS
144.267 270.057 L
142.767 268.967 L
140.913 268.967 L
139.413 270.057 L
138.84 271.82 L
139.413 273.584 L
140.913 274.673 L
142.767 274.673 L
144.267 273.584 L
144.84 271.82 LE
167.16 247.27 LS
166.587 245.507 L
165.087 244.417 L
163.233 244.417 L
161.733 245.507 L
161.16 247.27 L
161.733 249.034 L
163.233 250.124 L
165.087 250.124 L
166.587 249.034 L
167.16 247.27 LE
189.48 248.237 LS
188.907 246.474 L
187.407 245.384 L
185.553 245.384 L
184.053 246.474 L
183.48 248.237 L
184.053 250.001 L
185.553 251.09 LE
187.407 251.09 LS
188.907 250.001 L
189.48 248.237 LE
211.8 226.083 LS
211.227 224.319 L
209.727 223.229 L
207.873 223.229 L
206.373 224.319 L
205.8 226.083 L
206.373 227.846 L
207.873 228.936 L
209.727 228.936 L
211.227 227.846 L
211.8 226.083 LE
234.12 211.799 LS
233.547 210.035 L
232.047 208.945 L
230.193 208.945 L
228.693 210.035 L
228.12 211.799 L
228.693 213.562 L
230.193 214.652 L
232.047 214.652 L
233.547 213.562 L
234.12 211.799 LE
256.44 205.026 LS
255.867 203.263 L
254.367 202.173 L
252.513 202.173 L
251.013 203.263 L
250.44 205.026 L
251.013 206.79 L
252.513 207.88 L
254.367 207.88 L
255.867 206.79 L
256.44 205.026 LE
278.76 194.54 LS
278.187 192.777 L
276.687 191.687 L
274.833 191.687 L
273.333 192.777 L
272.76 194.54 L
273.333 196.303 L
274.833 197.393 L
276.687 197.393 L
278.187 196.303 L
278.76 194.54 LE
301.08 198.803 LS
300.507 197.039 L
299.007 195.95 L
297.153 195.95 L
295.653 197.039 L
295.08 198.803 L
295.653 200.566 L
297.153 201.656 L
299.007 201.656 L
300.507 200.566 L
301.08 198.803 LE
323.4 191.028 LS
322.827 189.265 L
321.327 188.175 L
319.473 188.175 L
317.973 189.265 L
317.4 191.028 L
317.973 192.791 L
319.473 193.881 L
321.327 193.881 L
322.827 192.791 L
323.4 191.028 LE
345.72 191.14 LS
345.147 189.376 L
343.647 188.287 L
341.793 188.287 L
340.293 189.376 L
339.72 191.14 L
340.293 192.903 L
341.793 193.993 L
343.647 193.993 L
345.147 192.903 L
345.72 191.14 LE
368.04 201.062 LS
367.467 199.299 L
365.967 198.209 L
364.113 198.209 L
362.613 199.299 L
362.04 201.062 L
362.613 202.826 L
364.113 203.916 L
365.967 203.916 L
367.467 202.826 L
368.04 201.062 LE
390.36 193.393 LS
389.787 191.63 L
388.287 190.54 L
386.433 190.54 L
384.933 191.63 L
384.36 193.393 L
384.933 195.156 L
386.433 196.246 L
388.287 196.246 L
389.787 195.156 L
390.36 193.393 LE
412.68 184.124 LS
412.107 182.361 L
410.607 181.271 L
408.753 181.271 L
407.253 182.361 L
406.68 184.124 L
407.253 185.888 L
408.753 186.978 L
410.607 186.978 L
412.107 185.888 L
412.68 184.124 LE
[0 3 1 3 1 3 1 3 1 0] 0 setdash
0 0 1 C
97.2 400.525 LS
119.52 358.539 L
141.84 280.628 L
164.16 257.832 L
186.48 249.728 L
208.8 232.682 L
231.12 220.809 L
253.44 224.037 L
275.76 232.472 L
298.08 230.316 L
320.4 223.145 L
342.72 225.25 L
365.04 229.134 L
387.36 238.333 L
409.68 232.033 LE
99.2 400.525 97.818 398.623 98.818 399.349 T
99.2 400.525 96.582 398.623 97.818 398.623 T
99.2 400.525 95.582 399.349 96.582 398.623 T
99.2 400.525 95.2 400.525 95.582 399.349 T
99.2 400.525 95.582 401.701 95.2 400.525 T
99.2 400.525 96.582 402.427 95.582 401.701 T
99.2 400.525 97.818 402.427 96.582 402.427 T
99.2 400.525 98.818 401.701 97.818 402.427 T
121.52 358.539 120.138 356.637 121.138 357.363 T
121.52 358.539 118.902 356.637 120.138 356.637 T
121.52 358.539 117.902 357.363 118.902 356.637 T
121.52 358.539 117.52 358.539 117.902 357.363 T
121.52 358.539 117.902 359.715 117.52 358.539 T
121.52 358.539 118.902 360.441 117.902 359.715 T
121.52 358.539 120.138 360.441 118.902 360.441 T
121.52 358.539 121.138 359.715 120.138 360.441 T
143.84 280.628 142.458 278.726 143.458 279.453 T
143.84 280.628 141.222 278.726 142.458 278.726 T
143.84 280.628 140.222 279.453 141.222 278.726 T
143.84 280.628 139.84 280.628 140.222 279.453 T
143.84 280.628 140.222 281.804 139.84 280.628 T
143.84 280.628 141.222 282.53 140.222 281.804 T
143.84 280.628 142.458 282.53 141.222 282.53 T
143.84 280.628 143.458 281.804 142.458 282.53 T
166.16 257.832 164.778 255.93 165.778 256.657 T
166.16 257.832 163.542 255.93 164.778 255.93 T
166.16 257.832 162.542 256.657 163.542 255.93 T
166.16 257.832 162.16 257.832 162.542 256.657 T
166.16 257.832 162.542 259.008 162.16 257.832 T
166.16 257.832 163.542 259.735 162.542 259.008 T
166.16 257.832 164.778 259.735 163.542 259.735 T
166.16 257.832 165.778 259.008 164.778 259.735 T
188.48 249.728 187.098 247.826 188.098 248.552 T
188.48 249.728 185.862 247.826 187.098 247.826 T
188.48 249.728 184.862 248.552 185.862 247.826 T
188.48 249.728 184.48 249.728 184.862 248.552 T
188.48 249.728 184.862 250.903 184.48 249.728 T
188.48 249.728 185.862 251.63 184.862 250.903 T
188.48 249.728 187.098 251.63 185.862 251.63 T
188.48 249.728 188.098 250.903 187.098 251.63 T
210.8 232.682 209.418 230.78 210.418 231.506 T
210.8 232.682 208.182 230.78 209.418 230.78 T
210.8 232.682 207.182 231.506 208.182 230.78 T
210.8 232.682 206.8 232.682 207.182 231.506 T
210.8 232.682 207.182 233.858 206.8 232.682 T
210.8 232.682 208.182 234.584 207.182 233.858 T
210.8 232.682 209.418 234.584 208.182 234.584 T
210.8 232.682 210.418 233.858 209.418 234.584 T
233.12 220.809 231.738 218.907 232.738 219.633 T
233.12 220.809 230.502 218.907 231.738 218.907 T
233.12 220.809 229.502 219.633 230.502 218.907 T
233.12 220.809 229.12 220.809 229.502 219.633 T
233.12 220.809 229.502 221.984 229.12 220.809 T
233.12 220.809 230.502 222.711 229.502 221.984 T
233.12 220.809 231.738 222.711 230.502 222.711 T
233.12 220.809 232.738 221.984 231.738 222.711 T
255.44 224.037 254.058 222.135 255.058 222.862 T
255.44 224.037 252.822 222.135 254.058 222.135 T
255.44 224.037 251.822 222.862 252.822 222.135 T
255.44 224.037 251.44 224.037 251.822 222.862 T
255.44 224.037 251.822 225.213 251.44 224.037 T
255.44 224.037 252.822 225.94 251.822 225.213 T
255.44 224.037 254.058 225.94 252.822 225.94 T
255.44 224.037 255.058 225.213 254.058 225.94 T
277.76 232.472 276.378 230.57 277.378 231.296 T
277.76 232.472 275.142 230.57 276.378 230.57 T
277.76 232.472 274.142 231.296 275.142 230.57 T
277.76 232.472 273.76 232.472 274.142 231.296 T
277.76 232.472 274.142 233.647 273.76 232.472 T
277.76 232.472 275.142 234.374 274.142 233.647 T
277.76 232.472 276.378 234.374 275.142 234.374 T
277.76 232.472 277.378 233.647 276.378 234.374 T
300.08 230.316 298.698 228.414 299.698 229.14 T
300.08 230.316 297.462 228.414 298.698 228.414 T
300.08 230.316 296.462 229.14 297.462 228.414 T
300.08 230.316 296.08 230.316 296.462 229.14 T
300.08 230.316 296.462 231.492 296.08 230.316 T
300.08 230.316 297.462 232.218 296.462 231.492 T
300.08 230.316 298.698 232.218 297.462 232.218 T
300.08 230.316 299.698 231.492 298.698 232.218 T
322.4 223.145 321.018 221.243 322.018 221.969 T
322.4 223.145 319.782 221.243 321.018 221.243 T
322.4 223.145 318.782 221.969 319.782 221.243 T
322.4 223.145 318.4 223.145 318.782 221.969 T
322.4 223.145 318.782 224.32 318.4 223.145 T
322.4 223.145 319.782 225.047 318.782 224.32 T
322.4 223.145 321.018 225.047 319.782 225.047 T
322.4 223.145 322.018 224.32 321.018 225.047 T
344.72 225.25 343.338 223.348 344.338 224.074 T
344.72 225.25 342.102 223.348 343.338 223.348 T
344.72 225.25 341.102 224.074 342.102 223.348 T
344.72 225.25 340.72 225.25 341.102 224.074 T
344.72 225.25 341.102 226.426 340.72 225.25 T
344.72 225.25 342.102 227.152 341.102 226.426 T
344.72 225.25 343.338 227.152 342.102 227.152 T
344.72 225.25 344.338 226.426 343.338 227.152 T
367.04 229.134 365.658 227.232 366.658 227.958 T
367.04 229.134 364.422 227.232 365.658 227.232 T
367.04 229.134 363.422 227.958 364.422 227.232 T
367.04 229.134 363.04 229.134 363.422 227.958 T
367.04 229.134 363.422 230.309 363.04 229.134 T
367.04 229.134 364.422 231.036 363.422 230.309 T
367.04 229.134 365.658 231.036 364.422 231.036 T
367.04 229.134 366.658 230.309 365.658 231.036 T
389.36 238.333 387.978 236.431 388.978 237.157 T
389.36 238.333 386.742 236.431 387.978 236.431 T
389.36 238.333 385.742 237.157 386.742 236.431 T
389.36 238.333 385.36 238.333 385.742 237.157 T
389.36 238.333 385.742 239.508 385.36 238.333 T
389.36 238.333 386.742 240.235 385.742 239.508 T
389.36 238.333 387.978 240.235 386.742 240.235 T
389.36 238.333 388.978 239.508 387.978 240.235 T
411.68 232.033 410.298 230.13 411.298 230.857 T
411.68 232.033 409.062 230.13 410.298 230.13 T
411.68 232.033 408.062 230.857 409.062 230.13 T
411.68 232.033 407.68 232.033 408.062 230.857 T
411.68 232.033 408.062 233.208 407.68 232.033 T
411.68 232.033 409.062 233.935 408.062 233.208 T
411.68 232.033 410.298 233.935 409.062 233.935 T
411.68 232.033 411.298 233.208 410.298 233.935 T
0 0 0 C
( ) 298.08 410.525 15 /Helvetica SBC
grestore
showpage
cleartomark
%%PageTrailer
%%Trailer
end
%%EOF
