%!PS-Adobe-3.0 EPSF-3.0
%%Title: glps_renderer figure
%%Creator: GL2PS 1.3.8, (C) 1999-2012 C. Geuzaine
%%For: Octave
%%CreationDate: Sun Sep 10 21:53:45 2017
%%LanguageLevel: 3
%%DocumentData: Clean7Bit
%%Pages: 1
%%BoundingBox: 0 0 576 433
%%EndComments
%%BeginProlog
/gl2psdict 64 dict def gl2psdict begin
0 setlinecap 0 setlinejoin
/tryPS3shading false def % set to false to force subdivision
/rThreshold 0.064 def % red component subdivision threshold
/gThreshold 0.034 def % green component subdivision threshold
/bThreshold 0.1 def % blue component subdivision threshold
/BD { bind def } bind def
/C  { setrgbcolor } BD
/G  { 0.082 mul exch 0.6094 mul add exch 0.3086 mul add neg 1.0 add setgray } BD
/W  { setlinewidth } BD
/FC { findfont exch /SH exch def SH scalefont setfont } BD
/SW { dup stringwidth pop } BD
/S  { FC moveto show } BD
/SBC{ FC moveto SW -2 div 0 rmoveto show } BD
/SBR{ FC moveto SW neg 0 rmoveto show } BD
/SCL{ FC moveto 0 SH -2 div rmoveto show } BD
/SCC{ FC moveto SW -2 div SH -2 div rmoveto show } BD
/SCR{ FC moveto SW neg SH -2 div rmoveto show } BD
/STL{ FC moveto 0 SH neg rmoveto show } BD
/STC{ FC moveto SW -2 div SH neg rmoveto show } BD
/STR{ FC moveto SW neg SH neg rmoveto show } BD
/FCT { FC translate 0 0 } BD
/SR  { gsave FCT moveto rotate show grestore } BD
/SBCR{ gsave FCT moveto rotate SW -2 div 0 rmoveto show grestore } BD
/SBRR{ gsave FCT moveto rotate SW neg 0 rmoveto show grestore } BD
/SCLR{ gsave FCT moveto rotate 0 SH -2 div rmoveto show grestore} BD
/SCCR{ gsave FCT moveto rotate SW -2 div SH -2 div rmoveto show grestore} BD
/SCRR{ gsave FCT moveto rotate SW neg SH -2 div rmoveto show grestore} BD
/STLR{ gsave FCT moveto rotate 0 SH neg rmoveto show grestore } BD
/STCR{ gsave FCT moveto rotate SW -2 div SH neg rmoveto show grestore } BD
/STRR{ gsave FCT moveto rotate SW neg SH neg rmoveto show grestore } BD
/P  { newpath 0.0 360.0 arc closepath fill } BD
/LS { newpath moveto } BD
/L  { lineto } BD
/LE { lineto stroke } BD
/T  { newpath moveto lineto lineto closepath fill } BD
/STshfill {
      /b1 exch def /g1 exch def /r1 exch def /y1 exch def /x1 exch def
      /b2 exch def /g2 exch def /r2 exch def /y2 exch def /x2 exch def
      /b3 exch def /g3 exch def /r3 exch def /y3 exch def /x3 exch def
      gsave << /ShadingType 4 /ColorSpace [/DeviceRGB]
      /DataSource [ 0 x1 y1 r1 g1 b1 0 x2 y2 r2 g2 b2 0 x3 y3 r3 g3 b3 ] >>
      shfill grestore } BD
/Tm { 3 -1 roll 8 -1 roll 13 -1 roll add add 3 div
      3 -1 roll 7 -1 roll 11 -1 roll add add 3 div
      3 -1 roll 6 -1 roll 9 -1 roll add add 3 div C T } BD
/STsplit {
      4 index 15 index add 0.5 mul
      4 index 15 index add 0.5 mul
      4 index 15 index add 0.5 mul
      4 index 15 index add 0.5 mul
      4 index 15 index add 0.5 mul
      5 copy 5 copy 25 15 roll
      9 index 30 index add 0.5 mul
      9 index 30 index add 0.5 mul
      9 index 30 index add 0.5 mul
      9 index 30 index add 0.5 mul
      9 index 30 index add 0.5 mul
      5 copy 5 copy 35 5 roll 25 5 roll 15 5 roll
      4 index 10 index add 0.5 mul
      4 index 10 index add 0.5 mul
      4 index 10 index add 0.5 mul
      4 index 10 index add 0.5 mul
      4 index 10 index add 0.5 mul
      5 copy 5 copy 40 5 roll 25 5 roll 15 5 roll 25 5 roll
      STnoshfill STnoshfill STnoshfill STnoshfill } BD
/STnoshfill {
      2 index 8 index sub abs rThreshold gt
      { STsplit }
      { 1 index 7 index sub abs gThreshold gt
        { STsplit }
        { dup 6 index sub abs bThreshold gt
          { STsplit }
          { 2 index 13 index sub abs rThreshold gt
            { STsplit }
            { 1 index 12 index sub abs gThreshold gt
              { STsplit }
              { dup 11 index sub abs bThreshold gt
                { STsplit }
                { 7 index 13 index sub abs rThreshold gt
                  { STsplit }
                  { 6 index 12 index sub abs gThreshold gt
                    { STsplit }
                    { 5 index 11 index sub abs bThreshold gt
                      { STsplit }
                      { Tm }
                      ifelse }
                    ifelse }
                  ifelse }
                ifelse }
              ifelse }
            ifelse }
          ifelse }
        ifelse }
      ifelse } BD
tryPS3shading
{ /shfill where
  { /ST { STshfill } BD }
  { /ST { STnoshfill } BD }
  ifelse }
{ /ST { STnoshfill } BD }
ifelse
end
%%EndProlog
%%BeginSetup
/DeviceRGB setcolorspace
gl2psdict begin
%%EndSetup
%%Page: 1 1
%%BeginPageSetup
%%EndPageSetup
mark
gsave
1.0 1.0 scale
1 1 1 C
74.88 400.525 521.28 47.63 74.88 47.63 T
74.88 400.525 521.28 400.525 521.28 47.63 T
0.5 W
[16 0] 0 setdash
0 0 0 C
74.88 47.63 LS
521.28 47.63 LE
74.88 400.525 LS
521.28 400.525 LE
74.88 47.63 LS
74.88 400.525 LE
521.28 47.63 LS
521.28 400.525 LE
74.88 47.63 LS
74.88 52.0927 LE
74.88 400.525 LS
74.88 396.062 LE
186.48 47.63 LS
186.48 52.0927 LE
186.48 400.525 LS
186.48 396.062 LE
298.08 47.63 LS
298.08 52.0927 LE
298.08 400.525 LS
298.08 396.062 LE
409.68 47.63 LS
409.68 52.0927 LE
409.68 400.525 LS
409.68 396.062 LE
521.28 47.63 LS
521.28 52.0927 LE
521.28 400.525 LS
521.28 396.062 LE
(0) 74.88 42.6315 10 /Helvetica STC
(5) 186.48 42.6315 10 /Helvetica STC
(10) 298.08 42.6315 10 /Helvetica STC
(15) 409.68 42.6315 10 /Helvetica STC
(20) 521.28 42.6315 10 /Helvetica STC
74.88 47.63 LS
79.348 47.63 LE
521.28 47.63 LS
516.812 47.63 LE
74.88 106.446 LS
79.348 106.446 LE
521.28 106.446 LS
516.812 106.446 LE
74.88 165.262 LS
79.348 165.262 LE
521.28 165.262 LS
516.812 165.262 LE
74.88 224.078 LS
79.348 224.078 LE
521.28 224.078 LS
516.812 224.078 LE
74.88 282.893 LS
79.348 282.893 LE
521.28 282.893 LS
516.812 282.893 LE
74.88 341.709 LS
79.348 341.709 LE
521.28 341.709 LS
516.812 341.709 LE
74.88 400.525 LS
79.348 400.525 LE
521.28 400.525 LS
516.812 400.525 LE
(400000) 69.8755 47.63 10 /Helvetica SCR
(600000) 69.8755 106.446 10 /Helvetica SCR
(800000) 69.8755 165.262 10 /Helvetica SCR
(1e+06) 69.8755 224.077 10 /Helvetica SCR
(1.2e+06) 69.8755 282.893 10 /Helvetica SCR
(1.4e+06) 69.8755 341.709 10 /Helvetica SCR
(1.6e+06) 69.8755 400.525 10 /Helvetica SCR
(structuring element sizes) 298.08 31.6315 14 /Helvetica STC
(Granulometry without normalizing) 90 26.8755 224.077 14 /Helvetica SBCR
2 W
[0 3 1 3 1 3 1 3 1 0] 0 setdash
1 0 0 C
97.2 374.753 LS
119.52 343.443 L
141.84 298.705 L
164.16 284.901 L
186.48 275.017 L
208.8 264.036 L
231.12 256.775 L
253.44 247.442 L
275.76 240.262 L
298.08 235.129 L
320.4 228.355 L
342.72 223.152 L
365.04 217.959 L
387.36 213.296 L
409.68 214.068 LE
[] 0 setdash
94.2 374.753 LS
100.2 374.753 LE
97.2 377.753 LS
97.2 371.753 LE
116.52 343.443 LS
122.52 343.443 LE
119.52 346.443 LS
119.52 340.443 LE
138.84 298.705 LS
144.84 298.705 LE
141.84 301.705 LS
141.84 295.705 LE
161.16 284.901 LS
167.16 284.901 LE
164.16 287.901 LS
164.16 281.901 LE
183.48 275.017 LS
189.48 275.017 LE
186.48 278.017 LS
186.48 272.017 LE
205.8 264.036 LS
211.8 264.036 LE
208.8 267.036 LS
208.8 261.036 LE
228.12 256.775 LS
234.12 256.775 LE
231.12 259.775 LS
231.12 253.775 LE
250.44 247.442 LS
256.44 247.442 LE
253.44 250.442 LS
253.44 244.442 LE
272.76 240.262 LS
278.76 240.262 LE
275.76 243.262 LS
275.76 237.262 LE
295.08 235.129 LS
301.08 235.129 LE
298.08 238.129 LS
298.08 232.129 LE
317.4 228.355 LS
323.4 228.355 LE
320.4 231.355 LS
320.4 225.355 LE
339.72 223.152 LS
345.72 223.152 LE
342.72 226.152 LS
342.72 220.152 LE
362.04 217.959 LS
368.04 217.959 LE
365.04 220.959 LS
365.04 214.959 LE
384.36 213.296 LS
390.36 213.296 LE
387.36 216.296 LS
387.36 210.296 LE
406.68 214.068 LS
412.68 214.068 LE
409.68 217.068 LS
409.68 211.068 LE
[0 3 1 3 1 3 1 3 1 0] 0 setdash
0 1 0 C
97.2 168.829 LS
119.52 156.77 L
141.84 133.987 L
164.16 127.341 L
186.48 127.603 L
208.8 121.605 L
231.12 117.738 L
253.44 115.905 L
275.76 113.066 L
298.08 114.22 L
320.4 112.116 L
342.72 112.146 L
365.04 114.832 L
387.36 112.756 L
409.68 110.247 LE
[] 0 setdash
100.2 168.829 LS
99.627 167.065 L
98.127 165.975 L
96.2729 165.975 L
94.7729 167.065 L
94.2 168.829 L
94.7729 170.592 L
96.2729 171.682 L
98.127 171.682 L
99.627 170.592 L
100.2 168.829 LE
122.52 156.77 LS
121.947 155.006 L
120.447 153.916 L
118.593 153.916 L
117.093 155.006 L
116.52 156.77 L
117.093 158.533 L
118.593 159.623 L
120.447 159.623 L
121.947 158.533 L
122.52 156.77 LE
144.84 133.987 LS
144.267 132.224 L
142.767 131.134 L
140.913 131.134 L
139.413 132.224 L
138.84 133.987 L
139.413 135.75 L
140.913 136.84 L
142.767 136.84 L
144.267 135.75 L
144.84 133.987 LE
167.16 127.341 LS
166.587 125.578 L
165.087 124.488 L
163.233 124.488 L
161.733 125.578 L
161.16 127.341 L
161.733 129.104 L
163.233 130.194 L
165.087 130.194 L
166.587 129.104 L
167.16 127.341 LE
189.48 127.603 LS
188.907 125.839 L
187.407 124.75 L
185.553 124.75 L
184.053 125.839 L
183.48 127.603 L
184.053 129.366 L
185.553 130.456 L
187.407 130.456 L
188.907 129.366 L
189.48 127.603 LE
211.8 121.605 LS
211.227 119.842 L
209.727 118.752 L
207.873 118.752 L
206.373 119.842 L
205.8 121.605 L
206.373 123.369 L
207.873 124.458 L
209.727 124.458 L
211.227 123.369 L
211.8 121.605 LE
234.12 117.738 LS
233.547 115.975 L
232.047 114.885 L
230.193 114.885 L
228.693 115.975 L
228.12 117.738 L
228.693 119.502 L
230.193 120.592 L
232.047 120.592 L
233.547 119.502 L
234.12 117.738 LE
256.44 115.905 LS
255.867 114.142 L
254.367 113.052 L
252.513 113.052 L
251.013 114.142 L
250.44 115.905 L
251.013 117.669 L
252.513 118.758 L
254.367 118.758 L
255.867 117.669 L
256.44 115.905 LE
278.76 113.066 LS
278.187 111.303 L
276.687 110.213 L
274.833 110.213 L
273.333 111.303 L
272.76 113.066 L
273.333 114.83 L
274.833 115.92 L
276.687 115.92 L
278.187 114.83 L
278.76 113.066 LE
301.08 114.22 LS
300.507 112.457 L
299.007 111.367 L
297.153 111.367 L
295.653 112.457 L
295.08 114.22 L
295.653 115.984 L
297.153 117.074 L
299.007 117.074 L
300.507 115.984 L
301.08 114.22 LE
323.4 112.116 LS
322.827 110.352 L
321.327 109.263 L
319.473 109.263 L
317.973 110.352 L
317.4 112.116 L
317.973 113.879 L
319.473 114.969 L
321.327 114.969 L
322.827 113.879 L
323.4 112.116 LE
345.72 112.146 LS
345.147 110.383 L
343.647 109.293 L
341.793 109.293 L
340.293 110.383 L
339.72 112.146 L
340.293 113.909 L
341.793 114.999 L
343.647 114.999 L
345.147 113.909 L
345.72 112.146 LE
368.04 114.832 LS
367.467 113.069 L
365.967 111.979 L
364.113 111.979 L
362.613 113.069 L
362.04 114.832 L
362.613 116.595 L
364.113 117.685 L
365.967 117.685 L
367.467 116.595 L
368.04 114.832 LE
390.36 112.756 LS
389.787 110.993 L
388.287 109.903 L
386.433 109.903 L
384.933 110.993 L
384.36 112.756 L
384.933 114.519 L
386.433 115.609 L
388.287 115.609 L
389.787 114.519 L
390.36 112.756 LE
412.68 110.247 LS
412.107 108.483 L
410.607 107.394 L
408.753 107.394 L
407.253 108.483 L
406.68 110.247 L
407.253 112.01 L
408.753 113.1 L
410.607 113.1 L
412.107 112.01 L
412.68 110.247 LE
[0 3 1 3 1 3 1 3 1 0] 0 setdash
0 0 1 C
97.2 110.165 LS
119.52 101.591 L
141.84 85.68 L
164.16 81.0248 L
186.48 79.3697 L
208.8 75.8887 L
231.12 73.464 L
253.44 74.1233 L
275.76 75.8457 L
298.08 75.4055 L
320.4 73.941 L
342.72 74.3709 L
365.04 75.1641 L
387.36 77.0426 L
409.68 75.756 LE
99.2 110.165 97.818 108.263 98.818 108.989 T
99.2 110.165 96.582 108.263 97.818 108.263 T
99.2 110.165 95.582 108.989 96.582 108.263 T
99.2 110.165 95.2 110.165 95.582 108.989 T
99.2 110.165 95.582 111.34 95.2 110.165 T
99.2 110.165 96.582 112.067 95.582 111.34 T
99.2 110.165 97.818 112.067 96.582 112.067 T
99.2 110.165 98.818 111.34 97.818 112.067 T
121.52 101.591 120.138 99.6885 121.138 100.415 T
121.52 101.591 118.902 99.6885 120.138 99.6885 T
121.52 101.591 117.902 100.415 118.902 99.6885 T
121.52 101.591 117.52 101.591 117.902 100.415 T
121.52 101.591 117.902 102.766 117.52 101.591 T
121.52 101.591 118.902 103.493 117.902 102.766 T
121.52 101.591 120.138 103.493 118.902 103.493 T
121.52 101.591 121.138 102.766 120.138 103.493 T
143.84 85.68 142.458 83.7779 143.458 84.5045 T
143.84 85.68 141.222 83.7779 142.458 83.7779 T
143.84 85.68 140.222 84.5045 141.222 83.7779 T
143.84 85.68 139.84 85.68 140.222 84.5045 T
143.84 85.68 140.222 86.8556 139.84 85.68 T
143.84 85.68 141.222 87.5821 140.222 86.8556 T
143.84 85.68 142.458 87.5821 141.222 87.5821 T
143.84 85.68 143.458 86.8556 142.458 87.5821 T
166.16 81.0247 164.778 79.1226 165.778 79.8492 T
166.16 81.0247 163.542 79.1226 164.778 79.1226 T
166.16 81.0247 162.542 79.8492 163.542 79.1226 T
166.16 81.0247 162.16 81.0247 162.542 79.8492 T
166.16 81.0247 162.542 82.2003 162.16 81.0247 T
166.16 81.0247 163.542 82.9269 162.542 82.2003 T
166.16 81.0247 164.778 82.9269 163.542 82.9269 T
166.16 81.0247 165.778 82.2003 164.778 82.9269 T
188.48 79.3697 187.098 77.4675 188.098 78.1941 T
188.48 79.3697 185.862 77.4675 187.098 77.4675 T
188.48 79.3697 184.862 78.1941 185.862 77.4675 T
188.48 79.3697 184.48 79.3697 184.862 78.1941 T
188.48 79.3697 184.862 80.5452 184.48 79.3697 T
188.48 79.3697 185.862 81.2718 184.862 80.5452 T
188.48 79.3697 187.098 81.2718 185.862 81.2718 T
188.48 79.3697 188.098 80.5452 187.098 81.2718 T
210.8 75.8886 209.418 73.9865 210.418 74.7131 T
210.8 75.8886 208.182 73.9865 209.418 73.9865 T
210.8 75.8886 207.182 74.7131 208.182 73.9865 T
210.8 75.8886 206.8 75.8886 207.182 74.7131 T
210.8 75.8886 207.182 77.0642 206.8 75.8886 T
210.8 75.8886 208.182 77.7908 207.182 77.0642 T
210.8 75.8886 209.418 77.7908 208.182 77.7908 T
210.8 75.8886 210.418 77.0642 209.418 77.7908 T
233.12 73.464 231.738 71.5618 232.738 72.2884 T
233.12 73.464 230.502 71.5618 231.738 71.5618 T
233.12 73.464 229.502 72.2884 230.502 71.5618 T
233.12 73.464 229.12 73.464 229.502 72.2884 T
233.12 73.464 229.502 74.6395 229.12 73.464 T
233.12 73.464 230.502 75.3661 229.502 74.6395 T
233.12 73.464 231.738 75.3661 230.502 75.3661 T
233.12 73.464 232.738 74.6395 231.738 75.3661 T
255.44 74.1233 254.058 72.2212 255.058 72.9477 T
255.44 74.1233 252.822 72.2212 254.058 72.2212 T
255.44 74.1233 251.822 72.9477 252.822 72.2212 T
255.44 74.1233 251.44 74.1233 251.822 72.9477 T
255.44 74.1233 251.822 75.2989 251.44 74.1233 T
255.44 74.1233 252.822 76.0254 251.822 75.2989 T
255.44 74.1233 254.058 76.0254 252.822 76.0254 T
255.44 74.1233 255.058 75.2989 254.058 76.0254 T
277.76 75.8457 276.378 73.9436 277.378 74.6702 T
277.76 75.8457 275.142 73.9436 276.378 73.9436 T
277.76 75.8457 274.142 74.6702 275.142 73.9436 T
277.76 75.8457 273.76 75.8457 274.142 74.6702 T
277.76 75.8457 274.142 77.0213 273.76 75.8457 T
277.76 75.8457 275.142 77.7479 274.142 77.0213 T
277.76 75.8457 276.378 77.7479 275.142 77.7479 T
277.76 75.8457 277.378 77.0213 276.378 77.7479 T
300.08 75.4055 298.698 73.5034 299.698 74.2299 T
300.08 75.4055 297.462 73.5034 298.698 73.5034 T
300.08 75.4055 296.462 74.2299 297.462 73.5034 T
300.08 75.4055 296.08 75.4055 296.462 74.2299 T
300.08 75.4055 296.462 76.5811 296.08 75.4055 T
300.08 75.4055 297.462 77.3076 296.462 76.5811 T
300.08 75.4055 298.698 77.3076 297.462 77.3076 T
300.08 75.4055 299.698 76.5811 298.698 77.3076 T
322.4 73.941 321.018 72.0389 322.018 72.7654 T
322.4 73.941 319.782 72.0389 321.018 72.0389 T
322.4 73.941 318.782 72.7654 319.782 72.0389 T
322.4 73.941 318.4 73.941 318.782 72.7654 T
322.4 73.941 318.782 75.1165 318.4 73.941 T
322.4 73.941 319.782 75.8431 318.782 75.1165 T
322.4 73.941 321.018 75.8431 319.782 75.8431 T
322.4 73.941 322.018 75.1165 321.018 75.8431 T
344.72 74.3709 343.338 72.4688 344.338 73.1953 T
344.72 74.3709 342.102 72.4688 343.338 72.4688 T
344.72 74.3709 341.102 73.1953 342.102 72.4688 T
344.72 74.3709 340.72 74.3709 341.102 73.1953 T
344.72 74.3709 341.102 75.5465 340.72 74.3709 T
344.72 74.3709 342.102 76.273 341.102 75.5465 T
344.72 74.3709 343.338 76.273 342.102 76.273 T
344.72 74.3709 344.338 75.5465 343.338 76.273 T
367.04 75.164 365.658 73.2619 366.658 73.9885 T
367.04 75.164 364.422 73.2619 365.658 73.2619 T
367.04 75.164 363.422 73.9885 364.422 73.2619 T
367.04 75.164 363.04 75.164 363.422 73.9885 T
367.04 75.164 363.422 76.3396 363.04 75.164 T
367.04 75.164 364.422 77.0661 363.422 76.3396 T
367.04 75.164 365.658 77.0661 364.422 77.0661 T
367.04 75.164 366.658 76.3396 365.658 77.0661 T
389.36 77.0426 387.978 75.1405 388.978 75.8671 T
389.36 77.0426 386.742 75.1405 387.978 75.1405 T
389.36 77.0426 385.742 75.8671 386.742 75.1405 T
389.36 77.0426 385.36 77.0426 385.742 75.8671 T
389.36 77.0426 385.742 78.2182 385.36 77.0426 T
389.36 77.0426 386.742 78.9447 385.742 78.2182 T
389.36 77.0426 387.978 78.9447 386.742 78.9447 T
389.36 77.0426 388.978 78.2182 387.978 78.9447 T
411.68 75.756 410.298 73.8539 411.298 74.5804 T
411.68 75.756 409.062 73.8539 410.298 73.8539 T
411.68 75.756 408.062 74.5804 409.062 73.8539 T
411.68 75.756 407.68 75.756 408.062 74.5804 T
411.68 75.756 408.062 76.9316 407.68 75.756 T
411.68 75.756 409.062 77.6581 408.062 76.9316 T
411.68 75.756 410.298 77.6581 409.062 77.6581 T
411.68 75.756 411.298 76.9316 410.298 77.6581 T
0 0 0 C
( ) 298.08 410.525 15 /Helvetica SBC
grestore
showpage
cleartomark
%%PageTrailer
%%Trailer
end
%%EOF
