%!PS-Adobe-3.0 EPSF-3.0
%%Title: glps_renderer figure
%%Creator: GL2PS 1.3.8, (C) 1999-2012 C. Geuzaine
%%For: Octave
%%CreationDate: Sun Sep 10 22:04:05 2017
%%LanguageLevel: 3
%%DocumentData: Clean7Bit
%%Pages: 1
%%BoundingBox: 0 0 576 433
%%EndComments
%%BeginProlog
/gl2psdict 64 dict def gl2psdict begin
0 setlinecap 0 setlinejoin
/tryPS3shading false def % set to false to force subdivision
/rThreshold 0.064 def % red component subdivision threshold
/gThreshold 0.034 def % green component subdivision threshold
/bThreshold 0.1 def % blue component subdivision threshold
/BD { bind def } bind def
/C  { setrgbcolor } BD
/G  { 0.082 mul exch 0.6094 mul add exch 0.3086 mul add neg 1.0 add setgray } BD
/W  { setlinewidth } BD
/FC { findfont exch /SH exch def SH scalefont setfont } BD
/SW { dup stringwidth pop } BD
/S  { FC moveto show } BD
/SBC{ FC moveto SW -2 div 0 rmoveto show } BD
/SBR{ FC moveto SW neg 0 rmoveto show } BD
/SCL{ FC moveto 0 SH -2 div rmoveto show } BD
/SCC{ FC moveto SW -2 div SH -2 div rmoveto show } BD
/SCR{ FC moveto SW neg SH -2 div rmoveto show } BD
/STL{ FC moveto 0 SH neg rmoveto show } BD
/STC{ FC moveto SW -2 div SH neg rmoveto show } BD
/STR{ FC moveto SW neg SH neg rmoveto show } BD
/FCT { FC translate 0 0 } BD
/SR  { gsave FCT moveto rotate show grestore } BD
/SBCR{ gsave FCT moveto rotate SW -2 div 0 rmoveto show grestore } BD
/SBRR{ gsave FCT moveto rotate SW neg 0 rmoveto show grestore } BD
/SCLR{ gsave FCT moveto rotate 0 SH -2 div rmoveto show grestore} BD
/SCCR{ gsave FCT moveto rotate SW -2 div SH -2 div rmoveto show grestore} BD
/SCRR{ gsave FCT moveto rotate SW neg SH -2 div rmoveto show grestore} BD
/STLR{ gsave FCT moveto rotate 0 SH neg rmoveto show grestore } BD
/STCR{ gsave FCT moveto rotate SW -2 div SH neg rmoveto show grestore } BD
/STRR{ gsave FCT moveto rotate SW neg SH neg rmoveto show grestore } BD
/P  { newpath 0.0 360.0 arc closepath fill } BD
/LS { newpath moveto } BD
/L  { lineto } BD
/LE { lineto stroke } BD
/T  { newpath moveto lineto lineto closepath fill } BD
/STshfill {
      /b1 exch def /g1 exch def /r1 exch def /y1 exch def /x1 exch def
      /b2 exch def /g2 exch def /r2 exch def /y2 exch def /x2 exch def
      /b3 exch def /g3 exch def /r3 exch def /y3 exch def /x3 exch def
      gsave << /ShadingType 4 /ColorSpace [/DeviceRGB]
      /DataSource [ 0 x1 y1 r1 g1 b1 0 x2 y2 r2 g2 b2 0 x3 y3 r3 g3 b3 ] >>
      shfill grestore } BD
/Tm { 3 -1 roll 8 -1 roll 13 -1 roll add add 3 div
      3 -1 roll 7 -1 roll 11 -1 roll add add 3 div
      3 -1 roll 6 -1 roll 9 -1 roll add add 3 div C T } BD
/STsplit {
      4 index 15 index add 0.5 mul
      4 index 15 index add 0.5 mul
      4 index 15 index add 0.5 mul
      4 index 15 index add 0.5 mul
      4 index 15 index add 0.5 mul
      5 copy 5 copy 25 15 roll
      9 index 30 index add 0.5 mul
      9 index 30 index add 0.5 mul
      9 index 30 index add 0.5 mul
      9 index 30 index add 0.5 mul
      9 index 30 index add 0.5 mul
      5 copy 5 copy 35 5 roll 25 5 roll 15 5 roll
      4 index 10 index add 0.5 mul
      4 index 10 index add 0.5 mul
      4 index 10 index add 0.5 mul
      4 index 10 index add 0.5 mul
      4 index 10 index add 0.5 mul
      5 copy 5 copy 40 5 roll 25 5 roll 15 5 roll 25 5 roll
      STnoshfill STnoshfill STnoshfill STnoshfill } BD
/STnoshfill {
      2 index 8 index sub abs rThreshold gt
      { STsplit }
      { 1 index 7 index sub abs gThreshold gt
        { STsplit }
        { dup 6 index sub abs bThreshold gt
          { STsplit }
          { 2 index 13 index sub abs rThreshold gt
            { STsplit }
            { 1 index 12 index sub abs gThreshold gt
              { STsplit }
              { dup 11 index sub abs bThreshold gt
                { STsplit }
                { 7 index 13 index sub abs rThreshold gt
                  { STsplit }
                  { 6 index 12 index sub abs gThreshold gt
                    { STsplit }
                    { 5 index 11 index sub abs bThreshold gt
                      { STsplit }
                      { Tm }
                      ifelse }
                    ifelse }
                  ifelse }
                ifelse }
              ifelse }
            ifelse }
          ifelse }
        ifelse }
      ifelse } BD
tryPS3shading
{ /shfill where
  { /ST { STshfill } BD }
  { /ST { STnoshfill } BD }
  ifelse }
{ /ST { STnoshfill } BD }
ifelse
end
%%EndProlog
%%BeginSetup
/DeviceRGB setcolorspace
gl2psdict begin
%%EndSetup
%%Page: 1 1
%%BeginPageSetup
%%EndPageSetup
mark
gsave
1.0 1.0 scale
1 1 1 C
72.8 401.425 506.8 58.31 72.8 58.31 T
72.8 401.425 506.8 401.425 506.8 58.31 T
0.5 W
[16 0] 0 setdash
0 0 0 C
72.8 58.31 LS
506.8 58.31 LE
72.8 401.425 LS
506.8 401.425 LE
72.8 58.31 LS
72.8 401.425 LE
506.8 58.31 LS
506.8 401.425 LE
72.8 58.31 LS
72.8 62.6515 LE
72.8 401.425 LS
72.8 397.084 LE
181.3 58.31 LS
181.3 62.6515 LE
181.3 401.425 LS
181.3 397.084 LE
289.8 58.31 LS
289.8 62.6515 LE
289.8 401.425 LS
289.8 397.084 LE
398.3 58.31 LS
398.3 62.6515 LE
398.3 401.425 LS
398.3 397.084 LE
506.8 58.31 LS
506.8 62.6515 LE
506.8 401.425 LS
506.8 397.084 LE
(0) 72.8 53.3083 10 /Helvetica STC
(5) 181.3 53.3083 10 /Helvetica STC
(10) 289.8 53.3083 10 /Helvetica STC
(15) 398.3 53.3083 10 /Helvetica STC
(20) 506.8 53.3083 10 /Helvetica STC
72.8 58.31 LS
77.14 58.31 LE
506.8 58.31 LS
502.46 58.31 LE
72.8 126.933 LS
77.14 126.933 LE
506.8 126.933 LS
502.46 126.933 LE
72.8 195.556 LS
77.14 195.556 LE
506.8 195.556 LS
502.46 195.556 LE
72.8 264.179 LS
77.14 264.179 LE
506.8 264.179 LS
502.46 264.179 LE
72.8 332.802 LS
77.14 332.802 LE
506.8 332.802 LS
502.46 332.802 LE
72.8 401.425 LS
77.14 401.425 LE
506.8 401.425 LS
502.46 401.425 LE
(0) 67.8 58.31 10 /Helvetica SCR
(500000) 67.8 126.933 10 /Helvetica SCR
(1e+06) 67.8 195.556 10 /Helvetica SCR
(1.5e+06) 67.8 264.179 10 /Helvetica SCR
(2e+06) 67.8 332.802 10 /Helvetica SCR
(2.5e+06) 67.8 401.425 10 /Helvetica SCR
(structuring element sizes) 289.8 42.3083 14 /Helvetica STC
(Granulometry without normalizing) 90 24.8 229.867 14 /Helvetica SBCR
2 W
[0 3 1 3 1 3 1 3 1 0] 0 setdash
1 0 0 C
94.5 355.132 LS
116.2 320.61 L
137.9 274.1 L
159.6 250.386 L
181.3 229.528 L
203 216.958 L
224.7 191.529 L
246.4 154.349 L
268.1 120.267 L
289.8 106.295 L
311.5 101.059 L
333.2 95.6382 L
354.9 91.8914 L
376.6 91.7076 L
398.3 91.2654 LE
[] 0 setdash
91.5 355.132 LS
97.5 355.132 LE
94.5 358.132 LS
94.5 352.132 LE
113.2 320.61 LS
119.2 320.61 LE
116.2 323.61 LS
116.2 317.61 LE
134.9 274.1 LS
140.9 274.1 LE
137.9 277.1 LS
137.9 271.1 LE
156.6 250.386 LS
162.6 250.386 LE
159.6 253.386 LS
159.6 247.386 LE
178.3 229.528 LS
184.3 229.528 LE
181.3 232.528 LS
181.3 226.528 LE
200 216.958 LS
206 216.958 LE
203 219.958 LS
203 213.958 LE
221.7 191.529 LS
227.7 191.529 LE
224.7 194.529 LS
224.7 188.529 LE
243.4 154.349 LS
249.4 154.349 LE
246.4 157.349 LS
246.4 151.349 LE
265.1 120.267 LS
271.1 120.267 LE
268.1 123.267 LS
268.1 117.267 LE
286.8 106.295 LS
292.8 106.295 LE
289.8 109.295 LS
289.8 103.295 LE
308.5 101.059 LS
314.5 101.059 LE
311.5 104.059 LS
311.5 98.0591 LE
330.2 95.6382 LS
336.2 95.6382 LE
333.2 98.6382 LS
333.2 92.6382 LE
351.9 91.8914 LS
357.9 91.8914 LE
354.9 94.8914 LS
354.9 88.8914 LE
373.6 91.7076 LS
379.6 91.7076 LE
376.6 94.7076 LS
376.6 88.7076 LE
395.3 91.2654 LS
401.3 91.2654 LE
398.3 94.2654 LS
398.3 88.2654 LE
[0 3 1 3 1 3 1 3 1 0] 0 setdash
0 1 0 C
94.5 346.484 LS
116.2 307.925 L
137.9 252.501 L
159.6 226.2 L
181.3 207.078 L
203 190.924 L
224.7 169.865 L
246.4 139.427 L
268.1 117.958 L
289.8 108.485 L
311.5 105.26 L
333.2 100.574 L
354.9 99.3391 L
376.6 98.6558 L
398.3 96.3462 LE
[] 0 setdash
97.5 346.484 LS
96.927 344.721 L
95.4271 343.631 L
93.5729 343.631 L
92.073 344.721 L
91.5 346.484 L
92.073 348.248 L
93.5729 349.337 L
95.4271 349.337 L
96.927 348.248 L
97.5 346.484 LE
119.2 307.925 LS
118.627 306.162 L
117.127 305.072 L
115.273 305.072 L
113.773 306.162 L
113.2 307.925 L
113.773 309.688 L
115.273 310.778 L
117.127 310.778 L
118.627 309.688 L
119.2 307.925 LE
140.9 252.501 LS
140.327 250.738 L
138.827 249.648 L
136.973 249.648 L
135.473 250.738 L
134.9 252.501 L
135.473 254.264 L
136.973 255.354 L
138.827 255.354 L
140.327 254.264 L
140.9 252.501 LE
162.6 226.2 LS
162.027 224.437 L
160.527 223.347 L
158.673 223.347 L
157.173 224.437 L
156.6 226.2 L
157.173 227.963 L
158.673 229.053 L
160.527 229.053 L
162.027 227.963 L
162.6 226.2 LE
184.3 207.078 LS
183.727 205.314 L
182.227 204.225 L
180.373 204.225 L
178.873 205.314 L
178.3 207.078 L
178.873 208.841 L
180.373 209.931 L
182.227 209.931 L
183.727 208.841 L
184.3 207.078 LE
206 190.924 LS
205.427 189.161 L
203.927 188.071 L
202.073 188.071 L
200.573 189.161 L
200 190.924 L
200.573 192.688 L
202.073 193.778 L
203.927 193.778 L
205.427 192.688 L
206 190.924 LE
227.7 169.865 LS
227.127 168.101 L
225.627 167.011 L
223.773 167.011 L
222.273 168.101 L
221.7 169.865 L
222.273 171.628 L
223.773 172.718 L
225.627 172.718 L
227.127 171.628 L
227.7 169.865 LE
249.4 139.427 LS
248.827 137.664 L
247.327 136.574 LE
245.473 136.574 LS
243.973 137.664 L
243.4 139.427 L
243.973 141.19 L
245.473 142.28 L
247.327 142.28 L
248.827 141.19 L
249.4 139.427 LE
271.1 117.959 LS
270.527 116.195 L
269.027 115.105 L
267.173 115.105 L
265.673 116.195 L
265.1 117.959 L
265.673 119.722 L
267.173 120.812 L
269.027 120.812 L
270.527 119.722 L
271.1 117.959 LE
292.8 108.485 LS
292.227 106.722 L
290.727 105.632 L
288.873 105.632 L
287.373 106.722 L
286.8 108.485 L
287.373 110.249 L
288.873 111.339 L
290.727 111.339 L
292.227 110.249 L
292.8 108.485 LE
314.5 105.26 LS
313.927 103.496 L
312.427 102.407 L
310.573 102.407 L
309.073 103.496 L
308.5 105.26 L
309.073 107.023 L
310.573 108.113 L
312.427 108.113 L
313.927 107.023 L
314.5 105.26 LE
336.2 100.574 LS
335.627 98.811 L
334.127 97.7212 L
332.273 97.7212 L
330.773 98.811 L
330.2 100.574 L
330.773 102.338 L
332.273 103.428 L
334.127 103.428 L
335.627 102.338 L
336.2 100.574 LE
357.9 99.3391 LS
357.327 97.5758 L
355.827 96.486 L
353.973 96.486 L
352.473 97.5758 L
351.9 99.3391 L
352.473 101.103 L
353.973 102.192 L
355.827 102.192 L
357.327 101.103 L
357.9 99.3391 LE
379.6 98.6558 LS
379.027 96.8924 L
377.527 95.8026 L
375.673 95.8026 L
374.173 96.8924 L
373.6 98.6558 L
374.173 100.419 L
375.673 101.509 L
377.527 101.509 L
379.027 100.419 L
379.6 98.6558 LE
401.3 96.3462 LS
400.727 94.5829 L
399.227 93.4931 L
397.373 93.4931 L
395.873 94.5829 L
395.3 96.3462 L
395.873 98.1096 L
397.373 99.1994 L
399.227 99.1994 L
400.727 98.1096 L
401.3 96.3462 LE
[0 3 1 3 1 3 1 3 1 0] 0 setdash
0 0 1 C
94.5 331.23 LS
116.2 283.862 L
137.9 216.93 L
159.6 185.68 L
181.3 168.837 L
203 150.73 L
224.7 136.55 L
246.4 137.036 L
268.1 129.948 L
289.8 118.17 L
311.5 114.922 L
333.2 111.274 L
354.9 106.543 L
376.6 105.677 L
398.3 102.145 LE
96.5 331.23 95.118 329.328 96.118 330.055 T
96.5 331.23 93.882 329.328 95.118 329.328 T
96.5 331.23 92.882 330.055 93.882 329.328 T
96.5 331.23 92.5 331.23 92.882 330.055 T
96.5 331.23 92.882 332.406 92.5 331.23 T
96.5 331.23 93.882 333.132 92.882 332.406 T
96.5 331.23 95.118 333.132 93.882 333.132 T
96.5 331.23 96.118 332.406 95.118 333.132 T
118.2 283.862 116.818 281.96 117.818 282.687 T
118.2 283.862 115.582 281.96 116.818 281.96 T
118.2 283.862 114.582 282.687 115.582 281.96 T
118.2 283.862 114.2 283.862 114.582 282.687 T
118.2 283.862 114.582 285.038 114.2 283.862 T
118.2 283.862 115.582 285.764 114.582 285.038 T
118.2 283.862 116.818 285.764 115.582 285.764 T
118.2 283.862 117.818 285.038 116.818 285.764 T
139.9 216.93 138.518 215.027 139.518 215.754 T
139.9 216.93 137.282 215.027 138.518 215.027 T
139.9 216.93 136.282 215.754 137.282 215.027 T
139.9 216.93 135.9 216.93 136.282 215.754 T
139.9 216.93 136.282 218.105 135.9 216.93 T
139.9 216.93 137.282 218.832 136.282 218.105 T
139.9 216.93 138.518 218.832 137.282 218.832 T
139.9 216.93 139.518 218.105 138.518 218.832 T
161.6 185.68 160.218 183.777 161.218 184.504 T
161.6 185.68 158.982 183.777 160.218 183.777 T
161.6 185.68 157.982 184.504 158.982 183.777 T
161.6 185.68 157.6 185.68 157.982 184.504 T
161.6 185.68 157.982 186.855 157.6 185.68 T
161.6 185.68 158.982 187.582 157.982 186.855 T
161.6 185.68 160.218 187.582 158.982 187.582 T
161.6 185.68 161.218 186.855 160.218 187.582 T
183.3 168.837 181.918 166.935 182.918 167.661 T
183.3 168.837 180.682 166.935 181.918 166.935 T
183.3 168.837 179.682 167.661 180.682 166.935 T
183.3 168.837 179.3 168.837 179.682 167.661 T
183.3 168.837 179.682 170.012 179.3 168.837 T
183.3 168.837 180.682 170.739 179.682 170.012 T
183.3 168.837 181.918 170.739 180.682 170.739 T
183.3 168.837 182.918 170.012 181.918 170.739 T
205 150.73 203.618 148.828 204.618 149.555 T
205 150.73 202.382 148.828 203.618 148.828 T
205 150.73 201.382 149.555 202.382 148.828 T
205 150.73 201 150.73 201.382 149.555 T
205 150.73 201.382 151.906 201 150.73 T
205 150.73 202.382 152.632 201.382 151.906 T
205 150.73 203.618 152.632 202.382 152.632 T
205 150.73 204.618 151.906 203.618 152.632 T
226.7 136.55 225.318 134.648 226.318 135.375 T
226.7 136.55 224.082 134.648 225.318 134.648 T
226.7 136.55 223.082 135.375 224.082 134.648 T
226.7 136.55 222.7 136.55 223.082 135.375 T
226.7 136.55 223.082 137.726 222.7 136.55 T
226.7 136.55 224.082 138.452 223.082 137.726 T
226.7 136.55 225.318 138.452 224.082 138.452 T
226.7 136.55 226.318 137.726 225.318 138.452 T
248.4 137.036 247.018 135.133 248.018 135.86 T
248.4 137.036 245.782 135.133 247.018 135.133 T
248.4 137.036 244.782 135.86 245.782 135.133 T
248.4 137.036 244.4 137.036 244.782 135.86 T
248.4 137.036 244.782 138.211 244.4 137.036 T
248.4 137.036 245.782 138.938 244.782 138.211 T
248.4 137.036 247.018 138.938 245.782 138.938 T
248.4 137.036 248.018 138.211 247.018 138.938 T
270.1 129.948 268.718 128.046 269.718 128.772 T
270.1 129.948 267.482 128.046 268.718 128.046 T
270.1 129.948 266.482 128.772 267.482 128.046 T
270.1 129.948 266.1 129.948 266.482 128.772 T
270.1 129.948 266.482 131.124 266.1 129.948 T
270.1 129.948 267.482 131.85 266.482 131.124 T
270.1 129.948 268.718 131.85 267.482 131.85 T
270.1 129.948 269.718 131.124 268.718 131.85 T
291.8 118.17 290.418 116.268 291.418 116.994 T
291.8 118.17 289.182 116.268 290.418 116.268 T
291.8 118.17 288.182 116.994 289.182 116.268 T
291.8 118.17 287.8 118.17 288.182 116.994 T
291.8 118.17 288.182 119.345 287.8 118.17 T
291.8 118.17 289.182 120.072 288.182 119.345 T
291.8 118.17 290.418 120.072 289.182 120.072 T
291.8 118.17 291.418 119.345 290.418 120.072 T
313.5 114.922 312.118 113.02 313.118 113.746 T
313.5 114.922 310.882 113.02 312.118 113.02 T
313.5 114.922 309.882 113.746 310.882 113.02 T
313.5 114.922 309.5 114.922 309.882 113.746 T
313.5 114.922 309.882 116.098 309.5 114.922 T
313.5 114.922 310.882 116.824 309.882 116.098 T
313.5 114.922 312.118 116.824 310.882 116.824 T
313.5 114.922 313.118 116.098 312.118 116.824 T
335.2 111.274 333.818 109.372 334.818 110.098 T
335.2 111.274 332.582 109.372 333.818 109.372 T
335.2 111.274 331.582 110.098 332.582 109.372 T
335.2 111.274 331.2 111.274 331.582 110.098 T
335.2 111.274 331.582 112.449 331.2 111.274 T
335.2 111.274 332.582 113.176 331.582 112.449 T
335.2 111.274 333.818 113.176 332.582 113.176 T
335.2 111.274 334.818 112.449 333.818 113.176 T
356.9 106.543 355.518 104.64 356.518 105.367 T
356.9 106.543 354.282 104.64 355.518 104.64 T
356.9 106.543 353.282 105.367 354.282 104.64 T
356.9 106.543 352.9 106.543 353.282 105.367 T
356.9 106.543 353.282 107.718 352.9 106.543 T
356.9 106.543 354.282 108.445 353.282 107.718 T
356.9 106.543 355.518 108.445 354.282 108.445 T
356.9 106.543 356.518 107.718 355.518 108.445 T
378.6 105.677 377.218 103.775 378.218 104.502 T
378.6 105.677 375.982 103.775 377.218 103.775 T
378.6 105.677 374.982 104.502 375.982 103.775 T
378.6 105.677 374.6 105.677 374.982 104.502 T
378.6 105.677 374.982 106.853 374.6 105.677 T
378.6 105.677 375.982 107.579 374.982 106.853 T
378.6 105.677 377.218 107.579 375.982 107.579 T
378.6 105.677 378.218 106.853 377.218 107.579 T
400.3 102.145 398.918 100.243 399.918 100.97 T
400.3 102.145 397.682 100.243 398.918 100.243 T
400.3 102.145 396.682 100.97 397.682 100.243 T
400.3 102.145 396.3 102.145 396.682 100.97 T
400.3 102.145 396.682 103.321 396.3 102.145 T
400.3 102.145 397.682 104.048 396.682 103.321 T
400.3 102.145 398.918 104.048 397.682 104.048 T
400.3 102.145 399.918 103.321 398.918 104.048 T
0 0 0 C
(000002-EQ) 289.8 411.425 15 /Helvetica SBC
grestore
showpage
cleartomark
%%PageTrailer
%%Trailer
end
%%EOF
