%!PS-Adobe-3.0 EPSF-3.0
%%Title: glps_renderer figure
%%Creator: GL2PS 1.3.8, (C) 1999-2012 C. Geuzaine
%%For: Octave
%%CreationDate: Sun Sep 10 22:03:50 2017
%%LanguageLevel: 3
%%DocumentData: Clean7Bit
%%Pages: 1
%%BoundingBox: 0 0 576 433
%%EndComments
%%BeginProlog
/gl2psdict 64 dict def gl2psdict begin
0 setlinecap 0 setlinejoin
/tryPS3shading false def % set to false to force subdivision
/rThreshold 0.064 def % red component subdivision threshold
/gThreshold 0.034 def % green component subdivision threshold
/bThreshold 0.1 def % blue component subdivision threshold
/BD { bind def } bind def
/C  { setrgbcolor } BD
/G  { 0.082 mul exch 0.6094 mul add exch 0.3086 mul add neg 1.0 add setgray } BD
/W  { setlinewidth } BD
/FC { findfont exch /SH exch def SH scalefont setfont } BD
/SW { dup stringwidth pop } BD
/S  { FC moveto show } BD
/SBC{ FC moveto SW -2 div 0 rmoveto show } BD
/SBR{ FC moveto SW neg 0 rmoveto show } BD
/SCL{ FC moveto 0 SH -2 div rmoveto show } BD
/SCC{ FC moveto SW -2 div SH -2 div rmoveto show } BD
/SCR{ FC moveto SW neg SH -2 div rmoveto show } BD
/STL{ FC moveto 0 SH neg rmoveto show } BD
/STC{ FC moveto SW -2 div SH neg rmoveto show } BD
/STR{ FC moveto SW neg SH neg rmoveto show } BD
/FCT { FC translate 0 0 } BD
/SR  { gsave FCT moveto rotate show grestore } BD
/SBCR{ gsave FCT moveto rotate SW -2 div 0 rmoveto show grestore } BD
/SBRR{ gsave FCT moveto rotate SW neg 0 rmoveto show grestore } BD
/SCLR{ gsave FCT moveto rotate 0 SH -2 div rmoveto show grestore} BD
/SCCR{ gsave FCT moveto rotate SW -2 div SH -2 div rmoveto show grestore} BD
/SCRR{ gsave FCT moveto rotate SW neg SH -2 div rmoveto show grestore} BD
/STLR{ gsave FCT moveto rotate 0 SH neg rmoveto show grestore } BD
/STCR{ gsave FCT moveto rotate SW -2 div SH neg rmoveto show grestore } BD
/STRR{ gsave FCT moveto rotate SW neg SH neg rmoveto show grestore } BD
/P  { newpath 0.0 360.0 arc closepath fill } BD
/LS { newpath moveto } BD
/L  { lineto } BD
/LE { lineto stroke } BD
/T  { newpath moveto lineto lineto closepath fill } BD
/STshfill {
      /b1 exch def /g1 exch def /r1 exch def /y1 exch def /x1 exch def
      /b2 exch def /g2 exch def /r2 exch def /y2 exch def /x2 exch def
      /b3 exch def /g3 exch def /r3 exch def /y3 exch def /x3 exch def
      gsave << /ShadingType 4 /ColorSpace [/DeviceRGB]
      /DataSource [ 0 x1 y1 r1 g1 b1 0 x2 y2 r2 g2 b2 0 x3 y3 r3 g3 b3 ] >>
      shfill grestore } BD
/Tm { 3 -1 roll 8 -1 roll 13 -1 roll add add 3 div
      3 -1 roll 7 -1 roll 11 -1 roll add add 3 div
      3 -1 roll 6 -1 roll 9 -1 roll add add 3 div C T } BD
/STsplit {
      4 index 15 index add 0.5 mul
      4 index 15 index add 0.5 mul
      4 index 15 index add 0.5 mul
      4 index 15 index add 0.5 mul
      4 index 15 index add 0.5 mul
      5 copy 5 copy 25 15 roll
      9 index 30 index add 0.5 mul
      9 index 30 index add 0.5 mul
      9 index 30 index add 0.5 mul
      9 index 30 index add 0.5 mul
      9 index 30 index add 0.5 mul
      5 copy 5 copy 35 5 roll 25 5 roll 15 5 roll
      4 index 10 index add 0.5 mul
      4 index 10 index add 0.5 mul
      4 index 10 index add 0.5 mul
      4 index 10 index add 0.5 mul
      4 index 10 index add 0.5 mul
      5 copy 5 copy 40 5 roll 25 5 roll 15 5 roll 25 5 roll
      STnoshfill STnoshfill STnoshfill STnoshfill } BD
/STnoshfill {
      2 index 8 index sub abs rThreshold gt
      { STsplit }
      { 1 index 7 index sub abs gThreshold gt
        { STsplit }
        { dup 6 index sub abs bThreshold gt
          { STsplit }
          { 2 index 13 index sub abs rThreshold gt
            { STsplit }
            { 1 index 12 index sub abs gThreshold gt
              { STsplit }
              { dup 11 index sub abs bThreshold gt
                { STsplit }
                { 7 index 13 index sub abs rThreshold gt
                  { STsplit }
                  { 6 index 12 index sub abs gThreshold gt
                    { STsplit }
                    { 5 index 11 index sub abs bThreshold gt
                      { STsplit }
                      { Tm }
                      ifelse }
                    ifelse }
                  ifelse }
                ifelse }
              ifelse }
            ifelse }
          ifelse }
        ifelse }
      ifelse } BD
tryPS3shading
{ /shfill where
  { /ST { STshfill } BD }
  { /ST { STnoshfill } BD }
  ifelse }
{ /ST { STnoshfill } BD }
ifelse
end
%%EndProlog
%%BeginSetup
/DeviceRGB setcolorspace
gl2psdict begin
%%EndSetup
%%Page: 1 1
%%BeginPageSetup
%%EndPageSetup
mark
gsave
1.0 1.0 scale
1 1 1 C
74.88 400.6 521.28 48.5201 74.88 48.5201 T
74.88 400.6 521.28 400.6 521.28 48.5201 T
0.5 W
[16 0] 0 setdash
0 0 0 C
74.88 48.5201 LS
521.28 48.5201 LE
74.88 400.6 LS
521.28 400.6 LE
74.88 48.5201 LS
74.88 400.6 LE
521.28 48.5201 LS
521.28 400.6 LE
74.88 48.5201 LS
74.88 52.985 LE
74.88 400.6 LS
74.88 396.135 LE
186.48 48.5201 LS
186.48 52.985 LE
186.48 400.6 LS
186.48 396.135 LE
298.08 48.5201 LS
298.08 52.985 LE
298.08 400.6 LS
298.08 396.135 LE
409.68 48.5201 LS
409.68 52.985 LE
409.68 400.6 LS
409.68 396.135 LE
521.28 48.5201 LS
521.28 52.985 LE
521.28 400.6 LS
521.28 396.135 LE
(0) 74.88 43.5189 10 /Helvetica STC
(5) 186.48 43.5189 10 /Helvetica STC
(10) 298.08 43.5189 10 /Helvetica STC
(15) 409.68 43.5189 10 /Helvetica STC
(20) 521.28 43.5189 10 /Helvetica STC
74.88 48.5201 LS
79.348 48.5201 LE
521.28 48.5201 LS
516.812 48.5201 LE
74.88 118.936 LS
79.348 118.936 LE
521.28 118.936 LS
516.812 118.936 LE
74.88 189.352 LS
79.348 189.352 LE
521.28 189.352 LS
516.812 189.352 LE
74.88 259.768 LS
79.348 259.768 LE
521.28 259.768 LS
516.812 259.768 LE
74.88 330.184 LS
79.348 330.184 LE
521.28 330.184 LS
516.812 330.184 LE
74.88 400.6 LS
79.348 400.6 LE
521.28 400.6 LS
516.812 400.6 LE
(800000) 69.8755 48.52 10 /Helvetica SCR
(1e+06) 69.8755 118.936 10 /Helvetica SCR
(1.2e+06) 69.8755 189.352 10 /Helvetica SCR
(1.4e+06) 69.8755 259.768 10 /Helvetica SCR
(1.6e+06) 69.8755 330.184 10 /Helvetica SCR
(1.8e+06) 69.8755 400.6 10 /Helvetica SCR
(structuring element sizes) 298.08 32.5189 14 /Helvetica STC
(Granulometry without normalizing) 90 26.8755 224.56 14 /Helvetica SBCR
2 W
[0 3 1 3 1 3 1 3 1 0] 0 setdash
1 0 0 C
97.2 396.223 LS
119.52 365.083 L
141.84 328.404 L
164.16 303.943 L
186.48 285.598 L
208.8 265.759 L
231.12 241.38 L
253.44 201.515 L
275.76 147.585 L
298.08 131.443 L
320.4 130.079 L
342.72 128.271 L
365.04 121.89 L
387.36 116.031 L
409.68 112.483 LE
[] 0 setdash
94.2 396.223 LS
100.2 396.223 LE
97.2 399.223 LS
97.2 393.223 LE
116.52 365.083 LS
122.52 365.083 LE
119.52 368.083 LS
119.52 362.083 LE
138.84 328.404 LS
144.84 328.404 LE
141.84 331.404 LS
141.84 325.404 LE
161.16 303.943 LS
167.16 303.943 LE
164.16 306.943 LS
164.16 300.943 LE
183.48 285.598 LS
189.48 285.598 LE
186.48 288.598 LS
186.48 282.598 LE
205.8 265.759 LS
211.8 265.759 LE
208.8 268.759 LS
208.8 262.759 LE
228.12 241.38 LS
234.12 241.38 LE
231.12 244.38 LS
231.12 238.38 LE
250.44 201.515 LS
256.44 201.515 LE
253.44 204.515 LS
253.44 198.515 LE
272.76 147.585 LS
278.76 147.585 LE
275.76 150.585 LS
275.76 144.585 LE
295.08 131.443 LS
301.08 131.443 LE
298.08 134.443 LS
298.08 128.443 LE
317.4 130.079 LS
323.4 130.079 LE
320.4 133.079 LS
320.4 127.079 LE
339.72 128.271 LS
345.72 128.271 LE
342.72 131.271 LS
342.72 125.271 LE
362.04 121.89 LS
368.04 121.89 LE
365.04 124.89 LS
365.04 118.89 LE
384.36 116.031 LS
390.36 116.031 LE
387.36 119.031 LS
387.36 113.031 LE
406.68 112.483 LS
412.68 112.483 LE
409.68 115.483 LS
409.68 109.483 LE
[0 3 1 3 1 3 1 3 1 0] 0 setdash
0 1 0 C
97.2 324.154 LS
119.52 295.029 L
141.84 260.838 L
164.16 237.821 L
186.48 220.659 L
208.8 206.017 L
231.12 194.069 L
253.44 172.228 L
275.76 137.552 L
298.08 125.649 L
320.4 122.307 L
342.72 117.529 L
365.04 112.251 L
387.36 109.077 L
409.68 106.736 LE
[] 0 setdash
100.2 324.154 LS
99.627 322.39 L
98.127 321.3 L
96.2729 321.3 L
94.7729 322.39 L
94.2 324.154 L
94.7729 325.917 L
96.2729 327.007 L
98.127 327.007 L
99.627 325.917 L
100.2 324.154 LE
122.52 295.029 LS
121.947 293.265 L
120.447 292.176 L
118.593 292.176 L
117.093 293.265 L
116.52 295.029 L
117.093 296.792 L
118.593 297.882 L
120.447 297.882 L
121.947 296.792 L
122.52 295.029 LE
144.84 260.838 LS
144.267 259.075 L
142.767 257.985 L
140.913 257.985 L
139.413 259.075 L
138.84 260.838 L
139.413 262.602 L
140.913 263.691 L
142.767 263.691 L
144.267 262.602 L
144.84 260.838 LE
167.16 237.821 LS
166.587 236.058 L
165.087 234.968 L
163.233 234.968 L
161.733 236.058 L
161.16 237.821 L
161.733 239.585 L
163.233 240.675 L
165.087 240.675 L
166.587 239.585 L
167.16 237.821 LE
189.48 220.659 LS
188.907 218.895 L
187.407 217.805 L
185.553 217.805 L
184.053 218.895 L
183.48 220.659 L
184.053 222.422 L
185.553 223.512 L
187.407 223.512 L
188.907 222.422 L
189.48 220.659 LE
211.8 206.017 LS
211.227 204.254 L
209.727 203.164 L
207.873 203.164 L
206.373 204.254 L
205.8 206.017 L
206.373 207.78 L
207.873 208.87 L
209.727 208.87 L
211.227 207.78 L
211.8 206.017 LE
234.12 194.069 LS
233.547 192.305 L
232.047 191.216 L
230.193 191.216 L
228.693 192.305 L
228.12 194.069 L
228.693 195.832 L
230.193 196.922 L
232.047 196.922 L
233.547 195.832 L
234.12 194.069 LE
256.44 172.228 LS
255.867 170.465 L
254.367 169.375 L
252.513 169.375 L
251.013 170.465 L
250.44 172.228 L
251.013 173.991 L
252.513 175.081 L
254.367 175.081 L
255.867 173.991 L
256.44 172.228 LE
278.76 137.552 LS
278.187 135.789 L
276.687 134.699 L
274.833 134.699 L
273.333 135.789 L
272.76 137.552 L
273.333 139.316 L
274.833 140.405 L
276.687 140.405 L
278.187 139.316 L
278.76 137.552 LE
301.08 125.649 LS
300.507 123.885 L
299.007 122.796 L
297.153 122.796 L
295.653 123.885 L
295.08 125.649 L
295.653 127.412 L
297.153 128.502 L
299.007 128.502 L
300.507 127.412 L
301.08 125.649 LE
323.4 122.307 LS
322.827 120.543 L
321.327 119.454 L
319.473 119.454 L
317.973 120.543 L
317.4 122.307 L
317.973 124.07 L
319.473 125.16 L
321.327 125.16 L
322.827 124.07 L
323.4 122.307 LE
345.72 117.529 LS
345.147 115.765 L
343.647 114.676 L
341.793 114.676 L
340.293 115.765 L
339.72 117.529 L
340.293 119.292 L
341.793 120.382 L
343.647 120.382 L
345.147 119.292 L
345.72 117.529 LE
368.04 112.251 LS
367.467 110.488 L
365.967 109.398 L
364.113 109.398 L
362.613 110.488 L
362.04 112.251 L
362.613 114.015 L
364.113 115.105 L
365.967 115.105 L
367.467 114.015 L
368.04 112.251 LE
390.36 109.077 LS
389.787 107.314 L
388.287 106.224 L
386.433 106.224 L
384.933 107.314 L
384.36 109.077 L
384.933 110.841 L
386.433 111.931 L
388.287 111.931 L
389.787 110.841 L
390.36 109.077 LE
412.68 106.736 LS
412.107 104.972 L
410.607 103.883 L
408.753 103.883 L
407.253 104.972 L
406.68 106.736 L
407.253 108.499 L
408.753 109.589 L
410.607 109.589 L
412.107 108.499 L
412.68 106.736 LE
[0 3 1 3 1 3 1 3 1 0] 0 setdash
0 0 1 C
97.2 195.024 LS
119.52 177.693 L
141.84 152.718 L
164.16 136.063 L
186.48 122.727 L
208.8 112.145 L
231.12 106.384 L
253.44 106.845 L
275.76 94.5967 L
298.08 81.8015 L
320.4 81.5744 L
342.72 80.1558 L
365.04 81.217 L
387.36 82.8524 L
409.68 77.817 LE
99.2 195.024 97.818 193.122 98.818 193.848 T
99.2 195.024 96.582 193.122 97.818 193.122 T
99.2 195.024 95.582 193.848 96.582 193.122 T
99.2 195.024 95.2 195.024 95.582 193.848 T
99.2 195.024 95.582 196.199 95.2 195.024 T
99.2 195.024 96.582 196.926 95.582 196.199 T
99.2 195.024 97.818 196.926 96.582 196.926 T
99.2 195.024 98.818 196.199 97.818 196.926 T
121.52 177.693 120.138 175.791 121.138 176.517 T
121.52 177.693 118.902 175.791 120.138 175.791 T
121.52 177.693 117.902 176.517 118.902 175.791 T
121.52 177.693 117.52 177.693 117.902 176.517 T
121.52 177.693 117.902 178.868 117.52 177.693 T
121.52 177.693 118.902 179.595 117.902 178.868 T
121.52 177.693 120.138 179.595 118.902 179.595 T
121.52 177.693 121.138 178.868 120.138 179.595 T
143.84 152.718 142.458 150.816 143.458 151.542 T
143.84 152.718 141.222 150.816 142.458 150.816 T
143.84 152.718 140.222 151.542 141.222 150.816 T
143.84 152.718 139.84 152.718 140.222 151.542 T
143.84 152.718 140.222 153.893 139.84 152.718 T
143.84 152.718 141.222 154.62 140.222 153.893 T
143.84 152.718 142.458 154.62 141.222 154.62 T
143.84 152.718 143.458 153.893 142.458 154.62 T
166.16 136.063 164.778 134.161 165.778 134.888 T
166.16 136.063 163.542 134.161 164.778 134.161 T
166.16 136.063 162.542 134.888 163.542 134.161 T
166.16 136.063 162.16 136.063 162.542 134.888 T
166.16 136.063 162.542 137.239 162.16 136.063 T
166.16 136.063 163.542 137.965 162.542 137.239 T
166.16 136.063 164.778 137.965 163.542 137.965 T
166.16 136.063 165.778 137.239 164.778 137.965 T
188.48 122.727 187.098 120.825 188.098 121.552 T
188.48 122.727 185.862 120.825 187.098 120.825 T
188.48 122.727 184.862 121.552 185.862 120.825 T
188.48 122.727 184.48 122.727 184.862 121.552 T
188.48 122.727 184.862 123.903 184.48 122.727 T
188.48 122.727 185.862 124.629 184.862 123.903 T
188.48 122.727 187.098 124.629 185.862 124.629 T
188.48 122.727 188.098 123.903 187.098 124.629 T
210.8 112.145 209.418 110.243 210.418 110.97 T
210.8 112.145 208.182 110.243 209.418 110.243 T
210.8 112.145 207.182 110.97 208.182 110.243 T
210.8 112.145 206.8 112.145 207.182 110.97 T
210.8 112.145 207.182 113.321 206.8 112.145 T
210.8 112.145 208.182 114.047 207.182 113.321 T
210.8 112.145 209.418 114.047 208.182 114.047 T
210.8 112.145 210.418 113.321 209.418 114.047 T
233.12 106.384 231.738 104.482 232.738 105.208 T
233.12 106.384 230.502 104.482 231.738 104.482 T
233.12 106.384 229.502 105.208 230.502 104.482 T
233.12 106.384 229.12 106.384 229.502 105.208 T
233.12 106.384 229.502 107.56 229.12 106.384 T
233.12 106.384 230.502 108.286 229.502 107.56 T
233.12 106.384 231.738 108.286 230.502 108.286 T
233.12 106.384 232.738 107.56 231.738 108.286 T
255.44 106.845 254.058 104.943 255.058 105.669 T
255.44 106.845 252.822 104.943 254.058 104.943 T
255.44 106.845 251.822 105.669 252.822 104.943 T
255.44 106.845 251.44 106.845 251.822 105.669 T
255.44 106.845 251.822 108.02 251.44 106.845 T
255.44 106.845 252.822 108.747 251.822 108.02 T
255.44 106.845 254.058 108.747 252.822 108.747 T
255.44 106.845 255.058 108.02 254.058 108.747 T
277.76 94.5967 276.378 92.6946 277.378 93.4211 T
277.76 94.5967 275.142 92.6946 276.378 92.6946 T
277.76 94.5967 274.142 93.4211 275.142 92.6946 T
277.76 94.5967 273.76 94.5967 274.142 93.4211 T
277.76 94.5967 274.142 95.7723 273.76 94.5967 T
277.76 94.5967 275.142 96.4988 274.142 95.7723 T
277.76 94.5967 276.378 96.4988 275.142 96.4988 T
277.76 94.5967 277.378 95.7723 276.378 96.4988 T
300.08 81.8014 298.698 79.8993 299.698 80.6259 T
300.08 81.8014 297.462 79.8993 298.698 79.8993 T
300.08 81.8014 296.462 80.6259 297.462 79.8993 T
300.08 81.8014 296.08 81.8014 296.462 80.6259 T
300.08 81.8014 296.462 82.977 296.08 81.8014 T
300.08 81.8014 297.462 83.7035 296.462 82.977 T
300.08 81.8014 298.698 83.7035 297.462 83.7035 T
300.08 81.8014 299.698 82.977 298.698 83.7035 T
322.4 81.5743 321.018 79.6722 322.018 80.3988 T
322.4 81.5743 319.782 79.6722 321.018 79.6722 T
322.4 81.5743 318.782 80.3988 319.782 79.6722 T
322.4 81.5743 318.4 81.5743 318.782 80.3988 T
322.4 81.5743 318.782 82.7499 318.4 81.5743 T
322.4 81.5743 319.782 83.4765 318.782 82.7499 T
322.4 81.5743 321.018 83.4765 319.782 83.4765 T
322.4 81.5743 322.018 82.7499 321.018 83.4765 T
344.72 80.1558 343.338 78.2537 344.338 78.9802 T
344.72 80.1558 342.102 78.2537 343.338 78.2537 T
344.72 80.1558 341.102 78.9802 342.102 78.2537 T
344.72 80.1558 340.72 80.1558 341.102 78.9802 T
344.72 80.1558 341.102 81.3314 340.72 80.1558 T
344.72 80.1558 342.102 82.0579 341.102 81.3314 T
344.72 80.1558 343.338 82.0579 342.102 82.0579 T
344.72 80.1558 344.338 81.3314 343.338 82.0579 T
367.04 81.217 365.658 79.3149 366.658 80.0414 T
367.04 81.217 364.422 79.3149 365.658 79.3149 T
367.04 81.217 363.422 80.0414 364.422 79.3149 T
367.04 81.217 363.04 81.217 363.422 80.0414 T
367.04 81.217 363.422 82.3925 363.04 81.217 T
367.04 81.217 364.422 83.1191 363.422 82.3925 T
367.04 81.217 365.658 83.1191 364.422 83.1191 T
367.04 81.217 366.658 82.3925 365.658 83.1191 T
389.36 82.8524 387.978 80.9503 388.978 81.6768 T
389.36 82.8524 386.742 80.9503 387.978 80.9503 T
389.36 82.8524 385.742 81.6768 386.742 80.9503 T
389.36 82.8524 385.36 82.8524 385.742 81.6768 T
389.36 82.8524 385.742 84.028 385.36 82.8524 T
389.36 82.8524 386.742 84.7545 385.742 84.028 T
389.36 82.8524 387.978 84.7545 386.742 84.7545 T
389.36 82.8524 388.978 84.028 387.978 84.7545 T
411.68 77.8169 410.298 75.9148 411.298 76.6414 T
411.68 77.8169 409.062 75.9148 410.298 75.9148 T
411.68 77.8169 408.062 76.6414 409.062 75.9148 T
411.68 77.8169 407.68 77.8169 408.062 76.6414 T
411.68 77.8169 408.062 78.9925 407.68 77.8169 T
411.68 77.8169 409.062 79.719 408.062 78.9925 T
411.68 77.8169 410.298 79.719 409.062 79.719 T
411.68 77.8169 411.298 78.9925 410.298 79.719 T
0 0 0 C
(000002-INCA) 298.08 410.6 15 /Helvetica SBC
grestore
showpage
cleartomark
%%PageTrailer
%%Trailer
end
%%EOF
