%!PS-Adobe-3.0 EPSF-3.0
%%Title: glps_renderer figure
%%Creator: GL2PS 1.3.8, (C) 1999-2012 C. Geuzaine
%%For: Octave
%%CreationDate: Sun Sep 10 21:53:44 2017
%%LanguageLevel: 3
%%DocumentData: Clean7Bit
%%Pages: 1
%%BoundingBox: 0 0 576 433
%%EndComments
%%BeginProlog
/gl2psdict 64 dict def gl2psdict begin
0 setlinecap 0 setlinejoin
/tryPS3shading false def % set to false to force subdivision
/rThreshold 0.064 def % red component subdivision threshold
/gThreshold 0.034 def % green component subdivision threshold
/bThreshold 0.1 def % blue component subdivision threshold
/BD { bind def } bind def
/C  { setrgbcolor } BD
/G  { 0.082 mul exch 0.6094 mul add exch 0.3086 mul add neg 1.0 add setgray } BD
/W  { setlinewidth } BD
/FC { findfont exch /SH exch def SH scalefont setfont } BD
/SW { dup stringwidth pop } BD
/S  { FC moveto show } BD
/SBC{ FC moveto SW -2 div 0 rmoveto show } BD
/SBR{ FC moveto SW neg 0 rmoveto show } BD
/SCL{ FC moveto 0 SH -2 div rmoveto show } BD
/SCC{ FC moveto SW -2 div SH -2 div rmoveto show } BD
/SCR{ FC moveto SW neg SH -2 div rmoveto show } BD
/STL{ FC moveto 0 SH neg rmoveto show } BD
/STC{ FC moveto SW -2 div SH neg rmoveto show } BD
/STR{ FC moveto SW neg SH neg rmoveto show } BD
/FCT { FC translate 0 0 } BD
/SR  { gsave FCT moveto rotate show grestore } BD
/SBCR{ gsave FCT moveto rotate SW -2 div 0 rmoveto show grestore } BD
/SBRR{ gsave FCT moveto rotate SW neg 0 rmoveto show grestore } BD
/SCLR{ gsave FCT moveto rotate 0 SH -2 div rmoveto show grestore} BD
/SCCR{ gsave FCT moveto rotate SW -2 div SH -2 div rmoveto show grestore} BD
/SCRR{ gsave FCT moveto rotate SW neg SH -2 div rmoveto show grestore} BD
/STLR{ gsave FCT moveto rotate 0 SH neg rmoveto show grestore } BD
/STCR{ gsave FCT moveto rotate SW -2 div SH neg rmoveto show grestore } BD
/STRR{ gsave FCT moveto rotate SW neg SH neg rmoveto show grestore } BD
/P  { newpath 0.0 360.0 arc closepath fill } BD
/LS { newpath moveto } BD
/L  { lineto } BD
/LE { lineto stroke } BD
/T  { newpath moveto lineto lineto closepath fill } BD
/STshfill {
      /b1 exch def /g1 exch def /r1 exch def /y1 exch def /x1 exch def
      /b2 exch def /g2 exch def /r2 exch def /y2 exch def /x2 exch def
      /b3 exch def /g3 exch def /r3 exch def /y3 exch def /x3 exch def
      gsave << /ShadingType 4 /ColorSpace [/DeviceRGB]
      /DataSource [ 0 x1 y1 r1 g1 b1 0 x2 y2 r2 g2 b2 0 x3 y3 r3 g3 b3 ] >>
      shfill grestore } BD
/Tm { 3 -1 roll 8 -1 roll 13 -1 roll add add 3 div
      3 -1 roll 7 -1 roll 11 -1 roll add add 3 div
      3 -1 roll 6 -1 roll 9 -1 roll add add 3 div C T } BD
/STsplit {
      4 index 15 index add 0.5 mul
      4 index 15 index add 0.5 mul
      4 index 15 index add 0.5 mul
      4 index 15 index add 0.5 mul
      4 index 15 index add 0.5 mul
      5 copy 5 copy 25 15 roll
      9 index 30 index add 0.5 mul
      9 index 30 index add 0.5 mul
      9 index 30 index add 0.5 mul
      9 index 30 index add 0.5 mul
      9 index 30 index add 0.5 mul
      5 copy 5 copy 35 5 roll 25 5 roll 15 5 roll
      4 index 10 index add 0.5 mul
      4 index 10 index add 0.5 mul
      4 index 10 index add 0.5 mul
      4 index 10 index add 0.5 mul
      4 index 10 index add 0.5 mul
      5 copy 5 copy 40 5 roll 25 5 roll 15 5 roll 25 5 roll
      STnoshfill STnoshfill STnoshfill STnoshfill } BD
/STnoshfill {
      2 index 8 index sub abs rThreshold gt
      { STsplit }
      { 1 index 7 index sub abs gThreshold gt
        { STsplit }
        { dup 6 index sub abs bThreshold gt
          { STsplit }
          { 2 index 13 index sub abs rThreshold gt
            { STsplit }
            { 1 index 12 index sub abs gThreshold gt
              { STsplit }
              { dup 11 index sub abs bThreshold gt
                { STsplit }
                { 7 index 13 index sub abs rThreshold gt
                  { STsplit }
                  { 6 index 12 index sub abs gThreshold gt
                    { STsplit }
                    { 5 index 11 index sub abs bThreshold gt
                      { STsplit }
                      { Tm }
                      ifelse }
                    ifelse }
                  ifelse }
                ifelse }
              ifelse }
            ifelse }
          ifelse }
        ifelse }
      ifelse } BD
tryPS3shading
{ /shfill where
  { /ST { STshfill } BD }
  { /ST { STnoshfill } BD }
  ifelse }
{ /ST { STnoshfill } BD }
ifelse
end
%%EndProlog
%%BeginSetup
/DeviceRGB setcolorspace
gl2psdict begin
%%EndSetup
%%Page: 1 1
%%BeginPageSetup
%%EndPageSetup
mark
gsave
1.0 1.0 scale
1 1 1 C
72.8 401.5 506.8 59.1999 72.8 59.1999 T
72.8 401.5 506.8 401.5 506.8 59.1999 T
3 W
[16 0] 0 setdash
0 0 0 C
72.8 59.1999 LS
506.8 59.1999 LE
72.8 401.5 LS
506.8 401.5 LE
72.8 59.1999 LS
72.8 401.5 LE
506.8 59.1999 LS
506.8 401.5 LE
72.8 59.1999 LS
72.8 63.5438 LE
72.8 401.5 LS
72.8 397.156 LE
181.3 59.1999 LS
181.3 63.5438 LE
181.3 401.5 LS
181.3 397.156 LE
289.8 59.1999 LS
289.8 63.5438 LE
289.8 401.5 LS
289.8 397.156 LE
398.3 59.1999 LS
398.3 63.5438 LE
398.3 401.5 LS
398.3 397.156 LE
506.8 59.1999 LS
506.8 63.5438 LE
506.8 401.5 LS
506.8 397.156 LE
(0) 72.8 54.1956 12 /Helvetica STC
(5) 181.3 54.1956 12 /Helvetica STC
(10) 289.8 54.1956 12 /Helvetica STC
(15) 398.3 54.1956 12 /Helvetica STC
(20) 506.8 54.1956 12 /Helvetica STC
72.8 59.1999 LS
77.14 59.1999 LE
506.8 59.1999 LS
502.46 59.1999 LE
72.8 116.25 LS
77.14 116.25 LE
506.8 116.25 LS
502.46 116.25 LE
72.8 173.3 LS
77.14 173.3 LE
506.8 173.3 LS
502.46 173.3 LE
72.8 230.35 LS
77.14 230.35 LE
506.8 230.35 LS
502.46 230.35 LE
72.8 287.4 LS
77.14 287.4 LE
506.8 287.4 LS
502.46 287.4 LE
72.8 344.45 LS
77.14 344.45 LE
506.8 344.45 LS
502.46 344.45 LE
72.8 401.5 LS
77.14 401.5 LE
506.8 401.5 LS
502.46 401.5 LE
(0.8) 67.8 59.2 12 /Helvetica SCR
(0.85) 67.8 116.25 12 /Helvetica SCR
(0.9) 67.8 173.3 12 /Helvetica SCR
(0.95) 67.8 230.35 12 /Helvetica SCR
(1) 67.8 287.4 12 /Helvetica SCR
(1.05) 67.8 344.45 12 /Helvetica SCR
(1.1) 67.8 401.5 12 /Helvetica SCR
(orientations x distances ) 289.8 40.1956 14 /Helvetica STC
(Morphological Covariance ) 90 39.8 230.35 14 /Helvetica SBCR
2 W
[0 3 1 3 1 3 1 3 1 0] 0 setdash
1 0 0 C
94.5 287.4 LS
116.2 186.416 L
137.9 144.868 L
159.6 127.96 L
181.3 91.1998 L
203 169.354 L
224.7 142.415 L
246.4 118.991 L
268.1 107.931 L
289.8 182.178 L
311.5 197.968 L
333.2 154.905 L
354.9 188.863 L
376.6 138.47 L
398.3 116.606 L
420 89.4427 L
441.7 70.6645 LE
[] 0 setdash
91.5 287.4 LS
97.5 287.4 LE
94.5 290.4 LS
94.5 284.4 LE
113.2 186.416 LS
119.2 186.416 LE
116.2 189.416 LS
116.2 183.416 LE
134.9 144.868 LS
140.9 144.868 LE
137.9 147.868 LS
137.9 141.868 LE
156.6 127.96 LS
162.6 127.96 LE
159.6 130.96 LS
159.6 124.96 LE
178.3 91.1999 LS
184.3 91.1999 LE
181.3 94.1999 LS
181.3 88.1999 LE
200 169.354 LS
206 169.354 LE
203 172.354 LS
203 166.354 LE
221.7 142.415 LS
227.7 142.415 LE
224.7 145.415 LS
224.7 139.415 LE
243.4 118.991 LS
249.4 118.991 LE
246.4 121.991 LS
246.4 115.991 LE
265.1 107.931 LS
271.1 107.931 LE
268.1 110.931 LS
268.1 104.931 LE
286.8 182.178 LS
292.8 182.178 LE
289.8 185.178 LS
289.8 179.178 LE
308.5 197.969 LS
314.5 197.969 LE
311.5 200.969 LS
311.5 194.969 LE
330.2 154.905 LS
336.2 154.905 LE
333.2 157.905 LS
333.2 151.905 LE
351.9 188.863 LS
357.9 188.863 LE
354.9 191.863 LS
354.9 185.863 LE
373.6 138.471 LS
379.6 138.471 LE
376.6 141.471 LS
376.6 135.471 LE
395.3 116.606 LS
401.3 116.606 LE
398.3 119.606 LS
398.3 113.606 LE
417 89.4428 LS
423 89.4428 LE
420 92.4428 LS
420 86.4428 LE
438.7 70.6646 LS
444.7 70.6646 LE
441.7 73.6646 LS
441.7 67.6646 LE
[0 3 1 3 1 3 1 3 1 0] 0 setdash
0 1 0 C
94.5 287.4 LS
116.2 183.786 L
137.9 214.025 L
159.6 213.257 L
181.3 193.554 L
203 186.378 L
224.7 216.128 L
246.4 218.24 L
268.1 207.583 L
289.8 244.753 L
311.5 231.368 L
333.2 232.551 L
354.9 229.031 L
376.6 186.301 L
398.3 208.237 L
420 205.411 L
441.7 189.339 LE
[] 0 setdash
97.5 287.4 LS
96.927 285.637 L
95.4271 284.547 L
93.5729 284.547 L
92.073 285.637 L
91.5 287.4 L
92.073 289.163 L
93.5729 290.253 L
95.4271 290.253 L
96.927 289.163 L
97.5 287.4 LE
119.2 183.786 LS
118.627 182.023 L
117.127 180.933 L
115.273 180.933 L
113.773 182.023 L
113.2 183.786 L
113.773 185.55 L
115.273 186.64 L
117.127 186.64 L
118.627 185.55 L
119.2 183.786 LE
140.9 214.025 LS
140.327 212.262 L
138.827 211.172 L
136.973 211.172 L
135.473 212.262 L
134.9 214.025 L
135.473 215.788 L
136.973 216.878 L
138.827 216.878 L
140.327 215.788 L
140.9 214.025 LE
162.6 213.257 LS
162.027 211.493 L
160.527 210.403 L
158.673 210.403 L
157.173 211.493 L
156.6 213.257 L
157.173 215.02 L
158.673 216.11 L
160.527 216.11 L
162.027 215.02 L
162.6 213.257 LE
184.3 193.554 LS
183.727 191.79 L
182.227 190.7 L
180.373 190.7 L
178.873 191.79 L
178.3 193.554 L
178.873 195.317 L
180.373 196.407 L
182.227 196.407 L
183.727 195.317 L
184.3 193.554 LE
206 186.379 LS
205.427 184.615 L
203.927 183.525 L
202.073 183.525 L
200.573 184.615 L
200 186.379 L
200.573 188.142 L
202.073 189.232 L
203.927 189.232 L
205.427 188.142 L
206 186.379 LE
227.7 216.128 LS
227.127 214.365 L
225.627 213.275 L
223.773 213.275 L
222.273 214.365 L
221.7 216.128 L
222.273 217.892 L
223.773 218.981 L
225.627 218.981 L
227.127 217.892 L
227.7 216.128 LE
249.4 218.24 LS
248.827 216.477 L
247.327 215.387 L
245.473 215.387 L
243.973 216.477 L
243.4 218.24 L
243.973 220.003 L
245.473 221.093 L
247.327 221.093 L
248.827 220.003 L
249.4 218.24 LE
271.1 207.583 LS
270.527 205.82 L
269.027 204.73 L
267.173 204.73 L
265.673 205.82 L
265.1 207.583 L
265.673 209.347 L
267.173 210.437 L
269.027 210.437 L
270.527 209.347 L
271.1 207.583 LE
292.8 244.753 LS
292.227 242.989 L
290.727 241.9 L
288.873 241.9 L
287.373 242.989 L
286.8 244.753 L
287.373 246.516 L
288.873 247.606 L
290.727 247.606 L
292.227 246.516 L
292.8 244.753 LE
314.5 231.368 LS
313.927 229.604 L
312.427 228.515 L
310.573 228.515 L
309.073 229.604 L
308.5 231.368 L
309.073 233.131 L
310.573 234.221 L
312.427 234.221 L
313.927 233.131 L
314.5 231.368 LE
336.2 232.551 LS
335.627 230.787 L
334.127 229.698 L
332.273 229.698 L
330.773 230.787 L
330.2 232.551 L
330.773 234.314 L
332.273 235.404 L
334.127 235.404 L
335.627 234.314 L
336.2 232.551 LE
357.9 229.031 LS
357.327 227.268 L
355.827 226.178 L
353.973 226.178 L
352.473 227.268 L
351.9 229.031 L
352.473 230.795 L
353.973 231.885 L
355.827 231.885 L
357.327 230.795 L
357.9 229.031 LE
379.6 186.301 LS
379.027 184.538 L
377.527 183.448 L
375.673 183.448 L
374.173 184.538 L
373.6 186.301 L
374.173 188.065 L
375.673 189.154 L
377.527 189.154 L
379.027 188.065 L
379.6 186.301 LE
401.3 208.237 LS
400.727 206.473 L
399.227 205.384 L
397.373 205.384 L
395.873 206.473 L
395.3 208.237 L
395.873 210 L
397.373 211.09 L
399.227 211.09 L
400.727 210 L
401.3 208.237 LE
423 205.411 LS
422.427 203.648 L
420.927 202.558 L
419.073 202.558 L
417.573 203.648 L
417 205.411 L
417.573 207.175 L
419.073 208.265 L
420.927 208.265 L
422.427 207.175 L
423 205.411 LE
444.7 189.339 LS
444.127 187.575 L
442.627 186.486 L
440.773 186.486 L
439.273 187.575 L
438.7 189.339 L
439.273 191.102 L
440.773 192.192 L
442.627 192.192 L
444.127 191.102 L
444.7 189.339 LE
[0 3 1 3 1 3 1 3 1 0] 0 setdash
0 0 1 C
94.5 287.4 LS
116.2 208.784 L
137.9 287.493 L
159.6 323.601 L
181.3 345.872 L
203 216.887 L
224.7 290.607 L
246.4 333.424 L
268.1 348.331 L
289.8 262.512 L
311.5 258.592 L
333.2 274.523 L
354.9 264.081 L
376.6 227.251 L
398.3 310.6 L
420 347.051 L
441.7 355.112 LE
96.5 287.4 95.118 285.498 96.118 286.224 T
96.5 287.4 93.882 285.498 95.118 285.498 T
96.5 287.4 92.882 286.224 93.882 285.498 T
96.5 287.4 92.5 287.4 92.882 286.224 T
96.5 287.4 92.882 288.576 92.5 287.4 T
96.5 287.4 93.882 289.302 92.882 288.576 T
96.5 287.4 95.118 289.302 93.882 289.302 T
96.5 287.4 96.118 288.576 95.118 289.302 T
118.2 208.784 116.818 206.882 117.818 207.608 T
118.2 208.784 115.582 206.882 116.818 206.882 T
118.2 208.784 114.582 207.608 115.582 206.882 T
118.2 208.784 114.2 208.784 114.582 207.608 T
118.2 208.784 114.582 209.959 114.2 208.784 T
118.2 208.784 115.582 210.686 114.582 209.959 T
118.2 208.784 116.818 210.686 115.582 210.686 T
118.2 208.784 117.818 209.959 116.818 210.686 T
139.9 287.493 138.518 285.591 139.518 286.318 T
139.9 287.493 137.282 285.591 138.518 285.591 T
139.9 287.493 136.282 286.318 137.282 285.591 T
139.9 287.493 135.9 287.493 136.282 286.318 T
139.9 287.493 136.282 288.669 135.9 287.493 T
139.9 287.493 137.282 289.395 136.282 288.669 T
139.9 287.493 138.518 289.395 137.282 289.395 T
139.9 287.493 139.518 288.669 138.518 289.395 T
161.6 323.602 160.218 321.699 161.218 322.426 T
161.6 323.602 158.982 321.699 160.218 321.699 T
161.6 323.602 157.982 322.426 158.982 321.699 T
161.6 323.602 157.6 323.602 157.982 322.426 T
161.6 323.602 157.982 324.777 157.6 323.602 T
161.6 323.602 158.982 325.504 157.982 324.777 T
161.6 323.602 160.218 325.504 158.982 325.504 T
161.6 323.602 161.218 324.777 160.218 325.504 T
183.3 345.872 181.918 343.97 182.918 344.697 T
183.3 345.872 180.682 343.97 181.918 343.97 T
183.3 345.872 179.682 344.697 180.682 343.97 T
183.3 345.872 179.3 345.872 179.682 344.697 T
183.3 345.872 179.682 347.048 179.3 345.872 T
183.3 345.872 180.682 347.774 179.682 347.048 T
183.3 345.872 181.918 347.774 180.682 347.774 T
183.3 345.872 182.918 347.048 181.918 347.774 T
205 216.887 203.618 214.985 204.618 215.712 T
205 216.887 202.382 214.985 203.618 214.985 T
205 216.887 201.382 215.712 202.382 214.985 T
205 216.887 201 216.887 201.382 215.712 T
205 216.887 201.382 218.063 201 216.887 T
205 216.887 202.382 218.789 201.382 218.063 T
205 216.887 203.618 218.789 202.382 218.789 T
205 216.887 204.618 218.063 203.618 218.789 T
226.7 290.607 225.318 288.705 226.318 289.432 T
226.7 290.607 224.082 288.705 225.318 288.705 T
226.7 290.607 223.082 289.432 224.082 288.705 T
226.7 290.607 222.7 290.607 223.082 289.432 T
226.7 290.607 223.082 291.783 222.7 290.607 T
226.7 290.607 224.082 292.509 223.082 291.783 T
226.7 290.607 225.318 292.509 224.082 292.509 T
226.7 290.607 226.318 291.783 225.318 292.509 T
248.4 333.424 247.018 331.522 248.018 332.248 T
248.4 333.424 245.782 331.522 247.018 331.522 T
248.4 333.424 244.782 332.248 245.782 331.522 T
248.4 333.424 244.4 333.424 244.782 332.248 T
248.4 333.424 244.782 334.6 244.4 333.424 T
248.4 333.424 245.782 335.326 244.782 334.6 T
248.4 333.424 247.018 335.326 245.782 335.326 T
248.4 333.424 248.018 334.6 247.018 335.326 T
270.1 348.331 268.718 346.429 269.718 347.155 T
270.1 348.331 267.482 346.429 268.718 346.429 T
270.1 348.331 266.482 347.155 267.482 346.429 T
270.1 348.331 266.1 348.331 266.482 347.155 T
270.1 348.331 266.482 349.506 266.1 348.331 T
270.1 348.331 267.482 350.233 266.482 349.506 T
270.1 348.331 268.718 350.233 267.482 350.233 T
270.1 348.331 269.718 349.506 268.718 350.233 T
291.8 262.513 290.418 260.61 291.418 261.337 T
291.8 262.513 289.182 260.61 290.418 260.61 T
291.8 262.513 288.182 261.337 289.182 260.61 T
291.8 262.513 287.8 262.513 288.182 261.337 T
291.8 262.513 288.182 263.688 287.8 262.513 T
291.8 262.513 289.182 264.415 288.182 263.688 T
291.8 262.513 290.418 264.415 289.182 264.415 T
291.8 262.513 291.418 263.688 290.418 264.415 T
313.5 258.592 312.118 256.69 313.118 257.417 T
313.5 258.592 310.882 256.69 312.118 256.69 T
313.5 258.592 309.882 257.417 310.882 256.69 T
313.5 258.592 309.5 258.592 309.882 257.417 T
313.5 258.592 309.882 259.768 309.5 258.592 T
313.5 258.592 310.882 260.494 309.882 259.768 T
313.5 258.592 312.118 260.494 310.882 260.494 T
313.5 258.592 313.118 259.768 312.118 260.494 T
335.2 274.523 333.818 272.621 334.818 273.348 T
335.2 274.523 332.582 272.621 333.818 272.621 T
335.2 274.523 331.582 273.348 332.582 272.621 T
335.2 274.523 331.2 274.523 331.582 273.348 T
335.2 274.523 331.582 275.699 331.2 274.523 T
335.2 274.523 332.582 276.425 331.582 275.699 T
335.2 274.523 333.818 276.425 332.582 276.425 T
335.2 274.523 334.818 275.699 333.818 276.425 T
356.9 264.081 355.518 262.179 356.518 262.905 T
356.9 264.081 354.282 262.179 355.518 262.179 T
356.9 264.081 353.282 262.905 354.282 262.179 T
356.9 264.081 352.9 264.081 353.282 262.905 T
356.9 264.081 353.282 265.256 352.9 264.081 T
356.9 264.081 354.282 265.983 353.282 265.256 T
356.9 264.081 355.518 265.983 354.282 265.983 T
356.9 264.081 356.518 265.256 355.518 265.983 T
378.6 227.252 377.218 225.349 378.218 226.076 T
378.6 227.252 375.982 225.349 377.218 225.349 T
378.6 227.252 374.982 226.076 375.982 225.349 T
378.6 227.252 374.6 227.252 374.982 226.076 T
378.6 227.252 374.982 228.427 374.6 227.252 T
378.6 227.252 375.982 229.154 374.982 228.427 T
378.6 227.252 377.218 229.154 375.982 229.154 T
378.6 227.252 378.218 228.427 377.218 229.154 T
400.3 310.6 398.918 308.698 399.918 309.424 T
400.3 310.6 397.682 308.698 398.918 308.698 T
400.3 310.6 396.682 309.424 397.682 308.698 T
400.3 310.6 396.3 310.6 396.682 309.424 T
400.3 310.6 396.682 311.776 396.3 310.6 T
400.3 310.6 397.682 312.502 396.682 311.776 T
400.3 310.6 398.918 312.502 397.682 312.502 T
400.3 310.6 399.918 311.776 398.918 312.502 T
422 347.051 420.618 345.149 421.618 345.876 T
422 347.051 419.382 345.149 420.618 345.149 T
422 347.051 418.382 345.876 419.382 345.149 T
422 347.051 418 347.051 418.382 345.876 T
422 347.051 418.382 348.227 418 347.051 T
422 347.051 419.382 348.953 418.382 348.227 T
422 347.051 420.618 348.953 419.382 348.953 T
422 347.051 421.618 348.227 420.618 348.953 T
443.7 355.112 442.318 353.21 443.318 353.936 T
443.7 355.112 441.082 353.21 442.318 353.21 T
443.7 355.112 440.082 353.936 441.082 353.21 T
443.7 355.112 439.7 355.112 440.082 353.936 T
443.7 355.112 440.082 356.287 439.7 355.112 T
443.7 355.112 441.082 357.014 440.082 356.287 T
443.7 355.112 442.318 357.014 441.082 357.014 T
443.7 355.112 443.318 356.287 442.318 357.014 T
grestore
showpage
cleartomark
%%PageTrailer
%%Trailer
end
%%EOF
