%!PS-Adobe-3.0 EPSF-3.0
%%Title: glps_renderer figure
%%Creator: GL2PS 1.3.8, (C) 1999-2012 C. Geuzaine
%%For: Octave
%%CreationDate: Mon Apr 24 22:21:43 2017
%%LanguageLevel: 3
%%DocumentData: Clean7Bit
%%Pages: 1
%%BoundingBox: 0 0 576 433
%%EndComments
%%BeginProlog
/gl2psdict 64 dict def gl2psdict begin
0 setlinecap 0 setlinejoin
/tryPS3shading false def % set to false to force subdivision
/rThreshold 0.064 def % red component subdivision threshold
/gThreshold 0.034 def % green component subdivision threshold
/bThreshold 0.1 def % blue component subdivision threshold
/BD { bind def } bind def
/C  { setrgbcolor } BD
/G  { 0.082 mul exch 0.6094 mul add exch 0.3086 mul add neg 1.0 add setgray } BD
/W  { setlinewidth } BD
/FC { findfont exch /SH exch def SH scalefont setfont } BD
/SW { dup stringwidth pop } BD
/S  { FC moveto show } BD
/SBC{ FC moveto SW -2 div 0 rmoveto show } BD
/SBR{ FC moveto SW neg 0 rmoveto show } BD
/SCL{ FC moveto 0 SH -2 div rmoveto show } BD
/SCC{ FC moveto SW -2 div SH -2 div rmoveto show } BD
/SCR{ FC moveto SW neg SH -2 div rmoveto show } BD
/STL{ FC moveto 0 SH neg rmoveto show } BD
/STC{ FC moveto SW -2 div SH neg rmoveto show } BD
/STR{ FC moveto SW neg SH neg rmoveto show } BD
/FCT { FC translate 0 0 } BD
/SR  { gsave FCT moveto rotate show grestore } BD
/SBCR{ gsave FCT moveto rotate SW -2 div 0 rmoveto show grestore } BD
/SBRR{ gsave FCT moveto rotate SW neg 0 rmoveto show grestore } BD
/SCLR{ gsave FCT moveto rotate 0 SH -2 div rmoveto show grestore} BD
/SCCR{ gsave FCT moveto rotate SW -2 div SH -2 div rmoveto show grestore} BD
/SCRR{ gsave FCT moveto rotate SW neg SH -2 div rmoveto show grestore} BD
/STLR{ gsave FCT moveto rotate 0 SH neg rmoveto show grestore } BD
/STCR{ gsave FCT moveto rotate SW -2 div SH neg rmoveto show grestore } BD
/STRR{ gsave FCT moveto rotate SW neg SH neg rmoveto show grestore } BD
/P  { newpath 0.0 360.0 arc closepath fill } BD
/LS { newpath moveto } BD
/L  { lineto } BD
/LE { lineto stroke } BD
/T  { newpath moveto lineto lineto closepath fill } BD
/STshfill {
      /b1 exch def /g1 exch def /r1 exch def /y1 exch def /x1 exch def
      /b2 exch def /g2 exch def /r2 exch def /y2 exch def /x2 exch def
      /b3 exch def /g3 exch def /r3 exch def /y3 exch def /x3 exch def
      gsave << /ShadingType 4 /ColorSpace [/DeviceRGB]
      /DataSource [ 0 x1 y1 r1 g1 b1 0 x2 y2 r2 g2 b2 0 x3 y3 r3 g3 b3 ] >>
      shfill grestore } BD
/Tm { 3 -1 roll 8 -1 roll 13 -1 roll add add 3 div
      3 -1 roll 7 -1 roll 11 -1 roll add add 3 div
      3 -1 roll 6 -1 roll 9 -1 roll add add 3 div C T } BD
/STsplit {
      4 index 15 index add 0.5 mul
      4 index 15 index add 0.5 mul
      4 index 15 index add 0.5 mul
      4 index 15 index add 0.5 mul
      4 index 15 index add 0.5 mul
      5 copy 5 copy 25 15 roll
      9 index 30 index add 0.5 mul
      9 index 30 index add 0.5 mul
      9 index 30 index add 0.5 mul
      9 index 30 index add 0.5 mul
      9 index 30 index add 0.5 mul
      5 copy 5 copy 35 5 roll 25 5 roll 15 5 roll
      4 index 10 index add 0.5 mul
      4 index 10 index add 0.5 mul
      4 index 10 index add 0.5 mul
      4 index 10 index add 0.5 mul
      4 index 10 index add 0.5 mul
      5 copy 5 copy 40 5 roll 25 5 roll 15 5 roll 25 5 roll
      STnoshfill STnoshfill STnoshfill STnoshfill } BD
/STnoshfill {
      2 index 8 index sub abs rThreshold gt
      { STsplit }
      { 1 index 7 index sub abs gThreshold gt
        { STsplit }
        { dup 6 index sub abs bThreshold gt
          { STsplit }
          { 2 index 13 index sub abs rThreshold gt
            { STsplit }
            { 1 index 12 index sub abs gThreshold gt
              { STsplit }
              { dup 11 index sub abs bThreshold gt
                { STsplit }
                { 7 index 13 index sub abs rThreshold gt
                  { STsplit }
                  { 6 index 12 index sub abs gThreshold gt
                    { STsplit }
                    { 5 index 11 index sub abs bThreshold gt
                      { STsplit }
                      { Tm }
                      ifelse }
                    ifelse }
                  ifelse }
                ifelse }
              ifelse }
            ifelse }
          ifelse }
        ifelse }
      ifelse } BD
tryPS3shading
{ /shfill where
  { /ST { STshfill } BD }
  { /ST { STnoshfill } BD }
  ifelse }
{ /ST { STnoshfill } BD }
ifelse
end
%%EndProlog
%%BeginSetup
/DeviceRGB setcolorspace
gl2psdict begin
%%EndSetup
%%Page: 1 1
%%BeginPageSetup
%%EndPageSetup
mark
gsave
1.0 1.0 scale
1 1 1 C
74.88 400.6 521.28 48.52 74.88 48.52 T
74.88 400.6 521.28 400.6 521.28 48.52 T
0.5 W
[16 0] 0 setdash
0 0 0 C
74.88 48.52 LS
521.28 48.52 LE
74.88 400.6 LS
521.28 400.6 LE
74.88 48.52 LS
74.88 400.6 LE
521.28 48.52 LS
521.28 400.6 LE
74.88 48.52 LS
74.88 52.985 LE
74.88 400.6 LS
74.88 396.135 LE
186.48 48.52 LS
186.48 52.985 LE
186.48 400.6 LS
186.48 396.135 LE
298.08 48.52 LS
298.08 52.985 LE
298.08 400.6 LS
298.08 396.135 LE
409.68 48.52 LS
409.68 52.985 LE
409.68 400.6 LS
409.68 396.135 LE
521.28 48.52 LS
521.28 52.985 LE
521.28 400.6 LS
521.28 396.135 LE
(0) 74.88 43.5189 10 /Helvetica STC
(5) 186.48 43.5189 10 /Helvetica STC
(10) 298.08 43.5189 10 /Helvetica STC
(15) 409.68 43.5189 10 /Helvetica STC
(20) 521.28 43.5189 10 /Helvetica STC
74.88 48.52 LS
79.348 48.52 LE
521.28 48.52 LS
516.812 48.52 LE
74.88 118.936 LS
79.348 118.936 LE
521.28 118.936 LS
516.812 118.936 LE
74.88 189.352 LS
79.348 189.352 LE
521.28 189.352 LS
516.812 189.352 LE
74.88 259.768 LS
79.348 259.768 LE
521.28 259.768 LS
516.812 259.768 LE
74.88 330.184 LS
79.348 330.184 LE
521.28 330.184 LS
516.812 330.184 LE
74.88 400.6 LS
79.348 400.6 LE
521.28 400.6 LS
516.812 400.6 LE
(0) 69.8755 48.52 10 /Helvetica SCR
(500000) 69.8755 118.936 10 /Helvetica SCR
(1e+06) 69.8755 189.352 10 /Helvetica SCR
(1.5e+06) 69.8755 259.768 10 /Helvetica SCR
(2e+06) 69.8755 330.184 10 /Helvetica SCR
(2.5e+06) 69.8755 400.6 10 /Helvetica SCR
(structuring elements sizes) 298.08 32.5189 14 /Helvetica STC
(Granulometry without normalizing) 90 26.8755 224.56 14 /Helvetica SBCR
2 W
[0 3 1 3 1 3 1 3 1 0] 0 setdash
1 0 0 C
97.2 353.098 LS
119.52 317.673 L
141.84 269.948 L
164.16 245.615 L
186.48 224.212 L
208.8 211.313 L
231.12 185.22 L
253.44 147.068 L
275.76 112.096 L
298.08 97.7587 L
320.4 92.3861 L
342.72 86.8235 L
365.04 82.9788 L
387.36 82.7902 L
409.68 82.3364 LE
[] 0 setdash
94.2 353.098 LS
100.2 353.098 LE
97.2 356.098 LS
97.2 350.098 LE
116.52 317.673 LS
122.52 317.673 LE
119.52 320.673 LS
119.52 314.673 LE
138.84 269.948 LS
144.84 269.948 LE
141.84 272.948 LS
141.84 266.948 LE
161.16 245.615 LS
167.16 245.615 LE
164.16 248.615 LS
164.16 242.615 LE
183.48 224.212 LS
189.48 224.212 LE
186.48 227.212 LS
186.48 221.212 LE
205.8 211.313 LS
211.8 211.313 LE
208.8 214.313 LS
208.8 208.313 LE
228.12 185.22 LS
234.12 185.22 LE
231.12 188.22 LS
231.12 182.22 LE
250.44 147.068 LS
256.44 147.068 LE
253.44 150.068 LS
253.44 144.068 LE
272.76 112.096 LS
278.76 112.096 LE
275.76 115.096 LS
275.76 109.096 LE
295.08 97.7587 LS
301.08 97.7587 LE
298.08 100.759 LS
298.08 94.7587 LE
317.4 92.3861 LS
323.4 92.3861 LE
320.4 95.3861 LS
320.4 89.3861 LE
339.72 86.8235 LS
345.72 86.8235 LE
342.72 89.8235 LS
342.72 83.8235 LE
362.04 82.9788 LS
368.04 82.9788 LE
365.04 85.9788 LS
365.04 79.9788 LE
384.36 82.7902 LS
390.36 82.7902 LE
387.36 85.7902 LS
387.36 79.7902 LE
406.68 82.3364 LS
412.68 82.3364 LE
409.68 85.3364 LS
409.68 79.3364 LE
[0 3 1 3 1 3 1 3 1 0] 0 setdash
0 1 0 C
97.2 344.224 LS
119.52 304.657 L
141.84 247.785 L
164.16 220.797 L
186.48 201.175 L
208.8 184.599 L
231.12 162.989 L
253.44 131.757 L
275.76 109.727 L
298.08 100.006 L
320.4 96.6965 L
342.72 91.8887 L
365.04 90.6212 L
387.36 89.92 L
409.68 87.55 LE
[] 0 setdash
100.2 344.224 LS
99.627 342.46 L
98.127 341.371 L
96.2729 341.371 L
94.7729 342.46 L
94.2 344.224 L
94.7729 345.987 L
96.2729 347.077 L
98.127 347.077 L
99.627 345.987 L
100.2 344.224 LE
122.52 304.657 LS
121.947 302.894 L
120.447 301.804 L
118.593 301.804 L
117.093 302.894 L
116.52 304.657 L
117.093 306.42 L
118.593 307.51 L
120.447 307.51 L
121.947 306.42 L
122.52 304.657 LE
144.84 247.785 LS
144.267 246.021 L
142.767 244.932 L
140.913 244.932 L
139.413 246.021 L
138.84 247.785 L
139.413 249.548 L
140.913 250.638 L
142.767 250.638 L
144.267 249.548 L
144.84 247.785 LE
167.16 220.797 LS
166.587 219.033 L
165.087 217.944 L
163.233 217.944 L
161.733 219.033 L
161.16 220.797 L
161.733 222.56 L
163.233 223.65 L
165.087 223.65 L
166.587 222.56 L
167.16 220.797 LE
189.48 201.175 LS
188.907 199.411 L
187.407 198.322 L
185.553 198.322 L
184.053 199.411 L
183.48 201.175 L
184.053 202.938 L
185.553 204.028 L
187.407 204.028 L
188.907 202.938 L
189.48 201.175 LE
211.8 184.599 LS
211.227 182.836 L
209.727 181.746 L
207.873 181.746 L
206.373 182.836 L
205.8 184.599 L
206.373 186.363 L
207.873 187.453 L
209.727 187.453 L
211.227 186.363 L
211.8 184.599 LE
234.12 162.989 LS
233.547 161.226 L
232.047 160.136 L
230.193 160.136 L
228.693 161.226 L
228.12 162.989 L
228.693 164.753 L
230.193 165.843 L
232.047 165.843 L
233.547 164.753 L
234.12 162.989 LE
256.44 131.757 LS
255.867 129.993 L
254.367 128.903 LE
252.513 128.903 LS
251.013 129.993 L
250.44 131.757 L
251.013 133.52 L
252.513 134.61 L
254.367 134.61 L
255.867 133.52 L
256.44 131.757 LE
278.76 109.727 LS
278.187 107.964 L
276.687 106.874 L
274.833 106.874 L
273.333 107.964 L
272.76 109.727 L
273.333 111.49 L
274.833 112.58 L
276.687 112.58 L
278.187 111.49 L
278.76 109.727 LE
301.08 100.006 LS
300.507 98.243 L
299.007 97.1532 L
297.153 97.1532 L
295.653 98.243 L
295.08 100.006 L
295.653 101.77 L
297.153 102.86 L
299.007 102.86 L
300.507 101.77 L
301.08 100.006 LE
323.4 96.6965 LS
322.827 94.9331 L
321.327 93.8433 L
319.473 93.8433 L
317.973 94.9331 L
317.4 96.6965 L
317.973 98.4599 L
319.473 99.5497 L
321.327 99.5497 L
322.827 98.4599 L
323.4 96.6965 LE
345.72 91.8886 LS
345.147 90.1253 L
343.647 89.0355 L
341.793 89.0355 L
340.293 90.1253 L
339.72 91.8886 L
340.293 93.652 L
341.793 94.7418 L
343.647 94.7418 L
345.147 93.652 L
345.72 91.8886 LE
368.04 90.6212 LS
367.467 88.8578 L
365.967 87.768 L
364.113 87.768 L
362.613 88.8578 L
362.04 90.6212 L
362.613 92.3845 L
364.113 93.4743 L
365.967 93.4743 L
367.467 92.3845 L
368.04 90.6212 LE
390.36 89.92 LS
389.787 88.1566 L
388.287 87.0668 L
386.433 87.0668 L
384.933 88.1566 L
384.36 89.92 L
384.933 91.6833 L
386.433 92.7731 L
388.287 92.7731 L
389.787 91.6833 L
390.36 89.92 LE
412.68 87.55 LS
412.107 85.7867 L
410.607 84.6969 L
408.753 84.6969 L
407.253 85.7867 L
406.68 87.55 L
407.253 89.3134 L
408.753 90.4032 L
410.607 90.4032 L
412.107 89.3134 L
412.68 87.55 LE
[0 3 1 3 1 3 1 3 1 0] 0 setdash
0 0 1 C
97.2 328.571 LS
119.52 279.965 L
141.84 211.284 L
164.16 179.217 L
186.48 161.935 L
208.8 143.355 L
231.12 128.804 L
253.44 129.303 L
275.76 122.03 L
298.08 109.944 L
320.4 106.611 L
342.72 102.868 L
365.04 98.0127 L
387.36 97.1248 L
409.68 93.5008 LE
99.2 328.571 97.818 326.669 98.818 327.396 T
99.2 328.571 96.582 326.669 97.818 326.669 T
99.2 328.571 95.582 327.396 96.582 326.669 T
99.2 328.571 95.2 328.571 95.582 327.396 T
99.2 328.571 95.582 329.747 95.2 328.571 T
99.2 328.571 96.582 330.473 95.582 329.747 T
99.2 328.571 97.818 330.473 96.582 330.473 T
99.2 328.571 98.818 329.747 97.818 330.473 T
121.52 279.965 120.138 278.063 121.138 278.79 T
121.52 279.965 118.902 278.063 120.138 278.063 T
121.52 279.965 117.902 278.79 118.902 278.063 T
121.52 279.965 117.52 279.965 117.902 278.79 T
121.52 279.965 117.902 281.141 117.52 279.965 T
121.52 279.965 118.902 281.868 117.902 281.141 T
121.52 279.965 120.138 281.868 118.902 281.868 T
121.52 279.965 121.138 281.141 120.138 281.868 T
143.84 211.284 142.458 209.382 143.458 210.108 T
143.84 211.284 141.222 209.382 142.458 209.382 T
143.84 211.284 140.222 210.108 141.222 209.382 T
143.84 211.284 139.84 211.284 140.222 210.108 T
143.84 211.284 140.222 212.46 139.84 211.284 T
143.84 211.284 141.222 213.186 140.222 212.46 T
143.84 211.284 142.458 213.186 141.222 213.186 T
143.84 211.284 143.458 212.46 142.458 213.186 T
166.16 179.217 164.778 177.315 165.778 178.042 T
166.16 179.217 163.542 177.315 164.778 177.315 T
166.16 179.217 162.542 178.042 163.542 177.315 T
166.16 179.217 162.16 179.217 162.542 178.042 T
166.16 179.217 162.542 180.393 162.16 179.217 T
166.16 179.217 163.542 181.12 162.542 180.393 T
166.16 179.217 164.778 181.12 163.542 181.12 T
166.16 179.217 165.778 180.393 164.778 181.12 T
188.48 161.935 187.098 160.032 188.098 160.759 T
188.48 161.935 185.862 160.032 187.098 160.032 T
188.48 161.935 184.862 160.759 185.862 160.032 T
188.48 161.935 184.48 161.935 184.862 160.759 T
188.48 161.935 184.862 163.11 184.48 161.935 T
188.48 161.935 185.862 163.837 184.862 163.11 T
188.48 161.935 187.098 163.837 185.862 163.837 T
188.48 161.935 188.098 163.11 187.098 163.837 T
210.8 143.355 209.418 141.453 210.418 142.18 T
210.8 143.355 208.182 141.453 209.418 141.453 T
210.8 143.355 207.182 142.18 208.182 141.453 T
210.8 143.355 206.8 143.355 207.182 142.18 T
210.8 143.355 207.182 144.531 206.8 143.355 T
210.8 143.355 208.182 145.257 207.182 144.531 T
210.8 143.355 209.418 145.257 208.182 145.257 T
210.8 143.355 210.418 144.531 209.418 145.257 T
233.12 128.804 231.738 126.902 232.738 127.629 T
233.12 128.804 230.502 126.902 231.738 126.902 T
233.12 128.804 229.502 127.629 230.502 126.902 T
233.12 128.804 229.12 128.804 229.502 127.629 T
233.12 128.804 229.502 129.98 229.12 128.804 T
233.12 128.804 230.502 130.707 229.502 129.98 T
233.12 128.804 231.738 130.707 230.502 130.707 T
233.12 128.804 232.738 129.98 231.738 130.707 T
255.44 129.302 254.058 127.4 255.058 128.127 T
255.44 129.302 252.822 127.4 254.058 127.4 T
255.44 129.302 251.822 128.127 252.822 127.4 T
255.44 129.302 251.44 129.302 251.822 128.127 T
255.44 129.302 251.822 130.478 251.44 129.302 T
255.44 129.302 252.822 131.205 251.822 130.478 T
255.44 129.302 254.058 131.205 252.822 131.205 T
255.44 129.302 255.058 130.478 254.058 131.205 T
277.76 122.03 276.378 120.128 277.378 120.854 T
277.76 122.03 275.142 120.128 276.378 120.128 T
277.76 122.03 274.142 120.854 275.142 120.128 T
277.76 122.03 273.76 122.03 274.142 120.854 T
277.76 122.03 274.142 123.205 273.76 122.03 T
277.76 122.03 275.142 123.932 274.142 123.205 T
277.76 122.03 276.378 123.932 275.142 123.932 T
277.76 122.03 277.378 123.205 276.378 123.932 T
300.08 109.944 298.698 108.042 299.698 108.768 T
300.08 109.944 297.462 108.042 298.698 108.042 T
300.08 109.944 296.462 108.768 297.462 108.042 T
300.08 109.944 296.08 109.944 296.462 108.768 T
300.08 109.944 296.462 111.119 296.08 109.944 T
300.08 109.944 297.462 111.846 296.462 111.119 T
300.08 109.944 298.698 111.846 297.462 111.846 T
300.08 109.944 299.698 111.119 298.698 111.846 T
322.4 106.611 321.018 104.709 322.018 105.436 T
322.4 106.611 319.782 104.709 321.018 104.709 T
322.4 106.611 318.782 105.436 319.782 104.709 T
322.4 106.611 318.4 106.611 318.782 105.436 T
322.4 106.611 318.782 107.787 318.4 106.611 T
322.4 106.611 319.782 108.513 318.782 107.787 T
322.4 106.611 321.018 108.513 319.782 108.513 T
322.4 106.611 322.018 107.787 321.018 108.513 T
344.72 102.868 343.338 100.966 344.338 101.692 T
344.72 102.868 342.102 100.966 343.338 100.966 T
344.72 102.868 341.102 101.692 342.102 100.966 T
344.72 102.868 340.72 102.868 341.102 101.692 T
344.72 102.868 341.102 104.043 340.72 102.868 T
344.72 102.868 342.102 104.77 341.102 104.043 T
344.72 102.868 343.338 104.77 342.102 104.77 T
344.72 102.868 344.338 104.043 343.338 104.77 T
367.04 98.0127 365.658 96.1106 366.658 96.8372 T
367.04 98.0127 364.422 96.1106 365.658 96.1106 T
367.04 98.0127 363.422 96.8372 364.422 96.1106 T
367.04 98.0127 363.04 98.0127 363.422 96.8372 T
367.04 98.0127 363.422 99.1883 363.04 98.0127 T
367.04 98.0127 364.422 99.9148 363.422 99.1883 T
367.04 98.0127 365.658 99.9148 364.422 99.9148 T
367.04 98.0127 366.658 99.1883 365.658 99.9148 T
389.36 97.1248 387.978 95.2227 388.978 95.9492 T
389.36 97.1248 386.742 95.2227 387.978 95.2227 T
389.36 97.1248 385.742 95.9492 386.742 95.2227 T
389.36 97.1248 385.36 97.1248 385.742 95.9492 T
389.36 97.1248 385.742 98.3003 385.36 97.1248 T
389.36 97.1248 386.742 99.0269 385.742 98.3003 T
389.36 97.1248 387.978 99.0269 386.742 99.0269 T
389.36 97.1248 388.978 98.3003 387.978 99.0269 T
411.68 93.5008 410.298 91.5986 411.298 92.3252 T
411.68 93.5008 409.062 91.5986 410.298 91.5986 T
411.68 93.5008 408.062 92.3252 409.062 91.5986 T
411.68 93.5008 407.68 93.5008 408.062 92.3252 T
411.68 93.5008 408.062 94.6763 407.68 93.5008 T
411.68 93.5008 409.062 95.4029 408.062 94.6763 T
411.68 93.5008 410.298 95.4029 409.062 95.4029 T
411.68 93.5008 411.298 94.6763 410.298 95.4029 T
0 0 0 C
(000002-EQ) 298.08 410.6 15 /Helvetica SBC
grestore
showpage
cleartomark
%%PageTrailer
%%Trailer
end
%%EOF
