%!PS-Adobe-3.0 EPSF-3.0
%%Title: glps_renderer figure
%%Creator: GL2PS 1.3.8, (C) 1999-2012 C. Geuzaine
%%For: Octave
%%CreationDate: Sun Apr 23 21:30:05 2017
%%LanguageLevel: 3
%%DocumentData: Clean7Bit
%%Pages: 1
%%BoundingBox: 0 0 576 433
%%EndComments
%%BeginProlog
/gl2psdict 64 dict def gl2psdict begin
0 setlinecap 0 setlinejoin
/tryPS3shading false def % set to false to force subdivision
/rThreshold 0.064 def % red component subdivision threshold
/gThreshold 0.034 def % green component subdivision threshold
/bThreshold 0.1 def % blue component subdivision threshold
/BD { bind def } bind def
/C  { setrgbcolor } BD
/G  { 0.082 mul exch 0.6094 mul add exch 0.3086 mul add neg 1.0 add setgray } BD
/W  { setlinewidth } BD
/FC { findfont exch /SH exch def SH scalefont setfont } BD
/SW { dup stringwidth pop } BD
/S  { FC moveto show } BD
/SBC{ FC moveto SW -2 div 0 rmoveto show } BD
/SBR{ FC moveto SW neg 0 rmoveto show } BD
/SCL{ FC moveto 0 SH -2 div rmoveto show } BD
/SCC{ FC moveto SW -2 div SH -2 div rmoveto show } BD
/SCR{ FC moveto SW neg SH -2 div rmoveto show } BD
/STL{ FC moveto 0 SH neg rmoveto show } BD
/STC{ FC moveto SW -2 div SH neg rmoveto show } BD
/STR{ FC moveto SW neg SH neg rmoveto show } BD
/FCT { FC translate 0 0 } BD
/SR  { gsave FCT moveto rotate show grestore } BD
/SBCR{ gsave FCT moveto rotate SW -2 div 0 rmoveto show grestore } BD
/SBRR{ gsave FCT moveto rotate SW neg 0 rmoveto show grestore } BD
/SCLR{ gsave FCT moveto rotate 0 SH -2 div rmoveto show grestore} BD
/SCCR{ gsave FCT moveto rotate SW -2 div SH -2 div rmoveto show grestore} BD
/SCRR{ gsave FCT moveto rotate SW neg SH -2 div rmoveto show grestore} BD
/STLR{ gsave FCT moveto rotate 0 SH neg rmoveto show grestore } BD
/STCR{ gsave FCT moveto rotate SW -2 div SH neg rmoveto show grestore } BD
/STRR{ gsave FCT moveto rotate SW neg SH neg rmoveto show grestore } BD
/P  { newpath 0.0 360.0 arc closepath fill } BD
/LS { newpath moveto } BD
/L  { lineto } BD
/LE { lineto stroke } BD
/T  { newpath moveto lineto lineto closepath fill } BD
/STshfill {
      /b1 exch def /g1 exch def /r1 exch def /y1 exch def /x1 exch def
      /b2 exch def /g2 exch def /r2 exch def /y2 exch def /x2 exch def
      /b3 exch def /g3 exch def /r3 exch def /y3 exch def /x3 exch def
      gsave << /ShadingType 4 /ColorSpace [/DeviceRGB]
      /DataSource [ 0 x1 y1 r1 g1 b1 0 x2 y2 r2 g2 b2 0 x3 y3 r3 g3 b3 ] >>
      shfill grestore } BD
/Tm { 3 -1 roll 8 -1 roll 13 -1 roll add add 3 div
      3 -1 roll 7 -1 roll 11 -1 roll add add 3 div
      3 -1 roll 6 -1 roll 9 -1 roll add add 3 div C T } BD
/STsplit {
      4 index 15 index add 0.5 mul
      4 index 15 index add 0.5 mul
      4 index 15 index add 0.5 mul
      4 index 15 index add 0.5 mul
      4 index 15 index add 0.5 mul
      5 copy 5 copy 25 15 roll
      9 index 30 index add 0.5 mul
      9 index 30 index add 0.5 mul
      9 index 30 index add 0.5 mul
      9 index 30 index add 0.5 mul
      9 index 30 index add 0.5 mul
      5 copy 5 copy 35 5 roll 25 5 roll 15 5 roll
      4 index 10 index add 0.5 mul
      4 index 10 index add 0.5 mul
      4 index 10 index add 0.5 mul
      4 index 10 index add 0.5 mul
      4 index 10 index add 0.5 mul
      5 copy 5 copy 40 5 roll 25 5 roll 15 5 roll 25 5 roll
      STnoshfill STnoshfill STnoshfill STnoshfill } BD
/STnoshfill {
      2 index 8 index sub abs rThreshold gt
      { STsplit }
      { 1 index 7 index sub abs gThreshold gt
        { STsplit }
        { dup 6 index sub abs bThreshold gt
          { STsplit }
          { 2 index 13 index sub abs rThreshold gt
            { STsplit }
            { 1 index 12 index sub abs gThreshold gt
              { STsplit }
              { dup 11 index sub abs bThreshold gt
                { STsplit }
                { 7 index 13 index sub abs rThreshold gt
                  { STsplit }
                  { 6 index 12 index sub abs gThreshold gt
                    { STsplit }
                    { 5 index 11 index sub abs bThreshold gt
                      { STsplit }
                      { Tm }
                      ifelse }
                    ifelse }
                  ifelse }
                ifelse }
              ifelse }
            ifelse }
          ifelse }
        ifelse }
      ifelse } BD
tryPS3shading
{ /shfill where
  { /ST { STshfill } BD }
  { /ST { STnoshfill } BD }
  ifelse }
{ /ST { STnoshfill } BD }
ifelse
end
%%EndProlog
%%BeginSetup
/DeviceRGB setcolorspace
gl2psdict begin
%%EndSetup
%%Page: 1 1
%%BeginPageSetup
%%EndPageSetup
mark
gsave
1.0 1.0 scale
1 1 1 C
74.88 400.6 521.28 48.52 74.88 48.52 T
74.88 400.6 521.28 400.6 521.28 48.52 T
0.5 W
[16 0] 0 setdash
0 0 0 C
74.88 48.52 LS
521.28 48.52 LE
74.88 400.6 LS
521.28 400.6 LE
74.88 48.52 LS
74.88 400.6 LE
521.28 48.52 LS
521.28 400.6 LE
74.88 48.52 LS
74.88 52.985 LE
74.88 400.6 LS
74.88 396.135 LE
186.48 48.52 LS
186.48 52.985 LE
186.48 400.6 LS
186.48 396.135 LE
298.08 48.52 LS
298.08 52.985 LE
298.08 400.6 LS
298.08 396.135 LE
409.68 48.52 LS
409.68 52.985 LE
409.68 400.6 LS
409.68 396.135 LE
521.28 48.52 LS
521.28 52.985 LE
521.28 400.6 LS
521.28 396.135 LE
(0) 74.88 43.5189 10 /Helvetica STC
(5) 186.48 43.5189 10 /Helvetica STC
(10) 298.08 43.5189 10 /Helvetica STC
(15) 409.68 43.5189 10 /Helvetica STC
(20) 521.28 43.5189 10 /Helvetica STC
74.88 48.52 LS
79.348 48.52 LE
521.28 48.52 LS
516.812 48.52 LE
74.88 107.2 LS
79.348 107.2 LE
521.28 107.2 LS
516.812 107.2 LE
74.88 165.88 LS
79.348 165.88 LE
521.28 165.88 LS
516.812 165.88 LE
74.88 224.56 LS
79.348 224.56 LE
521.28 224.56 LS
516.812 224.56 LE
74.88 283.24 LS
79.348 283.24 LE
521.28 283.24 LS
516.812 283.24 LE
74.88 341.92 LS
79.348 341.92 LE
521.28 341.92 LS
516.812 341.92 LE
74.88 400.6 LS
79.348 400.6 LE
521.28 400.6 LS
516.812 400.6 LE
(400000) 69.8755 48.52 10 /Helvetica SCR
(600000) 69.8755 107.2 10 /Helvetica SCR
(800000) 69.8755 165.88 10 /Helvetica SCR
(1e+06) 69.8755 224.56 10 /Helvetica SCR
(1.2e+06) 69.8755 283.24 10 /Helvetica SCR
(1.4e+06) 69.8755 341.92 10 /Helvetica SCR
(1.6e+06) 69.8755 400.6 10 /Helvetica SCR
(structuring elements sizes) 298.08 32.5189 14 /Helvetica STC
(Granulometry without normalizing) 90 26.8755 224.56 14 /Helvetica SBCR
2 W
[0 3 1 3 1 3 1 3 1 0] 0 setdash
1 0 0 C
97.2 374.888 LS
119.52 343.65 L
141.84 299.016 L
164.16 285.243 L
186.48 275.382 L
208.8 264.426 L
231.12 257.182 L
253.44 247.871 L
275.76 240.707 L
298.08 235.586 L
320.4 228.827 L
342.72 223.637 L
365.04 218.455 L
387.36 213.804 L
409.68 214.573 LE
[] 0 setdash
94.2 374.888 LS
100.2 374.888 LE
97.2 377.888 LS
97.2 371.888 LE
116.52 343.65 LS
122.52 343.65 LE
119.52 346.65 LS
119.52 340.65 LE
138.84 299.016 LS
144.84 299.016 LE
141.84 302.016 LS
141.84 296.016 LE
161.16 285.243 LS
167.16 285.243 LE
164.16 288.243 LS
164.16 282.243 LE
183.48 275.382 LS
189.48 275.382 LE
186.48 278.382 LS
186.48 272.382 LE
205.8 264.426 LS
211.8 264.426 LE
208.8 267.426 LS
208.8 261.426 LE
228.12 257.182 LS
234.12 257.182 LE
231.12 260.182 LS
231.12 254.182 LE
250.44 247.871 LS
256.44 247.871 LE
253.44 250.871 LS
253.44 244.871 LE
272.76 240.707 LS
278.76 240.707 LE
275.76 243.707 LS
275.76 237.707 LE
295.08 235.586 LS
301.08 235.586 LE
298.08 238.586 LS
298.08 232.586 LE
317.4 228.827 LS
323.4 228.827 LE
320.4 231.827 LS
320.4 225.827 LE
339.72 223.637 LS
345.72 223.637 LE
342.72 226.637 LS
342.72 220.637 LE
362.04 218.455 LS
368.04 218.455 LE
365.04 221.455 LS
365.04 215.455 LE
384.36 213.804 LS
390.36 213.804 LE
387.36 216.804 LS
387.36 210.804 LE
406.68 214.573 LS
412.68 214.573 LE
409.68 217.573 LS
409.68 211.573 LE
[0 3 1 3 1 3 1 3 1 0] 0 setdash
0 1 0 C
97.2 169.439 LS
119.52 157.407 L
141.84 134.677 L
164.16 128.047 L
186.48 128.308 L
208.8 122.324 L
231.12 118.467 L
253.44 116.637 L
275.76 113.805 L
298.08 114.957 L
320.4 112.857 L
342.72 112.887 L
365.04 115.567 L
387.36 113.495 L
409.68 110.992 LE
[] 0 setdash
100.2 169.439 LS
99.627 167.675 L
98.127 166.585 L
96.2729 166.585 L
94.7729 167.675 L
94.2 169.439 L
94.7729 171.202 L
96.2729 172.292 L
98.127 172.292 L
99.627 171.202 L
100.2 169.439 LE
122.52 157.408 LS
121.947 155.644 L
120.447 154.554 L
118.593 154.554 L
117.093 155.644 L
116.52 157.408 L
117.093 159.171 L
118.593 160.261 L
120.447 160.261 L
121.947 159.171 L
122.52 157.408 LE
144.84 134.677 LS
144.267 132.914 L
142.767 131.824 L
140.913 131.824 L
139.413 132.914 L
138.84 134.677 L
139.413 136.441 L
140.913 137.531 L
142.767 137.531 L
144.267 136.441 L
144.84 134.677 LE
167.16 128.047 LS
166.587 126.284 L
165.087 125.194 L
163.233 125.194 L
161.733 126.284 L
161.16 128.047 L
161.733 129.81 L
163.233 130.9 L
165.087 130.9 L
166.587 129.81 L
167.16 128.047 LE
189.48 128.308 LS
188.907 126.545 L
187.407 125.455 L
185.553 125.455 L
184.053 126.545 L
183.48 128.308 L
184.053 130.071 L
185.553 131.161 L
187.407 131.161 L
188.907 130.071 L
189.48 128.308 LE
211.8 122.324 LS
211.227 120.561 L
209.727 119.471 L
207.873 119.471 L
206.373 120.561 L
205.8 122.324 L
206.373 124.088 L
207.873 125.178 L
209.727 125.178 L
211.227 124.088 L
211.8 122.324 LE
234.12 118.467 LS
233.547 116.703 L
232.047 115.613 L
230.193 115.613 L
228.693 116.703 L
228.12 118.467 L
228.693 120.23 L
230.193 121.32 L
232.047 121.32 L
233.547 120.23 L
234.12 118.467 LE
256.44 116.638 LS
255.867 114.874 L
254.367 113.784 L
252.513 113.784 L
251.013 114.874 L
250.44 116.638 L
251.013 118.401 L
252.513 119.491 L
254.367 119.491 L
255.867 118.401 L
256.44 116.638 LE
278.76 113.805 LS
278.187 112.042 L
276.687 110.952 L
274.833 110.952 L
273.333 112.042 L
272.76 113.805 L
273.333 115.569 L
274.833 116.658 L
276.687 116.658 L
278.187 115.569 L
278.76 113.805 LE
301.08 114.957 LS
300.507 113.193 L
299.007 112.103 L
297.153 112.103 L
295.653 113.193 L
295.08 114.957 L
295.653 116.72 L
297.153 117.81 L
299.007 117.81 L
300.507 116.72 L
301.08 114.957 LE
323.4 112.857 LS
322.827 111.093 L
321.327 110.004 L
319.473 110.004 L
317.973 111.093 L
317.4 112.857 L
317.973 114.62 L
319.473 115.71 L
321.327 115.71 L
322.827 114.62 L
323.4 112.857 LE
345.72 112.887 LS
345.147 111.124 L
343.647 110.034 L
341.793 110.034 L
340.293 111.124 L
339.72 112.887 L
340.293 114.65 L
341.793 115.74 L
343.647 115.74 L
345.147 114.65 L
345.72 112.887 LE
368.04 115.567 LS
367.467 113.804 L
365.967 112.714 L
364.113 112.714 L
362.613 113.804 L
362.04 115.567 L
362.613 117.33 L
364.113 118.42 L
365.967 118.42 L
367.467 117.33 L
368.04 115.567 LE
390.36 113.495 LS
389.787 111.732 L
388.287 110.642 L
386.433 110.642 L
384.933 111.732 L
384.36 113.495 L
384.933 115.259 L
386.433 116.349 L
388.287 116.349 L
389.787 115.259 L
390.36 113.495 LE
412.68 110.992 LS
412.107 109.229 L
410.607 108.139 L
408.753 108.139 L
407.253 109.229 L
406.68 110.992 L
407.253 112.756 L
408.753 113.845 L
410.607 113.845 L
412.107 112.756 L
412.68 110.992 LE
[0 3 1 3 1 3 1 3 1 0] 0 setdash
0 0 1 C
97.2 110.91 LS
119.52 102.356 L
141.84 86.4821 L
164.16 81.8376 L
186.48 80.1864 L
208.8 76.7134 L
231.12 74.2943 L
253.44 74.9521 L
275.76 76.6705 L
298.08 76.2313 L
320.4 74.7702 L
342.72 75.1991 L
365.04 75.9904 L
387.36 77.8647 L
409.68 76.5811 LE
99.2 110.91 97.818 109.008 98.818 109.735 T
99.2 110.91 96.582 109.008 97.818 109.008 T
99.2 110.91 95.582 109.735 96.582 109.008 T
99.2 110.91 95.2 110.91 95.582 109.735 T
99.2 110.91 95.582 112.086 95.2 110.91 T
99.2 110.91 96.582 112.812 95.582 112.086 T
99.2 110.91 97.818 112.812 96.582 112.812 T
99.2 110.91 98.818 112.086 97.818 112.812 T
121.52 102.356 120.138 100.454 121.138 101.18 T
121.52 102.356 118.902 100.454 120.138 100.454 T
121.52 102.356 117.902 101.18 118.902 100.454 T
121.52 102.356 117.52 102.356 117.902 101.18 T
121.52 102.356 117.902 103.532 117.52 102.356 T
121.52 102.356 118.902 104.258 117.902 103.532 T
121.52 102.356 120.138 104.258 118.902 104.258 T
121.52 102.356 121.138 103.532 120.138 104.258 T
143.84 86.4821 142.458 84.58 143.458 85.3066 T
143.84 86.4821 141.222 84.58 142.458 84.58 T
143.84 86.4821 140.222 85.3066 141.222 84.58 T
143.84 86.4821 139.84 86.4821 140.222 85.3066 T
143.84 86.4821 140.222 87.6577 139.84 86.4821 T
143.84 86.4821 141.222 88.3843 140.222 87.6577 T
143.84 86.4821 142.458 88.3843 141.222 88.3843 T
143.84 86.4821 143.458 87.6577 142.458 88.3843 T
166.16 81.8376 164.778 79.9355 165.778 80.6621 T
166.16 81.8376 163.542 79.9355 164.778 79.9355 T
166.16 81.8376 162.542 80.6621 163.542 79.9355 T
166.16 81.8376 162.16 81.8376 162.542 80.6621 T
166.16 81.8376 162.542 83.0132 162.16 81.8376 T
166.16 81.8376 163.542 83.7397 162.542 83.0132 T
166.16 81.8376 164.778 83.7397 163.542 83.7397 T
166.16 81.8376 165.778 83.0132 164.778 83.7397 T
188.48 80.1864 187.098 78.2843 188.098 79.0108 T
188.48 80.1864 185.862 78.2843 187.098 78.2843 T
188.48 80.1864 184.862 79.0108 185.862 78.2843 T
188.48 80.1864 184.48 80.1864 184.862 79.0108 T
188.48 80.1864 184.862 81.3619 184.48 80.1864 T
188.48 80.1864 185.862 82.0885 184.862 81.3619 T
188.48 80.1864 187.098 82.0885 185.862 82.0885 T
188.48 80.1864 188.098 81.3619 187.098 82.0885 T
210.8 76.7134 209.418 74.8113 210.418 75.5378 T
210.8 76.7134 208.182 74.8113 209.418 74.8113 T
210.8 76.7134 207.182 75.5378 208.182 74.8113 T
210.8 76.7134 206.8 76.7134 207.182 75.5378 T
210.8 76.7134 207.182 77.8889 206.8 76.7134 T
210.8 76.7134 208.182 78.6155 207.182 77.8889 T
210.8 76.7134 209.418 78.6155 208.182 78.6155 T
210.8 76.7134 210.418 77.8889 209.418 78.6155 T
233.12 74.2943 231.738 72.3922 232.738 73.1187 T
233.12 74.2943 230.502 72.3922 231.738 72.3922 T
233.12 74.2943 229.502 73.1187 230.502 72.3922 T
233.12 74.2943 229.12 74.2943 229.502 73.1187 T
233.12 74.2943 229.502 75.4699 229.12 74.2943 T
233.12 74.2943 230.502 76.1964 229.502 75.4699 T
233.12 74.2943 231.738 76.1964 230.502 76.1964 T
233.12 74.2943 232.738 75.4699 231.738 76.1964 T
255.44 74.9521 254.058 73.05 255.058 73.7766 T
255.44 74.9521 252.822 73.05 254.058 73.05 T
255.44 74.9521 251.822 73.7766 252.822 73.05 T
255.44 74.9521 251.44 74.9521 251.822 73.7766 T
255.44 74.9521 251.822 76.1277 251.44 74.9521 T
255.44 74.9521 252.822 76.8542 251.822 76.1277 T
255.44 74.9521 254.058 76.8542 252.822 76.8542 T
255.44 74.9521 255.058 76.1277 254.058 76.8542 T
277.76 76.6706 276.378 74.7685 277.378 75.495 T
277.76 76.6706 275.142 74.7685 276.378 74.7685 T
277.76 76.6706 274.142 75.495 275.142 74.7685 T
277.76 76.6706 273.76 76.6706 274.142 75.495 T
277.76 76.6706 274.142 77.8461 273.76 76.6706 T
277.76 76.6706 275.142 78.5727 274.142 77.8461 T
277.76 76.6706 276.378 78.5727 275.142 78.5727 T
277.76 76.6706 277.378 77.8461 276.378 78.5727 T
300.08 76.2313 298.698 74.3292 299.698 75.0558 T
300.08 76.2313 297.462 74.3292 298.698 74.3292 T
300.08 76.2313 296.462 75.0558 297.462 74.3292 T
300.08 76.2313 296.08 76.2313 296.462 75.0558 T
300.08 76.2313 296.462 77.4069 296.08 76.2313 T
300.08 76.2313 297.462 78.1334 296.462 77.4069 T
300.08 76.2313 298.698 78.1334 297.462 78.1334 T
300.08 76.2313 299.698 77.4069 298.698 78.1334 T
322.4 74.7702 321.018 72.8681 322.018 73.5947 T
322.4 74.7702 319.782 72.8681 321.018 72.8681 T
322.4 74.7702 318.782 73.5947 319.782 72.8681 T
322.4 74.7702 318.4 74.7702 318.782 73.5947 T
322.4 74.7702 318.782 75.9458 318.4 74.7702 T
322.4 74.7702 319.782 76.6723 318.782 75.9458 T
322.4 74.7702 321.018 76.6723 319.782 76.6723 T
322.4 74.7702 322.018 75.9458 321.018 76.6723 T
344.72 75.1992 343.338 73.297 344.338 74.0236 T
344.72 75.1992 342.102 73.297 343.338 73.297 T
344.72 75.1992 341.102 74.0236 342.102 73.297 T
344.72 75.1992 340.72 75.1992 341.102 74.0236 T
344.72 75.1992 341.102 76.3747 340.72 75.1992 T
344.72 75.1992 342.102 77.1013 341.102 76.3747 T
344.72 75.1992 343.338 77.1013 342.102 77.1013 T
344.72 75.1992 344.338 76.3747 343.338 77.1013 T
367.04 75.9905 365.658 74.0883 366.658 74.8149 T
367.04 75.9905 364.422 74.0883 365.658 74.0883 T
367.04 75.9905 363.422 74.8149 364.422 74.0883 T
367.04 75.9905 363.04 75.9905 363.422 74.8149 T
367.04 75.9905 363.422 77.166 363.04 75.9905 T
367.04 75.9905 364.422 77.8926 363.422 77.166 T
367.04 75.9905 365.658 77.8926 364.422 77.8926 T
367.04 75.9905 366.658 77.166 365.658 77.8926 T
389.36 77.8647 387.978 75.9626 388.978 76.6891 T
389.36 77.8647 386.742 75.9626 387.978 75.9626 T
389.36 77.8647 385.742 76.6891 386.742 75.9626 T
389.36 77.8647 385.36 77.8647 385.742 76.6891 T
389.36 77.8647 385.742 79.0403 385.36 77.8647 T
389.36 77.8647 386.742 79.7668 385.742 79.0403 T
389.36 77.8647 387.978 79.7668 386.742 79.7668 T
389.36 77.8647 388.978 79.0403 387.978 79.7668 T
411.68 76.5811 410.298 74.679 411.298 75.4055 T
411.68 76.5811 409.062 74.679 410.298 74.679 T
411.68 76.5811 408.062 75.4055 409.062 74.679 T
411.68 76.5811 407.68 76.5811 408.062 75.4055 T
411.68 76.5811 408.062 77.7566 407.68 76.5811 T
411.68 76.5811 409.062 78.4832 408.062 77.7566 T
411.68 76.5811 410.298 78.4832 409.062 78.4832 T
411.68 76.5811 411.298 77.7566 410.298 78.4832 T
0 0 0 C
( ) 298.08 410.6 15 /Helvetica SBC
grestore
showpage
cleartomark
%%PageTrailer
%%Trailer
end
%%EOF
