%!PS-Adobe-3.0 EPSF-3.0
%%Title: glps_renderer figure
%%Creator: GL2PS 1.3.8, (C) 1999-2012 C. Geuzaine
%%For: Octave
%%CreationDate: Sun Apr 23 21:30:05 2017
%%LanguageLevel: 3
%%DocumentData: Clean7Bit
%%Pages: 1
%%BoundingBox: 0 0 560 421
%%EndComments
%%BeginProlog
/gl2psdict 64 dict def gl2psdict begin
0 setlinecap 0 setlinejoin
/tryPS3shading false def % set to false to force subdivision
/rThreshold 0.064 def % red component subdivision threshold
/gThreshold 0.034 def % green component subdivision threshold
/bThreshold 0.1 def % blue component subdivision threshold
/BD { bind def } bind def
/C  { setrgbcolor } BD
/G  { 0.082 mul exch 0.6094 mul add exch 0.3086 mul add neg 1.0 add setgray } BD
/W  { setlinewidth } BD
/FC { findfont exch /SH exch def SH scalefont setfont } BD
/SW { dup stringwidth pop } BD
/S  { FC moveto show } BD
/SBC{ FC moveto SW -2 div 0 rmoveto show } BD
/SBR{ FC moveto SW neg 0 rmoveto show } BD
/SCL{ FC moveto 0 SH -2 div rmoveto show } BD
/SCC{ FC moveto SW -2 div SH -2 div rmoveto show } BD
/SCR{ FC moveto SW neg SH -2 div rmoveto show } BD
/STL{ FC moveto 0 SH neg rmoveto show } BD
/STC{ FC moveto SW -2 div SH neg rmoveto show } BD
/STR{ FC moveto SW neg SH neg rmoveto show } BD
/FCT { FC translate 0 0 } BD
/SR  { gsave FCT moveto rotate show grestore } BD
/SBCR{ gsave FCT moveto rotate SW -2 div 0 rmoveto show grestore } BD
/SBRR{ gsave FCT moveto rotate SW neg 0 rmoveto show grestore } BD
/SCLR{ gsave FCT moveto rotate 0 SH -2 div rmoveto show grestore} BD
/SCCR{ gsave FCT moveto rotate SW -2 div SH -2 div rmoveto show grestore} BD
/SCRR{ gsave FCT moveto rotate SW neg SH -2 div rmoveto show grestore} BD
/STLR{ gsave FCT moveto rotate 0 SH neg rmoveto show grestore } BD
/STCR{ gsave FCT moveto rotate SW -2 div SH neg rmoveto show grestore } BD
/STRR{ gsave FCT moveto rotate SW neg SH neg rmoveto show grestore } BD
/P  { newpath 0.0 360.0 arc closepath fill } BD
/LS { newpath moveto } BD
/L  { lineto } BD
/LE { lineto stroke } BD
/T  { newpath moveto lineto lineto closepath fill } BD
/STshfill {
      /b1 exch def /g1 exch def /r1 exch def /y1 exch def /x1 exch def
      /b2 exch def /g2 exch def /r2 exch def /y2 exch def /x2 exch def
      /b3 exch def /g3 exch def /r3 exch def /y3 exch def /x3 exch def
      gsave << /ShadingType 4 /ColorSpace [/DeviceRGB]
      /DataSource [ 0 x1 y1 r1 g1 b1 0 x2 y2 r2 g2 b2 0 x3 y3 r3 g3 b3 ] >>
      shfill grestore } BD
/Tm { 3 -1 roll 8 -1 roll 13 -1 roll add add 3 div
      3 -1 roll 7 -1 roll 11 -1 roll add add 3 div
      3 -1 roll 6 -1 roll 9 -1 roll add add 3 div C T } BD
/STsplit {
      4 index 15 index add 0.5 mul
      4 index 15 index add 0.5 mul
      4 index 15 index add 0.5 mul
      4 index 15 index add 0.5 mul
      4 index 15 index add 0.5 mul
      5 copy 5 copy 25 15 roll
      9 index 30 index add 0.5 mul
      9 index 30 index add 0.5 mul
      9 index 30 index add 0.5 mul
      9 index 30 index add 0.5 mul
      9 index 30 index add 0.5 mul
      5 copy 5 copy 35 5 roll 25 5 roll 15 5 roll
      4 index 10 index add 0.5 mul
      4 index 10 index add 0.5 mul
      4 index 10 index add 0.5 mul
      4 index 10 index add 0.5 mul
      4 index 10 index add 0.5 mul
      5 copy 5 copy 40 5 roll 25 5 roll 15 5 roll 25 5 roll
      STnoshfill STnoshfill STnoshfill STnoshfill } BD
/STnoshfill {
      2 index 8 index sub abs rThreshold gt
      { STsplit }
      { 1 index 7 index sub abs gThreshold gt
        { STsplit }
        { dup 6 index sub abs bThreshold gt
          { STsplit }
          { 2 index 13 index sub abs rThreshold gt
            { STsplit }
            { 1 index 12 index sub abs gThreshold gt
              { STsplit }
              { dup 11 index sub abs bThreshold gt
                { STsplit }
                { 7 index 13 index sub abs rThreshold gt
                  { STsplit }
                  { 6 index 12 index sub abs gThreshold gt
                    { STsplit }
                    { 5 index 11 index sub abs bThreshold gt
                      { STsplit }
                      { Tm }
                      ifelse }
                    ifelse }
                  ifelse }
                ifelse }
              ifelse }
            ifelse }
          ifelse }
        ifelse }
      ifelse } BD
tryPS3shading
{ /shfill where
  { /ST { STshfill } BD }
  { /ST { STnoshfill } BD }
  ifelse }
{ /ST { STnoshfill } BD }
ifelse
end
%%EndProlog
%%BeginSetup
/DeviceRGB setcolorspace
gl2psdict begin
%%EndSetup
%%Page: 1 1
%%BeginPageSetup
%%EndPageSetup
mark
gsave
1.0 1.0 scale
1 1 1 C
72.8 389.425 506.8 46.31 72.8 46.31 T
72.8 389.425 506.8 389.425 506.8 46.31 T
0.5 W
[16 0] 0 setdash
0 0 0 C
72.8 46.31 LS
506.8 46.31 LE
72.8 389.425 LS
506.8 389.425 LE
72.8 46.31 LS
72.8 389.425 LE
506.8 46.31 LS
506.8 389.425 LE
72.8 46.31 LS
72.8 50.6514 LE
72.8 389.425 LS
72.8 385.083 LE
181.3 46.31 LS
181.3 50.6514 LE
181.3 389.425 LS
181.3 385.083 LE
289.8 46.31 LS
289.8 50.6514 LE
289.8 389.425 LS
289.8 385.083 LE
398.3 46.31 LS
398.3 50.6514 LE
398.3 389.425 LS
398.3 385.083 LE
506.8 46.31 LS
506.8 50.6514 LE
506.8 389.425 LS
506.8 385.083 LE
(0) 72.8 41.3083 10 /Helvetica STC
(5) 181.3 41.3083 10 /Helvetica STC
(10) 289.8 41.3083 10 /Helvetica STC
(15) 398.3 41.3083 10 /Helvetica STC
(20) 506.8 41.3083 10 /Helvetica STC
72.8 46.31 LS
77.14 46.31 LE
506.8 46.31 LS
502.46 46.31 LE
72.8 103.496 LS
77.14 103.496 LE
506.8 103.496 LS
502.46 103.496 LE
72.8 160.682 LS
77.14 160.682 LE
506.8 160.682 LS
502.46 160.682 LE
72.8 217.867 LS
77.14 217.867 LE
506.8 217.867 LS
502.46 217.867 LE
72.8 275.053 LS
77.14 275.053 LE
506.8 275.053 LS
502.46 275.053 LE
72.8 332.239 LS
77.14 332.239 LE
506.8 332.239 LS
502.46 332.239 LE
72.8 389.425 LS
77.14 389.425 LE
506.8 389.425 LS
502.46 389.425 LE
(0.8) 67.8 46.31 10 /Helvetica SCR
(0.85) 67.8 103.496 10 /Helvetica SCR
(0.9) 67.8 160.682 10 /Helvetica SCR
(0.95) 67.8 217.867 10 /Helvetica SCR
(1) 67.8 275.053 10 /Helvetica SCR
(1.05) 67.8 332.239 10 /Helvetica SCR
(1.1) 67.8 389.425 10 /Helvetica SCR
(orientations x distances ) 289.8 30.3083 14 /Helvetica STC
(Morphological Covariance ) 90 42.8 217.867 14 /Helvetica SBCR
2 W
[0 3 1 3 1 3 1 3 1 0] 0 setdash
1 0 0 C
94.5 275.053 LS
116.2 173.829 L
137.9 132.182 L
159.6 115.234 L
181.3 78.386 L
203 156.726 L
224.7 129.723 L
246.4 106.243 L
268.1 95.1572 L
289.8 169.581 L
311.5 185.409 L
333.2 142.243 L
354.9 176.282 L
376.6 125.769 L
398.3 103.852 L
420 76.6247 L
441.7 57.8018 LE
[] 0 setdash
91.5 275.053 LS
97.5 275.053 LE
94.5 278.053 LS
94.5 272.053 LE
113.2 173.829 LS
119.2 173.829 LE
116.2 176.829 LS
116.2 170.829 LE
134.9 132.182 LS
140.9 132.182 LE
137.9 135.182 LS
137.9 129.182 LE
156.6 115.234 LS
162.6 115.234 LE
159.6 118.234 LS
159.6 112.234 LE
178.3 78.3861 LS
184.3 78.3861 LE
181.3 81.3861 LS
181.3 75.3861 LE
200 156.726 LS
206 156.726 LE
203 159.726 LS
203 153.726 LE
221.7 129.723 LS
227.7 129.723 LE
224.7 132.723 LS
224.7 126.723 LE
243.4 106.243 LS
249.4 106.243 LE
246.4 109.243 LS
246.4 103.243 LE
265.1 95.1573 LS
271.1 95.1573 LE
268.1 98.1573 LS
268.1 92.1573 LE
286.8 169.581 LS
292.8 169.581 LE
289.8 172.581 LS
289.8 166.581 LE
308.5 185.409 LS
314.5 185.409 LE
311.5 188.409 LS
311.5 182.409 LE
330.2 142.243 LS
336.2 142.243 LE
333.2 145.243 LS
333.2 139.243 LE
351.9 176.282 LS
357.9 176.282 LE
354.9 179.282 LS
354.9 173.282 LE
373.6 125.769 LS
379.6 125.769 LE
376.6 128.769 LS
376.6 122.769 LE
395.3 103.853 LS
401.3 103.853 LE
398.3 106.853 LS
398.3 100.853 LE
417 76.6248 LS
423 76.6248 LE
420 79.6248 LS
420 73.6248 LE
438.7 57.8019 LS
444.7 57.8019 LE
441.7 60.8019 LS
441.7 54.8019 LE
[0 3 1 3 1 3 1 3 1 0] 0 setdash
0 1 0 C
94.5 275.053 LS
116.2 171.193 L
137.9 201.504 L
159.6 200.733 L
181.3 180.983 L
203 173.791 L
224.7 203.612 L
246.4 205.729 L
268.1 195.047 L
289.8 232.304 L
311.5 218.888 L
333.2 220.073 L
354.9 216.546 L
376.6 173.714 L
398.3 195.702 L
420 192.869 L
441.7 176.759 LE
[] 0 setdash
97.5 275.053 LS
96.927 273.29 L
95.427 272.2 L
93.5729 272.2 L
92.0729 273.29 L
91.5 275.053 L
92.0729 276.817 L
93.5729 277.906 L
95.427 277.906 L
96.927 276.817 L
97.5 275.053 LE
119.2 171.193 LS
118.627 169.43 L
117.127 168.34 L
115.273 168.34 L
113.773 169.43 L
113.2 171.193 L
113.773 172.956 L
115.273 174.046 L
117.127 174.046 L
118.627 172.956 L
119.2 171.193 LE
140.9 201.504 LS
140.327 199.74 L
138.827 198.651 L
136.973 198.651 L
135.473 199.74 L
134.9 201.504 L
135.473 203.267 L
136.973 204.357 L
138.827 204.357 L
140.327 203.267 L
140.9 201.504 LE
162.6 200.733 LS
162.027 198.97 L
160.527 197.88 L
158.673 197.88 L
157.173 198.97 L
156.6 200.733 L
157.173 202.497 L
158.673 203.587 L
160.527 203.587 L
162.027 202.497 L
162.6 200.733 LE
184.3 180.983 LS
183.727 179.22 L
182.227 178.13 L
180.373 178.13 L
178.873 179.22 L
178.3 180.983 L
178.873 182.747 L
180.373 183.837 L
182.227 183.837 L
183.727 182.747 L
184.3 180.983 LE
206 173.791 LS
205.427 172.028 L
203.927 170.938 L
202.073 170.938 L
200.573 172.028 L
200 173.791 L
200.573 175.555 L
202.073 176.644 L
203.927 176.644 L
205.427 175.555 L
206 173.791 LE
227.7 203.612 LS
227.127 201.849 L
225.627 200.759 L
223.773 200.759 L
222.273 201.849 L
221.7 203.612 L
222.273 205.375 L
223.773 206.465 L
225.627 206.465 L
227.127 205.375 L
227.7 203.612 LE
249.4 205.729 LS
248.827 203.965 L
247.327 202.875 L
245.473 202.875 L
243.973 203.965 L
243.4 205.729 L
243.973 207.492 L
245.473 208.582 L
247.327 208.582 L
248.827 207.492 L
249.4 205.729 LE
271.1 195.047 LS
270.527 193.283 L
269.027 192.194 L
267.173 192.194 L
265.673 193.283 L
265.1 195.047 L
265.673 196.81 L
267.173 197.9 L
269.027 197.9 L
270.527 196.81 L
271.1 195.047 LE
292.8 232.305 LS
292.227 230.541 L
290.727 229.451 L
288.873 229.451 L
287.373 230.541 L
286.8 232.305 L
287.373 234.068 L
288.873 235.158 L
290.727 235.158 L
292.227 234.068 L
292.8 232.305 LE
314.5 218.888 LS
313.927 217.124 L
312.427 216.035 L
310.573 216.035 L
309.073 217.124 L
308.5 218.888 L
309.073 220.651 L
310.573 221.741 L
312.427 221.741 L
313.927 220.651 L
314.5 218.888 LE
336.2 220.074 LS
335.627 218.31 L
334.127 217.22 L
332.273 217.22 L
330.773 218.31 L
330.2 220.074 L
330.773 221.837 L
332.273 222.927 L
334.127 222.927 L
335.627 221.837 L
336.2 220.074 LE
357.9 216.546 LS
357.327 214.782 L
355.827 213.693 L
353.973 213.693 L
352.473 214.782 L
351.9 216.546 L
352.473 218.309 L
353.973 219.399 L
355.827 219.399 L
357.327 218.309 L
357.9 216.546 LE
379.6 173.714 LS
379.027 171.951 L
377.527 170.861 L
375.673 170.861 L
374.173 171.951 L
373.6 173.714 L
374.173 175.477 L
375.673 176.567 L
377.527 176.567 L
379.027 175.477 L
379.6 173.714 LE
401.3 195.702 LS
400.727 193.938 L
399.227 192.848 L
397.373 192.848 L
395.873 193.938 L
395.3 195.702 L
395.873 197.465 L
397.373 198.555 L
399.227 198.555 L
400.727 197.465 L
401.3 195.702 LE
423 192.869 LS
422.427 191.106 L
420.927 190.016 L
419.073 190.016 L
417.573 191.106 L
417 192.869 L
417.573 194.633 L
419.073 195.723 L
420.927 195.723 L
422.427 194.633 L
423 192.869 LE
444.7 176.759 LS
444.127 174.995 L
442.627 173.905 L
440.773 173.905 L
439.273 174.995 L
438.7 176.759 L
439.273 178.522 L
440.773 179.612 L
442.627 179.612 L
444.127 178.522 L
444.7 176.759 LE
[0 3 1 3 1 3 1 3 1 0] 0 setdash
0 0 1 C
94.5 275.053 LS
116.2 196.25 L
137.9 275.147 L
159.6 311.341 L
181.3 333.665 L
203 204.373 L
224.7 278.268 L
246.4 321.187 L
268.1 336.129 L
289.8 250.107 L
311.5 246.177 L
333.2 262.146 L
354.9 251.678 L
376.6 214.762 L
398.3 298.309 L
420 334.847 L
441.7 342.926 LE
96.5 275.053 95.118 273.151 96.118 273.878 T
96.5 275.053 93.882 273.151 95.118 273.151 T
96.5 275.053 92.882 273.878 93.882 273.151 T
96.5 275.053 92.5 275.053 92.882 273.878 T
96.5 275.053 92.882 276.229 92.5 275.053 T
96.5 275.053 93.882 276.955 92.882 276.229 T
96.5 275.053 95.118 276.955 93.882 276.955 T
96.5 275.053 96.118 276.229 95.118 276.955 T
118.2 196.25 116.818 194.348 117.818 195.074 T
118.2 196.25 115.582 194.348 116.818 194.348 T
118.2 196.25 114.582 195.074 115.582 194.348 T
118.2 196.25 114.2 196.25 114.582 195.074 T
118.2 196.25 114.582 197.426 114.2 196.25 T
118.2 196.25 115.582 198.152 114.582 197.426 T
118.2 196.25 116.818 198.152 115.582 198.152 T
118.2 196.25 117.818 197.426 116.818 198.152 T
139.9 275.147 138.518 273.245 139.518 273.971 T
139.9 275.147 137.282 273.245 138.518 273.245 T
139.9 275.147 136.282 273.971 137.282 273.245 T
139.9 275.147 135.9 275.147 136.282 273.971 T
139.9 275.147 136.282 276.322 135.9 275.147 T
139.9 275.147 137.282 277.049 136.282 276.322 T
139.9 275.147 138.518 277.049 137.282 277.049 T
139.9 275.147 139.518 276.322 138.518 277.049 T
161.6 311.341 160.218 309.439 161.218 310.166 T
161.6 311.341 158.982 309.439 160.218 309.439 T
161.6 311.341 157.982 310.166 158.982 309.439 T
161.6 311.341 157.6 311.341 157.982 310.166 T
161.6 311.341 157.982 312.517 157.6 311.341 T
161.6 311.341 158.982 313.243 157.982 312.517 T
161.6 311.341 160.218 313.243 158.982 313.243 T
161.6 311.341 161.218 312.517 160.218 313.243 T
183.3 333.665 181.918 331.763 182.918 332.489 T
183.3 333.665 180.682 331.763 181.918 331.763 T
183.3 333.665 179.682 332.489 180.682 331.763 T
183.3 333.665 179.3 333.665 179.682 332.489 T
183.3 333.665 179.682 334.84 179.3 333.665 T
183.3 333.665 180.682 335.567 179.682 334.84 T
183.3 333.665 181.918 335.567 180.682 335.567 T
183.3 333.665 182.918 334.84 181.918 335.567 T
205 204.373 203.618 202.47 204.618 203.197 T
205 204.373 202.382 202.47 203.618 202.47 T
205 204.373 201.382 203.197 202.382 202.47 T
205 204.373 201 204.373 201.382 203.197 T
205 204.373 201.382 205.548 201 204.373 T
205 204.373 202.382 206.275 201.382 205.548 T
205 204.373 203.618 206.275 202.382 206.275 T
205 204.373 204.618 205.548 203.618 206.275 T
226.7 278.268 225.318 276.366 226.318 277.092 T
226.7 278.268 224.082 276.366 225.318 276.366 T
226.7 278.268 223.082 277.092 224.082 276.366 T
226.7 278.268 222.7 278.268 223.082 277.092 T
226.7 278.268 223.082 279.444 222.7 278.268 T
226.7 278.268 224.082 280.17 223.082 279.444 T
226.7 278.268 225.318 280.17 224.082 280.17 T
226.7 278.268 226.318 279.444 225.318 280.17 T
248.4 321.187 247.018 319.285 248.018 320.011 T
248.4 321.187 245.782 319.285 247.018 319.285 T
248.4 321.187 244.782 320.011 245.782 319.285 T
248.4 321.187 244.4 321.187 244.782 320.011 T
248.4 321.187 244.782 322.362 244.4 321.187 T
248.4 321.187 245.782 323.089 244.782 322.362 T
248.4 321.187 247.018 323.089 245.782 323.089 T
248.4 321.187 248.018 322.362 247.018 323.089 T
270.1 336.129 268.718 334.227 269.718 334.954 T
270.1 336.129 267.482 334.227 268.718 334.227 T
270.1 336.129 266.482 334.954 267.482 334.227 T
270.1 336.129 266.1 336.129 266.482 334.954 T
270.1 336.129 266.482 337.305 266.1 336.129 T
270.1 336.129 267.482 338.031 266.482 337.305 T
270.1 336.129 268.718 338.031 267.482 338.031 T
270.1 336.129 269.718 337.305 268.718 338.031 T
291.8 250.107 290.418 248.205 291.418 248.931 T
291.8 250.107 289.182 248.205 290.418 248.205 T
291.8 250.107 288.182 248.931 289.182 248.205 T
291.8 250.107 287.8 250.107 288.182 248.931 T
291.8 250.107 288.182 251.282 287.8 250.107 T
291.8 250.107 289.182 252.009 288.182 251.282 T
291.8 250.107 290.418 252.009 289.182 252.009 T
291.8 250.107 291.418 251.282 290.418 252.009 T
313.5 246.177 312.118 244.275 313.118 245.001 T
313.5 246.177 310.882 244.275 312.118 244.275 T
313.5 246.177 309.882 245.001 310.882 244.275 T
313.5 246.177 309.5 246.177 309.882 245.001 T
313.5 246.177 309.882 247.353 309.5 246.177 T
313.5 246.177 310.882 248.079 309.882 247.353 T
313.5 246.177 312.118 248.079 310.882 248.079 T
313.5 246.177 313.118 247.353 312.118 248.079 T
335.2 262.146 333.818 260.244 334.818 260.97 T
335.2 262.146 332.582 260.244 333.818 260.244 T
335.2 262.146 331.582 260.97 332.582 260.244 T
335.2 262.146 331.2 262.146 331.582 260.97 T
335.2 262.146 331.582 263.322 331.2 262.146 T
335.2 262.146 332.582 264.048 331.582 263.322 T
335.2 262.146 333.818 264.048 332.582 264.048 T
335.2 262.146 334.818 263.322 333.818 264.048 T
356.9 251.679 355.518 249.776 356.518 250.503 T
356.9 251.679 354.282 249.776 355.518 249.776 T
356.9 251.679 353.282 250.503 354.282 249.776 T
356.9 251.679 352.9 251.679 353.282 250.503 T
356.9 251.679 353.282 252.854 352.9 251.679 T
356.9 251.679 354.282 253.581 353.282 252.854 T
356.9 251.679 355.518 253.581 354.282 253.581 T
356.9 251.679 356.518 252.854 355.518 253.581 T
378.6 214.762 377.218 212.859 378.218 213.586 T
378.6 214.762 375.982 212.859 377.218 212.859 T
378.6 214.762 374.982 213.586 375.982 212.859 T
378.6 214.762 374.6 214.762 374.982 213.586 T
378.6 214.762 374.982 215.937 374.6 214.762 T
378.6 214.762 375.982 216.664 374.982 215.937 T
378.6 214.762 377.218 216.664 375.982 216.664 T
378.6 214.762 378.218 215.937 377.218 216.664 T
400.3 298.309 398.918 296.407 399.918 297.133 T
400.3 298.309 397.682 296.407 398.918 296.407 T
400.3 298.309 396.682 297.133 397.682 296.407 T
400.3 298.309 396.3 298.309 396.682 297.133 T
400.3 298.309 396.682 299.484 396.3 298.309 T
400.3 298.309 397.682 300.211 396.682 299.484 T
400.3 298.309 398.918 300.211 397.682 300.211 T
400.3 298.309 399.918 299.484 398.918 300.211 T
422 334.847 420.618 332.944 421.618 333.671 T
422 334.847 419.382 332.944 420.618 332.944 T
422 334.847 418.382 333.671 419.382 332.944 T
422 334.847 418 334.847 418.382 333.671 T
422 334.847 418.382 336.022 418 334.847 T
422 334.847 419.382 336.749 418.382 336.022 T
422 334.847 420.618 336.749 419.382 336.749 T
422 334.847 421.618 336.022 420.618 336.749 T
443.7 342.926 442.318 341.024 443.318 341.751 T
443.7 342.926 441.082 341.024 442.318 341.024 T
443.7 342.926 440.082 341.751 441.082 341.024 T
443.7 342.926 439.7 342.926 440.082 341.751 T
443.7 342.926 440.082 344.102 439.7 342.926 T
443.7 342.926 441.082 344.828 440.082 344.102 T
443.7 342.926 442.318 344.828 441.082 344.828 T
443.7 342.926 443.318 344.102 442.318 344.828 T
grestore
showpage
cleartomark
%%PageTrailer
%%Trailer
end
%%EOF
