%!PS-Adobe-3.0 EPSF-3.0
%%Title: glps_renderer figure
%%Creator: GL2PS 1.3.8, (C) 1999-2012 C. Geuzaine
%%For: Octave
%%CreationDate: Sun Apr 23 21:30:05 2017
%%LanguageLevel: 3
%%DocumentData: Clean7Bit
%%Pages: 1
%%BoundingBox: 0 0 576 433
%%EndComments
%%BeginProlog
/gl2psdict 64 dict def gl2psdict begin
0 setlinecap 0 setlinejoin
/tryPS3shading false def % set to false to force subdivision
/rThreshold 0.064 def % red component subdivision threshold
/gThreshold 0.034 def % green component subdivision threshold
/bThreshold 0.1 def % blue component subdivision threshold
/BD { bind def } bind def
/C  { setrgbcolor } BD
/G  { 0.082 mul exch 0.6094 mul add exch 0.3086 mul add neg 1.0 add setgray } BD
/W  { setlinewidth } BD
/FC { findfont exch /SH exch def SH scalefont setfont } BD
/SW { dup stringwidth pop } BD
/S  { FC moveto show } BD
/SBC{ FC moveto SW -2 div 0 rmoveto show } BD
/SBR{ FC moveto SW neg 0 rmoveto show } BD
/SCL{ FC moveto 0 SH -2 div rmoveto show } BD
/SCC{ FC moveto SW -2 div SH -2 div rmoveto show } BD
/SCR{ FC moveto SW neg SH -2 div rmoveto show } BD
/STL{ FC moveto 0 SH neg rmoveto show } BD
/STC{ FC moveto SW -2 div SH neg rmoveto show } BD
/STR{ FC moveto SW neg SH neg rmoveto show } BD
/FCT { FC translate 0 0 } BD
/SR  { gsave FCT moveto rotate show grestore } BD
/SBCR{ gsave FCT moveto rotate SW -2 div 0 rmoveto show grestore } BD
/SBRR{ gsave FCT moveto rotate SW neg 0 rmoveto show grestore } BD
/SCLR{ gsave FCT moveto rotate 0 SH -2 div rmoveto show grestore} BD
/SCCR{ gsave FCT moveto rotate SW -2 div SH -2 div rmoveto show grestore} BD
/SCRR{ gsave FCT moveto rotate SW neg SH -2 div rmoveto show grestore} BD
/STLR{ gsave FCT moveto rotate 0 SH neg rmoveto show grestore } BD
/STCR{ gsave FCT moveto rotate SW -2 div SH neg rmoveto show grestore } BD
/STRR{ gsave FCT moveto rotate SW neg SH neg rmoveto show grestore } BD
/P  { newpath 0.0 360.0 arc closepath fill } BD
/LS { newpath moveto } BD
/L  { lineto } BD
/LE { lineto stroke } BD
/T  { newpath moveto lineto lineto closepath fill } BD
/STshfill {
      /b1 exch def /g1 exch def /r1 exch def /y1 exch def /x1 exch def
      /b2 exch def /g2 exch def /r2 exch def /y2 exch def /x2 exch def
      /b3 exch def /g3 exch def /r3 exch def /y3 exch def /x3 exch def
      gsave << /ShadingType 4 /ColorSpace [/DeviceRGB]
      /DataSource [ 0 x1 y1 r1 g1 b1 0 x2 y2 r2 g2 b2 0 x3 y3 r3 g3 b3 ] >>
      shfill grestore } BD
/Tm { 3 -1 roll 8 -1 roll 13 -1 roll add add 3 div
      3 -1 roll 7 -1 roll 11 -1 roll add add 3 div
      3 -1 roll 6 -1 roll 9 -1 roll add add 3 div C T } BD
/STsplit {
      4 index 15 index add 0.5 mul
      4 index 15 index add 0.5 mul
      4 index 15 index add 0.5 mul
      4 index 15 index add 0.5 mul
      4 index 15 index add 0.5 mul
      5 copy 5 copy 25 15 roll
      9 index 30 index add 0.5 mul
      9 index 30 index add 0.5 mul
      9 index 30 index add 0.5 mul
      9 index 30 index add 0.5 mul
      9 index 30 index add 0.5 mul
      5 copy 5 copy 35 5 roll 25 5 roll 15 5 roll
      4 index 10 index add 0.5 mul
      4 index 10 index add 0.5 mul
      4 index 10 index add 0.5 mul
      4 index 10 index add 0.5 mul
      4 index 10 index add 0.5 mul
      5 copy 5 copy 40 5 roll 25 5 roll 15 5 roll 25 5 roll
      STnoshfill STnoshfill STnoshfill STnoshfill } BD
/STnoshfill {
      2 index 8 index sub abs rThreshold gt
      { STsplit }
      { 1 index 7 index sub abs gThreshold gt
        { STsplit }
        { dup 6 index sub abs bThreshold gt
          { STsplit }
          { 2 index 13 index sub abs rThreshold gt
            { STsplit }
            { 1 index 12 index sub abs gThreshold gt
              { STsplit }
              { dup 11 index sub abs bThreshold gt
                { STsplit }
                { 7 index 13 index sub abs rThreshold gt
                  { STsplit }
                  { 6 index 12 index sub abs gThreshold gt
                    { STsplit }
                    { 5 index 11 index sub abs bThreshold gt
                      { STsplit }
                      { Tm }
                      ifelse }
                    ifelse }
                  ifelse }
                ifelse }
              ifelse }
            ifelse }
          ifelse }
        ifelse }
      ifelse } BD
tryPS3shading
{ /shfill where
  { /ST { STshfill } BD }
  { /ST { STnoshfill } BD }
  ifelse }
{ /ST { STnoshfill } BD }
ifelse
end
%%EndProlog
%%BeginSetup
/DeviceRGB setcolorspace
gl2psdict begin
%%EndSetup
%%Page: 1 1
%%BeginPageSetup
%%EndPageSetup
mark
gsave
1.0 1.0 scale
1 1 1 C
74.88 400.6 521.28 48.52 74.88 48.52 T
74.88 400.6 521.28 400.6 521.28 48.52 T
0.5 W
[16 0] 0 setdash
0 0 0 C
74.88 48.52 LS
521.28 48.52 LE
74.88 400.6 LS
521.28 400.6 LE
74.88 48.52 LS
74.88 400.6 LE
521.28 48.52 LS
521.28 400.6 LE
74.88 48.52 LS
74.88 52.985 LE
74.88 400.6 LS
74.88 396.135 LE
186.48 48.52 LS
186.48 52.985 LE
186.48 400.6 LS
186.48 396.135 LE
298.08 48.52 LS
298.08 52.985 LE
298.08 400.6 LS
298.08 396.135 LE
409.68 48.52 LS
409.68 52.985 LE
409.68 400.6 LS
409.68 396.135 LE
521.28 48.52 LS
521.28 52.985 LE
521.28 400.6 LS
521.28 396.135 LE
(0) 74.88 43.5189 10 /Helvetica STC
(5) 186.48 43.5189 10 /Helvetica STC
(10) 298.08 43.5189 10 /Helvetica STC
(15) 409.68 43.5189 10 /Helvetica STC
(20) 521.28 43.5189 10 /Helvetica STC
74.88 48.52 LS
79.348 48.52 LE
521.28 48.52 LS
516.812 48.52 LE
74.88 107.2 LS
79.348 107.2 LE
521.28 107.2 LS
516.812 107.2 LE
74.88 165.88 LS
79.348 165.88 LE
521.28 165.88 LS
516.812 165.88 LE
74.88 224.56 LS
79.348 224.56 LE
521.28 224.56 LS
516.812 224.56 LE
74.88 283.24 LS
79.348 283.24 LE
521.28 283.24 LS
516.812 283.24 LE
74.88 341.92 LS
79.348 341.92 LE
521.28 341.92 LS
516.812 341.92 LE
74.88 400.6 LS
79.348 400.6 LE
521.28 400.6 LS
516.812 400.6 LE
(400000) 69.8755 48.52 10 /Helvetica SCR
(600000) 69.8755 107.2 10 /Helvetica SCR
(800000) 69.8755 165.88 10 /Helvetica SCR
(1e+06) 69.8755 224.56 10 /Helvetica SCR
(1.2e+06) 69.8755 283.24 10 /Helvetica SCR
(1.4e+06) 69.8755 341.92 10 /Helvetica SCR
(1.6e+06) 69.8755 400.6 10 /Helvetica SCR
(orientations x distances ) 298.08 32.5189 14 /Helvetica STC
(Morphological Covariance without normalizing ) 90 26.8755 224.56 14 /Helvetica SBCR
2 W
[0 3 1 3 1 3 1 3 1 0] 0 setdash
1 0 0 C
97.2 374.888 LS
119.52 335.616 L
141.84 319.458 L
164.16 312.883 L
186.48 298.587 L
208.8 328.98 L
231.12 318.504 L
253.44 309.395 L
275.76 305.094 L
298.08 333.968 L
320.4 340.109 L
342.72 323.362 L
365.04 336.568 L
387.36 316.97 L
409.68 308.467 L
432 297.904 L
454.32 290.601 LE
[] 0 setdash
94.2 374.888 LS
100.2 374.888 LE
97.2 377.888 LS
97.2 371.888 LE
116.52 335.616 LS
122.52 335.616 LE
119.52 338.616 LS
119.52 332.616 LE
138.84 319.458 LS
144.84 319.458 LE
141.84 322.458 LS
141.84 316.458 LE
161.16 312.883 LS
167.16 312.883 LE
164.16 315.883 LS
164.16 309.883 LE
183.48 298.587 LS
189.48 298.587 LE
186.48 301.587 LS
186.48 295.587 LE
205.8 328.98 LS
211.8 328.98 LE
208.8 331.98 LS
208.8 325.98 LE
228.12 318.504 LS
234.12 318.504 LE
231.12 321.504 LS
231.12 315.504 LE
250.44 309.395 LS
256.44 309.395 LE
253.44 312.395 LS
253.44 306.395 LE
272.76 305.094 LS
278.76 305.094 LE
275.76 308.094 LS
275.76 302.094 LE
295.08 333.968 LS
301.08 333.968 LE
298.08 336.968 LS
298.08 330.968 LE
317.4 340.109 LS
323.4 340.109 LE
320.4 343.109 LS
320.4 337.109 LE
339.72 323.362 LS
345.72 323.362 LE
342.72 326.362 LS
342.72 320.362 LE
362.04 336.568 LS
368.04 336.568 LE
365.04 339.568 LS
365.04 333.568 LE
384.36 316.97 LS
390.36 316.97 LE
387.36 319.97 LS
387.36 313.97 LE
406.68 308.467 LS
412.68 308.467 LE
409.68 311.467 LS
409.68 305.467 LE
429 297.904 LS
435 297.904 LE
432 300.904 LS
432 294.904 LE
451.32 290.601 LS
457.32 290.601 LE
454.32 293.601 LS
454.32 287.601 LE
[0 3 1 3 1 3 1 3 1 0] 0 setdash
0 1 0 C
97.2 169.439 LS
119.52 147.801 L
141.84 154.116 L
164.16 153.955 L
186.48 149.84 L
208.8 148.342 L
231.12 154.555 L
253.44 154.996 L
275.76 152.77 L
298.08 160.532 L
320.4 157.737 L
342.72 157.984 L
365.04 157.249 L
387.36 148.326 L
409.68 152.907 L
432 152.317 L
454.32 148.96 LE
[] 0 setdash
100.2 169.439 LS
99.627 167.675 L
98.127 166.585 L
96.2729 166.585 L
94.7729 167.675 L
94.2 169.439 L
94.7729 171.202 L
96.2729 172.292 L
98.127 172.292 L
99.627 171.202 L
100.2 169.439 LE
122.52 147.801 LS
121.947 146.037 L
120.447 144.948 L
118.593 144.948 L
117.093 146.037 L
116.52 147.801 L
117.093 149.564 L
118.593 150.654 L
120.447 150.654 L
121.947 149.564 L
122.52 147.801 LE
144.84 154.116 LS
144.267 152.352 L
142.767 151.262 L
140.913 151.262 L
139.413 152.352 L
138.84 154.116 L
139.413 155.879 L
140.913 156.969 L
142.767 156.969 L
144.267 155.879 L
144.84 154.116 LE
167.16 153.955 LS
166.587 152.192 L
165.087 151.102 L
163.233 151.102 L
161.733 152.192 L
161.16 153.955 L
161.733 155.718 L
163.233 156.808 L
165.087 156.808 L
166.587 155.718 L
167.16 153.955 LE
189.48 149.84 LS
188.907 148.077 L
187.407 146.987 L
185.553 146.987 L
184.053 148.077 L
183.48 149.84 L
184.053 151.604 L
185.553 152.694 L
187.407 152.694 L
188.907 151.604 L
189.48 149.84 LE
211.8 148.342 LS
211.227 146.579 L
209.727 145.489 L
207.873 145.489 L
206.373 146.579 L
205.8 148.342 L
206.373 150.105 L
207.873 151.195 L
209.727 151.195 L
211.227 150.105 L
211.8 148.342 LE
234.12 154.555 LS
233.547 152.791 L
232.047 151.702 L
230.193 151.702 L
228.693 152.791 L
228.12 154.555 L
228.693 156.318 L
230.193 157.408 L
232.047 157.408 L
233.547 156.318 L
234.12 154.555 LE
256.44 154.996 LS
255.867 153.232 L
254.367 152.143 L
252.513 152.143 L
251.013 153.232 L
250.44 154.996 L
251.013 156.759 L
252.513 157.849 L
254.367 157.849 L
255.867 156.759 L
256.44 154.996 LE
278.76 152.77 LS
278.187 151.007 L
276.687 149.917 L
274.833 149.917 L
273.333 151.007 L
272.76 152.77 L
273.333 154.534 L
274.833 155.623 L
276.687 155.623 L
278.187 154.534 L
278.76 152.77 LE
301.08 160.533 LS
300.507 158.769 L
299.007 157.679 L
297.153 157.679 L
295.653 158.769 L
295.08 160.533 L
295.653 162.296 L
297.153 163.386 L
299.007 163.386 L
300.507 162.296 L
301.08 160.533 LE
323.4 157.737 LS
322.827 155.974 L
321.327 154.884 L
319.473 154.884 L
317.973 155.974 L
317.4 157.737 L
317.973 159.501 L
319.473 160.59 L
321.327 160.59 L
322.827 159.501 L
323.4 157.737 LE
345.72 157.984 LS
345.147 156.221 L
343.647 155.131 L
341.793 155.131 L
340.293 156.221 L
339.72 157.984 L
340.293 159.748 L
341.793 160.837 L
343.647 160.837 L
345.147 159.748 L
345.72 157.984 LE
368.04 157.249 LS
367.467 155.486 L
365.967 154.396 L
364.113 154.396 L
362.613 155.486 L
362.04 157.249 L
362.613 159.013 L
364.113 160.103 L
365.967 160.103 L
367.467 159.013 L
368.04 157.249 LE
390.36 148.326 LS
389.787 146.563 L
388.287 145.473 L
386.433 145.473 L
384.933 146.563 L
384.36 148.326 L
384.933 150.089 L
386.433 151.179 L
388.287 151.179 L
389.787 150.089 L
390.36 148.326 LE
412.68 152.907 LS
412.107 151.143 L
410.607 150.054 L
408.753 150.054 L
407.253 151.143 L
406.68 152.907 L
407.253 154.67 L
408.753 155.76 L
410.607 155.76 L
412.107 154.67 L
412.68 152.907 LE
435 152.317 LS
434.427 150.553 L
432.927 149.464 L
431.073 149.464 L
429.573 150.553 L
429 152.317 L
429.573 154.08 L
431.073 155.17 L
432.927 155.17 L
434.427 154.08 L
435 152.317 LE
457.32 148.96 LS
456.747 147.197 L
455.247 146.107 L
453.393 146.107 L
451.893 147.197 L
451.32 148.96 L
451.893 150.724 L
453.393 151.813 L
455.247 151.813 L
456.747 150.724 L
457.32 148.96 LE
[0 3 1 3 1 3 1 3 1 0] 0 setdash
0 0 1 C
97.2 110.91 LS
119.52 98.5253 L
141.84 110.925 L
164.16 116.613 L
186.48 120.122 L
208.8 99.8019 L
231.12 111.416 L
253.44 118.161 L
275.76 120.509 L
298.08 106.99 L
320.4 106.372 L
342.72 108.882 L
365.04 107.237 L
387.36 101.435 L
409.68 114.565 L
432 120.308 L
454.32 121.577 LE
99.2 110.91 97.818 109.008 98.818 109.735 T
99.2 110.91 96.582 109.008 97.818 109.008 T
99.2 110.91 95.582 109.735 96.582 109.008 T
99.2 110.91 95.2 110.91 95.582 109.735 T
99.2 110.91 95.582 112.086 95.2 110.91 T
99.2 110.91 96.582 112.812 95.582 112.086 T
99.2 110.91 97.818 112.812 96.582 112.812 T
99.2 110.91 98.818 112.086 97.818 112.812 T
121.52 98.5253 120.138 96.6232 121.138 97.3498 T
121.52 98.5253 118.902 96.6232 120.138 96.6232 T
121.52 98.5253 117.902 97.3498 118.902 96.6232 T
121.52 98.5253 117.52 98.5253 117.902 97.3498 T
121.52 98.5253 117.902 99.7009 117.52 98.5253 T
121.52 98.5253 118.902 100.427 117.902 99.7009 T
121.52 98.5253 120.138 100.427 118.902 100.427 T
121.52 98.5253 121.138 99.7009 120.138 100.427 T
143.84 110.925 142.458 109.023 143.458 109.749 T
143.84 110.925 141.222 109.023 142.458 109.023 T
143.84 110.925 140.222 109.749 141.222 109.023 T
143.84 110.925 139.84 110.925 140.222 109.749 T
143.84 110.925 140.222 112.101 139.84 110.925 T
143.84 110.925 141.222 112.827 140.222 112.101 T
143.84 110.925 142.458 112.827 141.222 112.827 T
143.84 110.925 143.458 112.101 142.458 112.827 T
166.16 116.613 164.778 114.711 165.778 115.438 T
166.16 116.613 163.542 114.711 164.778 114.711 T
166.16 116.613 162.542 115.438 163.542 114.711 T
166.16 116.613 162.16 116.613 162.542 115.438 T
166.16 116.613 162.542 117.789 162.16 116.613 T
166.16 116.613 163.542 118.516 162.542 117.789 T
166.16 116.613 164.778 118.516 163.542 118.516 T
166.16 116.613 165.778 117.789 164.778 118.516 T
188.48 120.122 187.098 118.22 188.098 118.946 T
188.48 120.122 185.862 118.22 187.098 118.22 T
188.48 120.122 184.862 118.946 185.862 118.22 T
188.48 120.122 184.48 120.122 184.862 118.946 T
188.48 120.122 184.862 121.297 184.48 120.122 T
188.48 120.122 185.862 122.024 184.862 121.297 T
188.48 120.122 187.098 122.024 185.862 122.024 T
188.48 120.122 188.098 121.297 187.098 122.024 T
210.8 99.8019 209.418 97.8998 210.418 98.6264 T
210.8 99.8019 208.182 97.8998 209.418 97.8998 T
210.8 99.8019 207.182 98.6264 208.182 97.8998 T
210.8 99.8019 206.8 99.8019 207.182 98.6264 T
210.8 99.8019 207.182 100.977 206.8 99.8019 T
210.8 99.8019 208.182 101.704 207.182 100.977 T
210.8 99.8019 209.418 101.704 208.182 101.704 T
210.8 99.8019 210.418 100.977 209.418 101.704 T
233.12 111.416 231.738 109.513 232.738 110.24 T
233.12 111.416 230.502 109.513 231.738 109.513 T
233.12 111.416 229.502 110.24 230.502 109.513 T
233.12 111.416 229.12 111.416 229.502 110.24 T
233.12 111.416 229.502 112.591 229.12 111.416 T
233.12 111.416 230.502 113.318 229.502 112.591 T
233.12 111.416 231.738 113.318 230.502 113.318 T
233.12 111.416 232.738 112.591 231.738 113.318 T
255.44 118.161 254.058 116.259 255.058 116.985 T
255.44 118.161 252.822 116.259 254.058 116.259 T
255.44 118.161 251.822 116.985 252.822 116.259 T
255.44 118.161 251.44 118.161 251.822 116.985 T
255.44 118.161 251.822 119.336 251.44 118.161 T
255.44 118.161 252.822 120.063 251.822 119.336 T
255.44 118.161 254.058 120.063 252.822 120.063 T
255.44 118.161 255.058 119.336 254.058 120.063 T
277.76 120.509 276.378 118.607 277.378 119.334 T
277.76 120.509 275.142 118.607 276.378 118.607 T
277.76 120.509 274.142 119.334 275.142 118.607 T
277.76 120.509 273.76 120.509 274.142 119.334 T
277.76 120.509 274.142 121.685 273.76 120.509 T
277.76 120.509 275.142 122.411 274.142 121.685 T
277.76 120.509 276.378 122.411 275.142 122.411 T
277.76 120.509 277.378 121.685 276.378 122.411 T
300.08 106.99 298.698 105.088 299.698 105.814 T
300.08 106.99 297.462 105.088 298.698 105.088 T
300.08 106.99 296.462 105.814 297.462 105.088 T
300.08 106.99 296.08 106.99 296.462 105.814 T
300.08 106.99 296.462 108.165 296.08 106.99 T
300.08 106.99 297.462 108.892 296.462 108.165 T
300.08 106.99 298.698 108.892 297.462 108.892 T
300.08 106.99 299.698 108.165 298.698 108.892 T
322.4 106.372 321.018 104.47 322.018 105.196 T
322.4 106.372 319.782 104.47 321.018 104.47 T
322.4 106.372 318.782 105.196 319.782 104.47 T
322.4 106.372 318.4 106.372 318.782 105.196 T
322.4 106.372 318.782 107.548 318.4 106.372 T
322.4 106.372 319.782 108.274 318.782 107.548 T
322.4 106.372 321.018 108.274 319.782 108.274 T
322.4 106.372 322.018 107.548 321.018 108.274 T
344.72 108.882 343.338 106.98 344.338 107.706 T
344.72 108.882 342.102 106.98 343.338 106.98 T
344.72 108.882 341.102 107.706 342.102 106.98 T
344.72 108.882 340.72 108.882 341.102 107.706 T
344.72 108.882 341.102 110.057 340.72 108.882 T
344.72 108.882 342.102 110.784 341.102 110.057 T
344.72 108.882 343.338 110.784 342.102 110.784 T
344.72 108.882 344.338 110.057 343.338 110.784 T
367.04 107.237 365.658 105.335 366.658 106.061 T
367.04 107.237 364.422 105.335 365.658 105.335 T
367.04 107.237 363.422 106.061 364.422 105.335 T
367.04 107.237 363.04 107.237 363.422 106.061 T
367.04 107.237 363.422 108.412 363.04 107.237 T
367.04 107.237 364.422 109.139 363.422 108.412 T
367.04 107.237 365.658 109.139 364.422 109.139 T
367.04 107.237 366.658 108.412 365.658 109.139 T
389.36 101.435 387.978 99.5326 388.978 100.259 T
389.36 101.435 386.742 99.5326 387.978 99.5326 T
389.36 101.435 385.742 100.259 386.742 99.5326 T
389.36 101.435 385.36 101.435 385.742 100.259 T
389.36 101.435 385.742 102.61 385.36 101.435 T
389.36 101.435 386.742 103.337 385.742 102.61 T
389.36 101.435 387.978 103.337 386.742 103.337 T
389.36 101.435 388.978 102.61 387.978 103.337 T
411.68 114.565 410.298 112.663 411.298 113.39 T
411.68 114.565 409.062 112.663 410.298 112.663 T
411.68 114.565 408.062 113.39 409.062 112.663 T
411.68 114.565 407.68 114.565 408.062 113.39 T
411.68 114.565 408.062 115.741 407.68 114.565 T
411.68 114.565 409.062 116.467 408.062 115.741 T
411.68 114.565 410.298 116.467 409.062 116.467 T
411.68 114.565 411.298 115.741 410.298 116.467 T
434 120.308 432.618 118.406 433.618 119.132 T
434 120.308 431.382 118.406 432.618 118.406 T
434 120.308 430.382 119.132 431.382 118.406 T
434 120.308 430 120.308 430.382 119.132 T
434 120.308 430.382 121.483 430 120.308 T
434 120.308 431.382 122.21 430.382 121.483 T
434 120.308 432.618 122.21 431.382 122.21 T
434 120.308 433.618 121.483 432.618 122.21 T
456.32 121.577 454.938 119.675 455.938 120.402 T
456.32 121.577 453.702 119.675 454.938 119.675 T
456.32 121.577 452.702 120.402 453.702 119.675 T
456.32 121.577 452.32 121.577 452.702 120.402 T
456.32 121.577 452.702 122.753 452.32 121.577 T
456.32 121.577 453.702 123.48 452.702 122.753 T
456.32 121.577 454.938 123.48 453.702 123.48 T
456.32 121.577 455.938 122.753 454.938 123.48 T
0 0 0 C
( ) 298.08 410.6 15 /Helvetica SBC
grestore
showpage
cleartomark
%%PageTrailer
%%Trailer
end
%%EOF
