%!PS-Adobe-3.0 EPSF-3.0
%%Title: glps_renderer figure
%%Creator: GL2PS 1.3.8, (C) 1999-2012 C. Geuzaine
%%For: Octave
%%CreationDate: Sun Apr 23 21:30:05 2017
%%LanguageLevel: 3
%%DocumentData: Clean7Bit
%%Pages: 1
%%BoundingBox: 0 0 576 433
%%EndComments
%%BeginProlog
/gl2psdict 64 dict def gl2psdict begin
0 setlinecap 0 setlinejoin
/tryPS3shading false def % set to false to force subdivision
/rThreshold 0.064 def % red component subdivision threshold
/gThreshold 0.034 def % green component subdivision threshold
/bThreshold 0.1 def % blue component subdivision threshold
/BD { bind def } bind def
/C  { setrgbcolor } BD
/G  { 0.082 mul exch 0.6094 mul add exch 0.3086 mul add neg 1.0 add setgray } BD
/W  { setlinewidth } BD
/FC { findfont exch /SH exch def SH scalefont setfont } BD
/SW { dup stringwidth pop } BD
/S  { FC moveto show } BD
/SBC{ FC moveto SW -2 div 0 rmoveto show } BD
/SBR{ FC moveto SW neg 0 rmoveto show } BD
/SCL{ FC moveto 0 SH -2 div rmoveto show } BD
/SCC{ FC moveto SW -2 div SH -2 div rmoveto show } BD
/SCR{ FC moveto SW neg SH -2 div rmoveto show } BD
/STL{ FC moveto 0 SH neg rmoveto show } BD
/STC{ FC moveto SW -2 div SH neg rmoveto show } BD
/STR{ FC moveto SW neg SH neg rmoveto show } BD
/FCT { FC translate 0 0 } BD
/SR  { gsave FCT moveto rotate show grestore } BD
/SBCR{ gsave FCT moveto rotate SW -2 div 0 rmoveto show grestore } BD
/SBRR{ gsave FCT moveto rotate SW neg 0 rmoveto show grestore } BD
/SCLR{ gsave FCT moveto rotate 0 SH -2 div rmoveto show grestore} BD
/SCCR{ gsave FCT moveto rotate SW -2 div SH -2 div rmoveto show grestore} BD
/SCRR{ gsave FCT moveto rotate SW neg SH -2 div rmoveto show grestore} BD
/STLR{ gsave FCT moveto rotate 0 SH neg rmoveto show grestore } BD
/STCR{ gsave FCT moveto rotate SW -2 div SH neg rmoveto show grestore } BD
/STRR{ gsave FCT moveto rotate SW neg SH neg rmoveto show grestore } BD
/P  { newpath 0.0 360.0 arc closepath fill } BD
/LS { newpath moveto } BD
/L  { lineto } BD
/LE { lineto stroke } BD
/T  { newpath moveto lineto lineto closepath fill } BD
/STshfill {
      /b1 exch def /g1 exch def /r1 exch def /y1 exch def /x1 exch def
      /b2 exch def /g2 exch def /r2 exch def /y2 exch def /x2 exch def
      /b3 exch def /g3 exch def /r3 exch def /y3 exch def /x3 exch def
      gsave << /ShadingType 4 /ColorSpace [/DeviceRGB]
      /DataSource [ 0 x1 y1 r1 g1 b1 0 x2 y2 r2 g2 b2 0 x3 y3 r3 g3 b3 ] >>
      shfill grestore } BD
/Tm { 3 -1 roll 8 -1 roll 13 -1 roll add add 3 div
      3 -1 roll 7 -1 roll 11 -1 roll add add 3 div
      3 -1 roll 6 -1 roll 9 -1 roll add add 3 div C T } BD
/STsplit {
      4 index 15 index add 0.5 mul
      4 index 15 index add 0.5 mul
      4 index 15 index add 0.5 mul
      4 index 15 index add 0.5 mul
      4 index 15 index add 0.5 mul
      5 copy 5 copy 25 15 roll
      9 index 30 index add 0.5 mul
      9 index 30 index add 0.5 mul
      9 index 30 index add 0.5 mul
      9 index 30 index add 0.5 mul
      9 index 30 index add 0.5 mul
      5 copy 5 copy 35 5 roll 25 5 roll 15 5 roll
      4 index 10 index add 0.5 mul
      4 index 10 index add 0.5 mul
      4 index 10 index add 0.5 mul
      4 index 10 index add 0.5 mul
      4 index 10 index add 0.5 mul
      5 copy 5 copy 40 5 roll 25 5 roll 15 5 roll 25 5 roll
      STnoshfill STnoshfill STnoshfill STnoshfill } BD
/STnoshfill {
      2 index 8 index sub abs rThreshold gt
      { STsplit }
      { 1 index 7 index sub abs gThreshold gt
        { STsplit }
        { dup 6 index sub abs bThreshold gt
          { STsplit }
          { 2 index 13 index sub abs rThreshold gt
            { STsplit }
            { 1 index 12 index sub abs gThreshold gt
              { STsplit }
              { dup 11 index sub abs bThreshold gt
                { STsplit }
                { 7 index 13 index sub abs rThreshold gt
                  { STsplit }
                  { 6 index 12 index sub abs gThreshold gt
                    { STsplit }
                    { 5 index 11 index sub abs bThreshold gt
                      { STsplit }
                      { Tm }
                      ifelse }
                    ifelse }
                  ifelse }
                ifelse }
              ifelse }
            ifelse }
          ifelse }
        ifelse }
      ifelse } BD
tryPS3shading
{ /shfill where
  { /ST { STshfill } BD }
  { /ST { STnoshfill } BD }
  ifelse }
{ /ST { STnoshfill } BD }
ifelse
end
%%EndProlog
%%BeginSetup
/DeviceRGB setcolorspace
gl2psdict begin
%%EndSetup
%%Page: 1 1
%%BeginPageSetup
%%EndPageSetup
mark
gsave
1.0 1.0 scale
1 1 1 C
74.88 400.6 521.28 48.5201 74.88 48.5201 T
74.88 400.6 521.28 400.6 521.28 48.5201 T
0.5 W
[16 0] 0 setdash
0 0 0 C
74.88 48.5201 LS
521.28 48.5201 LE
74.88 400.6 LS
521.28 400.6 LE
74.88 48.5201 LS
74.88 400.6 LE
521.28 48.5201 LS
521.28 400.6 LE
74.88 48.5201 LS
74.88 52.9851 LE
74.88 400.6 LS
74.88 396.135 LE
186.48 48.5201 LS
186.48 52.9851 LE
186.48 400.6 LS
186.48 396.135 LE
298.08 48.5201 LS
298.08 52.9851 LE
298.08 400.6 LS
298.08 396.135 LE
409.68 48.5201 LS
409.68 52.9851 LE
409.68 400.6 LS
409.68 396.135 LE
521.28 48.5201 LS
521.28 52.9851 LE
521.28 400.6 LS
521.28 396.135 LE
(0) 74.88 43.5189 10 /Helvetica STC
(5) 186.48 43.5189 10 /Helvetica STC
(10) 298.08 43.5189 10 /Helvetica STC
(15) 409.68 43.5189 10 /Helvetica STC
(20) 521.28 43.5189 10 /Helvetica STC
74.88 48.5201 LS
79.348 48.5201 LE
521.28 48.5201 LS
516.812 48.5201 LE
74.88 136.54 LS
79.348 136.54 LE
521.28 136.54 LS
516.812 136.54 LE
74.88 224.56 LS
79.348 224.56 LE
521.28 224.56 LS
516.812 224.56 LE
74.88 312.58 LS
79.348 312.58 LE
521.28 312.58 LS
516.812 312.58 LE
74.88 400.6 LS
79.348 400.6 LE
521.28 400.6 LS
516.812 400.6 LE
(0.6) 69.8755 48.52 10 /Helvetica SCR
(0.7) 69.8755 136.54 10 /Helvetica SCR
(0.8) 69.8755 224.56 10 /Helvetica SCR
(0.9) 69.8755 312.58 10 /Helvetica SCR
(1) 69.8755 400.6 10 /Helvetica SCR
(structuring elements sizes) 298.08 32.5189 14 /Helvetica STC
(Granulometry ) 90 50.8755 224.56 14 /Helvetica SBCR
2 W
[0 3 1 3 1 3 1 3 1 0] 0 setdash
1 0 0 C
97.2 400.6 LS
119.52 338.635 L
141.84 250.096 L
164.16 222.777 L
186.48 203.216 L
208.8 181.483 L
231.12 167.113 L
253.44 148.643 L
275.76 134.433 L
298.08 124.275 L
320.4 110.867 L
342.72 100.571 L
365.04 90.2927 L
387.36 81.0656 L
409.68 82.5922 LE
[] 0 setdash
94.2 400.6 LS
100.2 400.6 LE
97.2 403.6 LS
97.2 397.6 LE
116.52 338.635 LS
122.52 338.635 LE
119.52 341.635 LS
119.52 335.635 LE
138.84 250.096 LS
144.84 250.096 LE
141.84 253.096 LS
141.84 247.096 LE
161.16 222.777 LS
167.16 222.777 LE
164.16 225.777 LS
164.16 219.777 LE
183.48 203.216 LS
189.48 203.216 LE
186.48 206.216 LS
186.48 200.216 LE
205.8 181.483 LS
211.8 181.483 LE
208.8 184.483 LS
208.8 178.483 LE
228.12 167.113 LS
234.12 167.113 LE
231.12 170.113 LS
231.12 164.113 LE
250.44 148.643 LS
256.44 148.643 LE
253.44 151.643 LS
253.44 145.643 LE
272.76 134.433 LS
278.76 134.433 LE
275.76 137.433 LS
275.76 131.433 LE
295.08 124.275 LS
301.08 124.275 LE
298.08 127.275 LS
298.08 121.275 LE
317.4 110.867 LS
323.4 110.867 LE
320.4 113.867 LS
320.4 107.867 LE
339.72 100.571 LS
345.72 100.571 LE
342.72 103.571 LS
342.72 97.5714 LE
362.04 90.2926 LS
368.04 90.2926 LE
365.04 93.2926 LS
365.04 87.2926 LE
384.36 81.0656 LS
390.36 81.0656 LE
387.36 84.0656 LS
387.36 78.0656 LE
406.68 82.5922 LS
412.68 82.5922 LE
409.68 85.5922 LS
409.68 79.5922 LE
[0 3 1 3 1 3 1 3 1 0] 0 setdash
0 1 0 C
97.2 400.6 LS
119.52 356.157 L
141.84 272.193 L
164.16 247.699 L
186.48 248.664 L
208.8 226.561 L
231.12 212.309 L
253.44 205.553 L
275.76 195.091 L
298.08 199.344 L
320.4 191.587 L
342.72 191.698 L
365.04 201.598 L
387.36 193.946 L
409.68 184.699 LE
[] 0 setdash
100.2 400.6 LS
99.627 398.837 L
98.127 397.747 L
96.2729 397.747 L
94.7729 398.837 L
94.2 400.6 L
94.7729 402.363 L
96.2729 403.453 L
98.127 403.453 L
99.627 402.363 L
100.2 400.6 LE
122.52 356.157 LS
121.947 354.394 L
120.447 353.304 L
118.593 353.304 L
117.093 354.394 L
116.52 356.157 L
117.093 357.92 L
118.593 359.01 LE
120.447 359.01 LS
121.947 357.92 L
122.52 356.157 LE
144.84 272.193 LS
144.267 270.429 L
142.767 269.339 L
140.913 269.339 L
139.413 270.429 L
138.84 272.193 L
139.413 273.956 L
140.913 275.046 L
142.767 275.046 L
144.267 273.956 L
144.84 272.193 LE
167.16 247.699 LS
166.587 245.936 L
165.087 244.846 L
163.233 244.846 L
161.733 245.936 L
161.16 247.699 L
161.733 249.463 L
163.233 250.552 L
165.087 250.552 L
166.587 249.463 L
167.16 247.699 LE
189.48 248.664 LS
188.907 246.901 L
187.407 245.811 L
185.553 245.811 L
184.053 246.901 L
183.48 248.664 L
184.053 250.427 L
185.553 251.517 LE
187.407 251.517 LS
188.907 250.427 L
189.48 248.664 LE
211.8 226.561 LS
211.227 224.797 L
209.727 223.707 L
207.873 223.707 L
206.373 224.797 L
205.8 226.561 L
206.373 228.324 L
207.873 229.414 L
209.727 229.414 L
211.227 228.324 L
211.8 226.561 LE
234.12 212.309 LS
233.547 210.546 L
232.047 209.456 L
230.193 209.456 L
228.693 210.546 L
228.12 212.309 L
228.693 214.073 L
230.193 215.163 L
232.047 215.163 L
233.547 214.073 L
234.12 212.309 LE
256.44 205.553 LS
255.867 203.79 L
254.367 202.7 L
252.513 202.7 L
251.013 203.79 L
250.44 205.553 L
251.013 207.316 L
252.513 208.406 L
254.367 208.406 L
255.867 207.316 L
256.44 205.553 LE
278.76 195.091 LS
278.187 193.327 L
276.687 192.238 L
274.833 192.238 L
273.333 193.327 L
272.76 195.091 L
273.333 196.854 L
274.833 197.944 L
276.687 197.944 L
278.187 196.854 L
278.76 195.091 LE
301.08 199.344 LS
300.507 197.58 L
299.007 196.491 L
297.153 196.491 L
295.653 197.58 L
295.08 199.344 L
295.653 201.107 L
297.153 202.197 L
299.007 202.197 L
300.507 201.107 L
301.08 199.344 LE
323.4 191.587 LS
322.827 189.823 L
321.327 188.734 L
319.473 188.734 L
317.973 189.823 L
317.4 191.587 L
317.973 193.35 L
319.473 194.44 L
321.327 194.44 L
322.827 193.35 L
323.4 191.587 LE
345.72 191.698 LS
345.147 189.935 L
343.647 188.845 L
341.793 188.845 L
340.293 189.935 L
339.72 191.698 L
340.293 193.462 L
341.793 194.552 L
343.647 194.552 L
345.147 193.462 L
345.72 191.698 LE
368.04 201.598 LS
367.467 199.835 L
365.967 198.745 L
364.113 198.745 L
362.613 199.835 L
362.04 201.598 L
362.613 203.361 L
364.113 204.451 L
365.967 204.451 L
367.467 203.361 L
368.04 201.598 LE
390.36 193.946 LS
389.787 192.183 L
388.287 191.093 L
386.433 191.093 L
384.933 192.183 L
384.36 193.946 L
384.933 195.71 L
386.433 196.799 L
388.287 196.799 L
389.787 195.71 L
390.36 193.946 LE
412.68 184.699 LS
412.107 182.936 L
410.607 181.846 L
408.753 181.846 L
407.253 182.936 L
406.68 184.699 L
407.253 186.462 L
408.753 187.552 L
410.607 187.552 L
412.107 186.462 L
412.68 184.699 LE
[0 3 1 3 1 3 1 3 1 0] 0 setdash
0 0 1 C
97.2 400.6 LS
119.52 358.711 L
141.84 280.98 L
164.16 258.237 L
186.48 250.151 L
208.8 233.145 L
231.12 221.299 L
253.44 224.52 L
275.76 232.935 L
298.08 230.784 L
320.4 223.629 L
342.72 225.73 L
365.04 229.605 L
387.36 238.782 L
409.68 232.497 LE
99.2 400.6 97.818 398.698 98.818 399.424 T
99.2 400.6 96.582 398.698 97.818 398.698 T
99.2 400.6 95.582 399.424 96.582 398.698 T
99.2 400.6 95.2 400.6 95.582 399.424 T
99.2 400.6 95.582 401.776 95.2 400.6 T
99.2 400.6 96.582 402.502 95.582 401.776 T
99.2 400.6 97.818 402.502 96.582 402.502 T
99.2 400.6 98.818 401.776 97.818 402.502 T
121.52 358.711 120.138 356.809 121.138 357.535 T
121.52 358.711 118.902 356.809 120.138 356.809 T
121.52 358.711 117.902 357.535 118.902 356.809 T
121.52 358.711 117.52 358.711 117.902 357.535 T
121.52 358.711 117.902 359.887 117.52 358.711 T
121.52 358.711 118.902 360.613 117.902 359.887 T
121.52 358.711 120.138 360.613 118.902 360.613 T
121.52 358.711 121.138 359.887 120.138 360.613 T
143.84 280.98 142.458 279.078 143.458 279.805 T
143.84 280.98 141.222 279.078 142.458 279.078 T
143.84 280.98 140.222 279.805 141.222 279.078 T
143.84 280.98 139.84 280.98 140.222 279.805 T
143.84 280.98 140.222 282.156 139.84 280.98 T
143.84 280.98 141.222 282.882 140.222 282.156 T
143.84 280.98 142.458 282.882 141.222 282.882 T
143.84 280.98 143.458 282.156 142.458 282.882 T
166.16 258.237 164.778 256.335 165.778 257.061 T
166.16 258.237 163.542 256.335 164.778 256.335 T
166.16 258.237 162.542 257.061 163.542 256.335 T
166.16 258.237 162.16 258.237 162.542 257.061 T
166.16 258.237 162.542 259.413 162.16 258.237 T
166.16 258.237 163.542 260.139 162.542 259.413 T
166.16 258.237 164.778 260.139 163.542 260.139 T
166.16 258.237 165.778 259.413 164.778 260.139 T
188.48 250.151 187.098 248.249 188.098 248.976 T
188.48 250.151 185.862 248.249 187.098 248.249 T
188.48 250.151 184.862 248.976 185.862 248.249 T
188.48 250.151 184.48 250.151 184.862 248.976 T
188.48 250.151 184.862 251.327 184.48 250.151 T
188.48 250.151 185.862 252.053 184.862 251.327 T
188.48 250.151 187.098 252.053 185.862 252.053 T
188.48 250.151 188.098 251.327 187.098 252.053 T
210.8 233.145 209.418 231.243 210.418 231.969 T
210.8 233.145 208.182 231.243 209.418 231.243 T
210.8 233.145 207.182 231.969 208.182 231.243 T
210.8 233.145 206.8 233.145 207.182 231.969 T
210.8 233.145 207.182 234.32 206.8 233.145 T
210.8 233.145 208.182 235.047 207.182 234.32 T
210.8 233.145 209.418 235.047 208.182 235.047 T
210.8 233.145 210.418 234.32 209.418 235.047 T
233.12 221.299 231.738 219.397 232.738 220.123 T
233.12 221.299 230.502 219.397 231.738 219.397 T
233.12 221.299 229.502 220.123 230.502 219.397 T
233.12 221.299 229.12 221.299 229.502 220.123 T
233.12 221.299 229.502 222.475 229.12 221.299 T
233.12 221.299 230.502 223.201 229.502 222.475 T
233.12 221.299 231.738 223.201 230.502 223.201 T
233.12 221.299 232.738 222.475 231.738 223.201 T
255.44 224.52 254.058 222.618 255.058 223.344 T
255.44 224.52 252.822 222.618 254.058 222.618 T
255.44 224.52 251.822 223.344 252.822 222.618 T
255.44 224.52 251.44 224.52 251.822 223.344 T
255.44 224.52 251.822 225.696 251.44 224.52 T
255.44 224.52 252.822 226.422 251.822 225.696 T
255.44 224.52 254.058 226.422 252.822 226.422 T
255.44 224.52 255.058 225.696 254.058 226.422 T
277.76 232.935 276.378 231.033 277.378 231.759 T
277.76 232.935 275.142 231.033 276.378 231.033 T
277.76 232.935 274.142 231.759 275.142 231.033 T
277.76 232.935 273.76 232.935 274.142 231.759 T
277.76 232.935 274.142 234.11 273.76 232.935 T
277.76 232.935 275.142 234.837 274.142 234.11 T
277.76 232.935 276.378 234.837 275.142 234.837 T
277.76 232.935 277.378 234.11 276.378 234.837 T
300.08 230.784 298.698 228.882 299.698 229.609 T
300.08 230.784 297.462 228.882 298.698 228.882 T
300.08 230.784 296.462 229.609 297.462 228.882 T
300.08 230.784 296.08 230.784 296.462 229.609 T
300.08 230.784 296.462 231.96 296.08 230.784 T
300.08 230.784 297.462 232.686 296.462 231.96 T
300.08 230.784 298.698 232.686 297.462 232.686 T
300.08 230.784 299.698 231.96 298.698 232.686 T
322.4 223.629 321.018 221.727 322.018 222.454 T
322.4 223.629 319.782 221.727 321.018 221.727 T
322.4 223.629 318.782 222.454 319.782 221.727 T
322.4 223.629 318.4 223.629 318.782 222.454 T
322.4 223.629 318.782 224.805 318.4 223.629 T
322.4 223.629 319.782 225.531 318.782 224.805 T
322.4 223.629 321.018 225.531 319.782 225.531 T
322.4 223.629 322.018 224.805 321.018 225.531 T
344.72 225.73 343.338 223.828 344.338 224.554 T
344.72 225.73 342.102 223.828 343.338 223.828 T
344.72 225.73 341.102 224.554 342.102 223.828 T
344.72 225.73 340.72 225.73 341.102 224.554 T
344.72 225.73 341.102 226.905 340.72 225.73 T
344.72 225.73 342.102 227.632 341.102 226.905 T
344.72 225.73 343.338 227.632 342.102 227.632 T
344.72 225.73 344.338 226.905 343.338 227.632 T
367.04 229.605 365.658 227.702 366.658 228.429 T
367.04 229.605 364.422 227.702 365.658 227.702 T
367.04 229.605 363.422 228.429 364.422 227.702 T
367.04 229.605 363.04 229.605 363.422 228.429 T
367.04 229.605 363.422 230.78 363.04 229.605 T
367.04 229.605 364.422 231.507 363.422 230.78 T
367.04 229.605 365.658 231.507 364.422 231.507 T
367.04 229.605 366.658 230.78 365.658 231.507 T
389.36 238.782 387.978 236.88 388.978 237.607 T
389.36 238.782 386.742 236.88 387.978 236.88 T
389.36 238.782 385.742 237.607 386.742 236.88 T
389.36 238.782 385.36 238.782 385.742 237.607 T
389.36 238.782 385.742 239.958 385.36 238.782 T
389.36 238.782 386.742 240.684 385.742 239.958 T
389.36 238.782 387.978 240.684 386.742 240.684 T
389.36 238.782 388.978 239.958 387.978 240.684 T
411.68 232.497 410.298 230.595 411.298 231.321 T
411.68 232.497 409.062 230.595 410.298 230.595 T
411.68 232.497 408.062 231.321 409.062 230.595 T
411.68 232.497 407.68 232.497 408.062 231.321 T
411.68 232.497 408.062 233.672 407.68 232.497 T
411.68 232.497 409.062 234.399 408.062 233.672 T
411.68 232.497 410.298 234.399 409.062 234.399 T
411.68 232.497 411.298 233.672 410.298 234.399 T
0 0 0 C
( ) 298.08 410.6 15 /Helvetica SBC
grestore
showpage
cleartomark
%%PageTrailer
%%Trailer
end
%%EOF
