\relax 
\citation{markr1994}
\citation{elunai2011particulate}
\citation{materka1998}
\citation{aptulefe2011}
\citation{aptoula2007morphological,lefevre2009beyond}
\@writefile{toc}{\contentsline {section}{\numberline {1}Introducti\IeC {\'o}n}{1}}
\newlabel{intro}{{1}{1}}
\citation{burger2009digital}
\citation{burger2009digital}
\citation{burger2009digital}
\citation{aptulefe2011,angulo2002morphological}
\citation{angulo2002morphological}
\citation{materka1998}
\citation{rao2012taxonomy}
\citation{materka1998}
\citation{aptulefe2011}
\citation{zhang2002brief,ivanovicicolor,materka1998}
\citation{zhang2002brief,ivanovicicolor}
\citation{zhang2002brief,aptulefe2011}
\citation{palm2004color,van2005parallel}
\citation{hanbury2005illumination}
\citation{batman1997size}
\citation{tang1998automatic}
\citation{kotsiantis2007supervised}
\@writefile{toc}{\contentsline {section}{\numberline {2}Marco Te\IeC {\'o}rico}{2}}
\newlabel{sec:marcoteorico}{{2}{2}}
\@writefile{toc}{\contentsline {subsection}{\numberline {2.1}Im\IeC {\'a}genes a color y Textura}{2}}
\@writefile{toc}{\contentsline {subsection}{\numberline {2.2}Caracterizaci\IeC {\'o}n y clasificaci\IeC {\'o}n de texturas}{2}}
\citation{matheron2002birth,matheron1975random}
\citation{aptoula2007comparative}
\citation{aptoula2007comparative}
\citation{aptulefe2011,lefevre2009beyond}
\citation{aptoula2007morphological}
\citation{aptulefe2011}
\citation{matheron1975random}
\citation{vincent2000granulometries,soille2013morphological}
\@writefile{toc}{\contentsline {subsection}{\numberline {2.3}Morfolog\IeC {\'\i }a Matem\IeC {\'a}tica en escala de grises y color }{3}}
\newlabel{eq:erosionf}{{1}{3}}
\newlabel{eq:dilatacionf}{{2}{3}}
\newlabel{eq:aperturaf}{{3}{3}}
\newlabel{eq:cierref}{{4}{3}}
\@writefile{toc}{\contentsline {section}{\numberline {3}Series Morfol\IeC {\'o}gicas }{3}}
\newlabel{sec:seriesmorf}{{3}{3}}
\@writefile{toc}{\contentsline {subsection}{\numberline {3.1}Series Morfol\IeC {\'o}gicas en escala grises}{3}}
\@writefile{toc}{\contentsline {subsection}{\numberline {3.2}Granulometr\IeC {\'\i }a }{3}}
\newlabel{subsec_granulometrica}{{3.2}{3}}
\citation{serra1992overview}
\citation{aptoula2007morphological}
\citation{batman1997size}
\citation{matheron1975random,maragos1989pattern}
\citation{aptoula2007morphological}
\citation{lefevre2009beyond}
\newlabel{eq:granul_gris}{{6}{4}}
\newlabel{eq:volumen}{{7}{4}}
\newlabel{eq:covmorf_gris}{{8}{4}}
\providecommand*\caption@xref[2]{\@setref\relax\@undefined{#1}}
\newlabel{fig:elementosestruc_1}{{1a}{4}}
\newlabel{sub@fig:elementosestruc_1}{{a}{4}}
\newlabel{fig:elementosestruc_2}{{1b}{4}}
\newlabel{sub@fig:elementosestruc_2}{{b}{4}}
\@writefile{lof}{\contentsline {figure}{\numberline {1}{\ignorespaces Elementos estructurantes utilizados en (a) la granulometr\IeC {\'\i }a , (b) la covarianza morfol\IeC {\'o}gica. \relax }}{4}}
\newlabel{fig:elementosestruc}{{1}{4}}
\@writefile{toc}{\contentsline {subsection}{\numberline {3.3} Series Morfol\IeC {\'o}gicas extendidas a color }{4}}
\newlabel{eq:seriemorfomarginal}{{10}{4}}
\citation{astoladougherty1999nonlinear}
\citation{aptulefe2011}
\citation{ivanovicicolor}
\citation{angulo2002morphological,lefevre2009beyond}
\@writefile{lof}{\contentsline {figure}{\numberline {2}{\ignorespaces  Granulometr\IeC {\'\i }a de la muestra 000242 \relax }}{5}}
\newlabel{fig:000242_granul}{{2}{5}}
\@writefile{lof}{\contentsline {figure}{\numberline {3}{\ignorespaces  Covarianza Morfol\IeC {\'o}gica de la muestra 000242 \relax }}{5}}
\newlabel{fig:000242_covar}{{3}{5}}
\newlabel{eq:covarcolor}{{11}{5}}
\newlabel{eq:granulcolor}{{12}{5}}
\@writefile{toc}{\contentsline {section}{\numberline {4}Medidas de evaluaci\IeC {\'o}n}{5}}
\newlabel{sec:medida_eval}{{4}{5}}
\newlabel{eq:varianza}{{13}{5}}
\newlabel{eq:energia}{{14}{5}}
\newlabel{eq:entropia}{{15}{5}}
\newlabel{eq:hipervolumen}{{16}{5}}
\@writefile{toc}{\contentsline {section}{\numberline {5}Propuesta}{5}}
\newlabel{sec:propuesta}{{5}{5}}
\citation{arvis2011generalization,martinez2015alternative}
\citation{arvis2011generalization,presutti2004matriz}
\citation{akhloufi2007frameworkfeaturesdist}
\@writefile{toc}{\contentsline {subsection}{\numberline {5.1}Distancias Intercanales}{6}}
\newlabel{fig:000242_granNN_RGB}{{4a}{6}}
\newlabel{sub@fig:000242_granNN_RGB}{{a}{6}}
\newlabel{fig:000242_covNN_RGB}{{4b}{6}}
\newlabel{sub@fig:000242_covNN_RGB}{{b}{6}}
\@writefile{lof}{\contentsline {figure}{\numberline {4}{\ignorespaces (a) Granulometr\IeC {\'\i }a (b) covarianza morfol\IeC {\'o}gica de la muestra 000242\relax }}{6}}
\@writefile{lof}{\contentsline {figure}{\numberline {5}{\ignorespaces Canales $Q_1$,$Q_2$,$Q_3$ de la imagen de salida luego de aplicar el filtro morfol\IeC {\'o}gico $\psi $ a una imagen \ensuremath  {\mathchoice {\unhbox \voidb@x \hbox {\relax \mathversion  {bold}$\displaystyle \mathbf  {f}$}} {\unhbox \voidb@x \hbox {\relax \mathversion  {bold}$\textstyle \mathbf  {f}$}} {\unhbox \voidb@x \hbox {\relax \mathversion  {bold}$\scriptstyle \mathbf  {f}$}} {\unhbox \voidb@x \hbox {\relax \mathversion  {bold}$\scriptscriptstyle \mathbf  {f}$}}}.\relax }}{6}}
\newlabel{fig:propuestaQs}{{5}{6}}
\citation{van2010evaluating}
\newlabel{eq:distintercanal_1}{{21}{7}}
\newlabel{eq:distintercanal_2}{{22}{7}}
\newlabel{eq:volumen_distinter}{{24}{7}}
\@writefile{toc}{\contentsline {subsection}{\numberline {5.2}Proporci\IeC {\'o}n Intercanal}{7}}
\newlabel{eq:volumen_proporcion}{{26}{7}}
\@writefile{toc}{\contentsline {subsection}{\numberline {5.3}Volumen-RG}{7}}
\newlabel{eq:histrb}{{27}{7}}
\newlabel{volumenrg_1}{{28}{7}}
\newlabel{volumenrg_2}{{29}{7}}
\citation{ojala2002outex}
\citation{ayaladomingode2006selecting}
\citation{hanbury2005illumination}
\newlabel{volumenrg_3}{{30}{8}}
\newlabel{eq:volumen_volrb}{{31}{8}}
\@writefile{toc}{\contentsline {section}{\numberline {6}Resultados Experimentales}{8}}
\newlabel{sec:resultadosexperi}{{6}{8}}
\@writefile{toc}{\contentsline {subsection}{\numberline {6.1}Experimento 1}{8}}
\@writefile{lof}{\contentsline {figure}{\numberline {6}{\ignorespaces  Las 68 clases de textura de OutexTC13\relax }}{8}}
\newlabel{fig:outex13muestra}{{6}{8}}
\citation{finlayson2005illuminant}
\@writefile{lot}{\contentsline {table}{\numberline {1}{\ignorespaces Resultados de clasificaci\IeC {\'o}n por Medidas de Evaluaci\IeC {\'o}n. Ordenamiento por Norma \relax }}{9}}
\newlabel{tab:exp2_euclid}{{1}{9}}
\@writefile{lot}{\contentsline {table}{\numberline {2}{\ignorespaces Resultados de clasificaci\IeC {\'o}n por Medidas de Evaluaci\IeC {\'o}n. Procesamiento Marginal\relax }}{9}}
\newlabel{tab:exp2_tablamarginal}{{2}{9}}
\@writefile{toc}{\contentsline {subsection}{\numberline {6.2}Experimento 2}{9}}
\newlabel{fig:000002_inca}{{7a}{10}}
\newlabel{sub@fig:000002_inca}{{a}{10}}
\newlabel{fig:000002_inca_EQ}{{7b}{10}}
\newlabel{sub@fig:000002_inca_EQ}{{b}{10}}
\@writefile{lof}{\contentsline {figure}{\numberline {7}{\ignorespaces Superficie de textura bajo diferentes fuentes de iluminaci\IeC {\'o}n y sus respectivos pre-procesamientos por ecualizaci\IeC {\'o}n \relax }}{10}}
\newlabel{fig:invarianzailum_muestra}{{7}{10}}
\@writefile{lot}{\contentsline {table}{\numberline {3}{\ignorespaces Resultados de clasificaci\IeC {\'o}n OutexTC14. Ordenamiento por Norma \relax }}{10}}
\newlabel{exper3_outex14}{{3}{10}}
\@writefile{toc}{\contentsline {section}{\numberline {7}Conclusiones y trabajos futuros}{10}}
\newlabel{sec:conclusiones}{{7}{10}}
\@writefile{lof}{\contentsline {figure}{\numberline {8}{\ignorespaces Curvas de granulometr\IeC {\'\i }a sin normalizar de 7a\hbox {} y 7b\hbox {} con ordenamiento norma-eucl\IeC {\'\i }dea, $\lambda =15$ pasos de 2 \relax }}{10}}
\newlabel{fig:outex14_curvagranul}{{8}{10}}
\bibstyle{spbasic}
\bibdata{referencias/primary,referencias/second,referencias/colorord}
